<?xml version="1.0" standalone="no"?>
<!DOCTYPE svg PUBLIC "-//W3C//DTD SVG 1.1//EN" "http://www.w3.org/Graphics/SVG/1.1/DTD/svg11.dtd" >
<svg>
<metadata>
Created by FontForge 20090622 at Sun Feb 28 05:52:33 2016
 By deploy user
&#194;&#169; 1988, 1990, 1993, 2002 Adobe Systems Incorporated. All rights reserved.
</metadata>
<defs>
<font id="HelveticaNeueLTStd-Md" horiz-adv-x="556" >
  <font-face 
    font-family="HelveticaNeueLT Std Med"
    font-weight="500"
    font-stretch="normal"
    units-per-em="1000"
    panose-1="2 11 6 4 2 2 2 2 2 4"
    ascent="714"
    descent="-286"
    x-height="517"
    cap-height="714"
    bbox="-165 -221 1066 952"
    underline-thickness="50"
    underline-position="-50"
    unicode-range="U+0020-U+FB02"
  />
<missing-glyph horiz-adv-x="500" 
d="M0 0v700h500v-700h-500zM250 395l170 255h-340zM280 350l170 -255v510zM80 50h340l-170 255zM50 605v-510l170 255z" />
    <glyph glyph-name="f_i" unicode="fi" 
d="M378 0v517h114v-517h-114zM9 432v85h85v43q0 90 38.5 122t104.5 32q55 0 80 -7v-89q-23 6 -53 6q-56 0 -56 -54v-53h97v-85h-97v-432h-114v432h-85zM378 606v108h114v-108h-114z" />
    <glyph glyph-name="f_l" unicode="fl" 
d="M9 432v85h85v43q0 90 38.5 122t104.5 32q55 0 80 -7v-89q-23 6 -53 6q-56 0 -56 -54v-53h97v-85h-97v-432h-114v432h-85zM378 0v714h114v-714h-114z" />
    <glyph glyph-name=".notdef" horiz-adv-x="500" 
d="M0 0v700h500v-700h-500zM250 395l170 255h-340zM280 350l170 -255v510zM80 50h340l-170 255zM50 605v-510l170 255z" />
    <glyph glyph-name=".null" horiz-adv-x="0" 
 />
    <glyph glyph-name="nonmarkingreturn" horiz-adv-x="333" 
 />
    <glyph glyph-name="space" unicode=" " horiz-adv-x="278" 
 />
    <glyph glyph-name="exclam" unicode="!" horiz-adv-x="278" 
d="M77 508v206h125v-206l-33 -309h-59zM72 0v125h134v-125h-134z" />
    <glyph glyph-name="quotedbl" unicode="&#x22;" horiz-adv-x="444" 
d="M83 432v282h102v-282h-102zM259 432v282h102v-282h-102z" />
    <glyph glyph-name="numbersign" unicode="#" 
d="M495 285v-75h-95l-30 -210h-80l29 210h-110l-30 -210h-80l29 210h-94v75h105l18 130h-94v75h104l29 210h81l-30 -210h111l29 210h81l-30 -210h86v-75h-96l-18 -130h85zM348 415h-111l-18 -130h111z" />
    <glyph glyph-name="dollar" unicode="$" 
d="M302 306v-233q123 9 123 119q0 51 -32.5 75t-90.5 39zM17 217h114q-2 -140 128 -144v242q-39 11 -66.5 20.5t-60 27.5t-52.5 40t-34 56t-14 76q0 91 66.5 143.5t160.5 52.5v78h43v-78q95 0 157 -50t62 -145h-114q-5 105 -105 105v-211q42 -11 72 -21.5t63 -28.5t54 -40.5
t34.5 -56t13.5 -75.5q0 -107 -65.5 -163.5t-171.5 -61.5v-78h-43v78q-111 2 -177 63.5t-65 170.5zM259 441v200q-113 0 -113 -98q0 -44 30.5 -66.5t82.5 -35.5z" />
    <glyph glyph-name="percent" unicode="%" horiz-adv-x="1000" 
d="M751 -14q-86 0 -126.5 55t-40.5 144q0 87 42 143t125 56t125 -56t42 -143q0 -89 -40.5 -144t-126.5 -55zM674 185q0 -134 76 -134q40 0 59 37t19 97q0 134 -78 134q-76 0 -76 -134zM249 316q-86 0 -126.5 55t-40.5 144q0 87 42 143t125 56t125 -56t42 -143
q0 -89 -40.5 -144t-126.5 -55zM172 515q0 -134 76 -134q40 0 59 37t19 97q0 134 -78 134q-76 0 -76 -134zM260 -24l389 748h76l-387 -748h-78z" />
    <glyph glyph-name="ampersand" unicode="&#x26;" horiz-adv-x="648" 
d="M302 646q-32 0 -54 -22t-22 -57q0 -16 7.5 -34t14.5 -29t22.5 -30t20.5 -26q27 18 42 31t28.5 35.5t13.5 49.5q0 36 -20 59t-53 23zM396 156l-140 174q-4 -3 -26.5 -15t-31.5 -19.5t-24 -22.5t-21.5 -34t-6.5 -43q0 -56 32 -88t83 -32q13 0 25.5 1.5t23 5.5l18.5 7
t16.5 10t13.5 10.5t12 12l9.5 11.5t9 11.5t7.5 10.5zM522 0l-65 80q-77 -94 -200 -94q-100 0 -162.5 56.5t-62.5 155.5q0 123 164 207q-23 30 -36 49t-24.5 48.5t-11.5 58.5q0 76 50.5 123t124.5 47t126 -45t52 -126q0 -112 -129 -181l111 -134q16 45 22 96h100
q-12 -106 -56 -175l137 -166h-140z" />
    <glyph glyph-name="quotesingle" unicode="'" horiz-adv-x="278" 
d="M88 432v282h102v-282h-102z" />
    <glyph glyph-name="parenleft" unicode="(" horiz-adv-x="278" 
d="M286 -191h-93q-68 108 -106 218t-38 243q0 239 144 461h93q-123 -220 -123 -461q0 -253 123 -461z" />
    <glyph glyph-name="parenright" unicode=")" horiz-adv-x="278" 
d="M-8 731h93q68 -109 106 -219.5t38 -242.5q0 -240 -144 -460h-93q123 218 123 460q0 253 -123 462z" />
    <glyph glyph-name="asterisk" unicode="*" horiz-adv-x="370" 
d="M130 534l-111 38l22 65l110 -43v120h68v-120l109 43l24 -65l-114 -38l70 -94l-53 -39l-71 98l-68 -98l-56 39z" />
    <glyph glyph-name="plus" unicode="+" horiz-adv-x="600" 
d="M249 304v202h102v-202h201v-102h-201v-202h-102v202h-201v102h201z" />
    <glyph glyph-name="comma" unicode="," horiz-adv-x="278" 
d="M69 0v135h139v-135q-1 -61 -38 -103.5t-97 -54.5v61q32 8 49 35.5t16 61.5h-69z" />
    <glyph glyph-name="hyphen" unicode="-" horiz-adv-x="389" 
d="M49 218v108h291v-108h-291z" />
    <glyph glyph-name="period" unicode="." horiz-adv-x="278" 
d="M69 0v135h139v-135h-139z" />
    <glyph glyph-name="slash" unicode="/" horiz-adv-x="352" 
d="M-22 -17l287 748h109l-287 -748h-109z" />
    <glyph glyph-name="zero" unicode="0" 
d="M278 81q128 0 128 269t-128 269t-128 -269t128 -269zM278 714q72 0 122 -33.5t75 -90.5t35 -115t10 -125t-10 -125t-35 -115t-75 -90.5t-122 -33.5t-122 33.5t-75 90.5t-35 115t-10 125t10 125t35 115t75 90.5t122 33.5z" />
    <glyph glyph-name="one" unicode="1" 
d="M53 494v90q78 -1 135 28t69 88h93v-700h-125v494h-172z" />
    <glyph glyph-name="two" unicode="2" 
d="M517 102v-102h-478q1 163 154 265q16 12 55 38t59.5 41.5t46.5 40.5t37.5 52t12.5 58q1 48 -25.5 86t-92.5 38q-115 0 -120 -175h-114q0 120 63.5 195t177.5 75q61 0 107 -20.5t70.5 -53.5t36 -68.5t11.5 -72.5q0 -76 -41.5 -130.5t-114.5 -105.5q-14 -10 -58 -38.5
t-61 -41.5t-38.5 -36t-28.5 -45h341z" />
    <glyph glyph-name="three" unicode="3" 
d="M228 325v85q65 -3 110 23.5t45 86.5q0 44 -30.5 71.5t-78.5 27.5q-56 0 -87 -42.5t-29 -100.5h-114q5 105 67 171.5t165 66.5q89 0 155 -49.5t66 -137.5q0 -115 -99 -150v-2q59 -12 93 -59.5t34 -115.5q0 -96 -72 -155t-176 -59q-118 0 -181 65.5t-65 178.5h114
q-2 -66 32.5 -107.5t99.5 -41.5q59 0 96.5 33.5t37.5 91.5q0 32 -10.5 54.5t-27.5 35.5t-42 20t-49 8.5t-54 0.5z" />
    <glyph glyph-name="four" unicode="4" 
d="M522 256v-90h-90v-166h-108v166h-300v113l300 421h108v-444h90zM322 564l-210 -308h212v308h-2z" />
    <glyph glyph-name="five" unicode="5" 
d="M48 317l75 383h362v-102h-277l-36 -178l2 -2q48 53 129 53q102 0 160.5 -65.5t58.5 -168.5q0 -44 -14 -87t-42 -80.5t-76 -60.5t-110 -23q-105 0 -173 55.5t-72 157.5h114q5 -56 39 -87t90 -31q68 0 99 42t31 112q0 62 -34 104t-99 42q-89 0 -113 -64h-114z" />
    <glyph glyph-name="six" unicode="6" 
d="M285 81q58 0 90.5 43t32.5 103t-32 101.5t-91 41.5q-60 0 -93 -41t-33 -102t33.5 -103.5t92.5 -42.5zM509 523h-114q-4 43 -31 69.5t-71 26.5q-30 0 -53 -10.5t-38 -32t-25 -42.5t-16 -52.5t-8.5 -52t-4.5 -50.5l2 -2q23 40 63 61.5t88 21.5q102 0 161.5 -66t59.5 -169
t-64.5 -171t-168.5 -68q-60 0 -105.5 19t-73.5 51t-45.5 79.5t-24 99.5t-6.5 117q0 67 14 128t43 115t82.5 86.5t124.5 32.5q85 0 146 -53.5t65 -137.5z" />
    <glyph glyph-name="seven" unicode="7" 
d="M35 598v102h479v-95q-116 -131 -182 -277t-79 -328h-125q11 159 84 314.5t186 283.5h-363z" />
    <glyph glyph-name="eight" unicode="8" 
d="M278 76q58 0 95.5 35t37.5 95q0 57 -37.5 90t-95.5 33t-95.5 -33t-37.5 -90q0 -60 37.5 -95t95.5 -35zM278 -14q-109 0 -178 59.5t-69 160.5q0 65 34.5 110.5t93.5 60.5v2q-99 38 -99 144q0 90 57 140.5t161 50.5t161 -50.5t57 -140.5q0 -106 -99 -144v-2
q59 -15 93.5 -60.5t34.5 -110.5q0 -101 -69 -160.5t-178 -59.5zM278 624q-48 0 -79 -28.5t-31 -78.5q0 -48 30.5 -75.5t79.5 -27.5t79.5 27.5t30.5 75.5q0 50 -31 78.5t-79 28.5z" />
    <glyph glyph-name="nine" unicode="9" 
d="M270 619q-59 0 -90.5 -41t-31.5 -102q0 -62 31.5 -104.5t90.5 -42.5q61 0 94 42.5t33 104.5q0 60 -33 101.5t-94 41.5zM47 177h114q4 -43 31 -69.5t71 -26.5q30 0 53 10.5t38 32t25 42.5t16 52.5t8.5 52t4.5 50.5l-2 2q-22 -40 -62 -62t-89 -22q-99 0 -160 64.5
t-61 171.5q0 105 64.5 172t176.5 67q58 0 101.5 -19t71 -51t44.5 -79.5t23.5 -99.5t6.5 -117q0 -67 -14 -128t-43 -115t-82.5 -86.5t-124.5 -32.5q-85 0 -146 53.5t-65 137.5z" />
    <glyph glyph-name="colon" unicode=":" horiz-adv-x="278" 
d="M69 371v135h139v-135h-139zM69 0v135h139v-135h-139z" />
    <glyph glyph-name="semicolon" unicode=";" horiz-adv-x="278" 
d="M69 0v135h139v-135q-1 -61 -38 -103.5t-97 -54.5v61q32 8 49 35.5t16 61.5h-69zM69 371v135h139v-135h-139z" />
    <glyph glyph-name="less" unicode="&#x3c;" horiz-adv-x="600" 
d="M554 94v-102l-508 225v72l508 225v-102l-374 -159z" />
    <glyph glyph-name="equal" unicode="=" horiz-adv-x="600" 
d="M552 405v-102h-504v102h504zM552 203v-102h-504v102h504z" />
    <glyph glyph-name="greater" unicode="&#x3e;" horiz-adv-x="600" 
d="M46 94l374 159l-374 159v102l508 -225v-72l-508 -225v102z" />
    <glyph glyph-name="question" unicode="?" 
d="M163 487h-114q-1 111 64.5 177.5t175.5 66.5q95 0 156.5 -54t61.5 -148q0 -34 -6.5 -59.5t-22 -46t-26 -31t-33.5 -29.5q-33 -28 -47.5 -43t-27.5 -48t-13 -78h-108q0 83 17.5 124.5t60.5 78.5q4 4 15.5 13.5l15.5 13t13 12.5t13 14t9.5 14.5t8 17.5t4.5 19.5t2 23.5
q0 55 -32 83t-66 28q-60 0 -90.5 -39.5t-30.5 -109.5zM208 0v125h134v-125h-134z" />
    <glyph glyph-name="at" unicode="@" horiz-adv-x="800" 
d="M361 216q56 0 96.5 59t40.5 119q0 35 -23.5 61.5t-55.5 26.5q-58 0 -98 -56.5t-40 -118.5q0 -40 22 -65.5t58 -25.5zM615 542l-72 -263q-22 -69 10 -69q48 0 89 64t41 152q0 109 -77 174.5t-190 65.5q-126 0 -206.5 -86.5t-80.5 -213.5q0 -144 83.5 -231t212.5 -87
q65 0 124.5 26t100.5 73h70q-48 -77 -127.5 -120.5t-171.5 -43.5q-157 0 -264.5 109t-107.5 278q0 150 108.5 255.5t258.5 105.5q137 0 236 -83.5t99 -209.5q0 -71 -25 -130.5t-63 -94.5t-77 -54t-71 -19q-25 0 -41.5 15t-17.5 43h-2q-51 -57 -112 -57q-62 0 -104 46
t-42 111q0 100 62.5 179.5t156.5 79.5q77 0 112 -72l18 57h70z" />
    <glyph glyph-name="A" unicode="A" horiz-adv-x="667" 
d="M331 591l-108 -307h218l-107 307h-3zM-7 0l274 714h133l275 -714h-134l-67 189h-285l-67 -189h-129z" />
    <glyph glyph-name="B" unicode="B" horiz-adv-x="704" 
d="M201 325v-223h221q57 0 88.5 29.5t31.5 83.5q0 52 -31.5 81t-88.5 29h-221zM76 0v714h347q99 0 155.5 -45t56.5 -132q0 -108 -102 -152v-2q65 -14 99.5 -62.5t34.5 -121.5q0 -89 -65.5 -144t-197.5 -55h-328zM201 612v-197h204q46 0 75.5 26t29.5 73q0 52 -26 75t-79 23
h-204z" />
    <glyph glyph-name="C" unicode="C" horiz-adv-x="722" 
d="M683 487h-125q-36 142 -178 142q-107 0 -162 -79.5t-55 -192.5t55 -192.5t162 -79.5q80 0 127 52.5t55 134.5h122q-8 -129 -91.5 -209t-212.5 -80q-156 0 -249 108t-93 266t93 266t249 108q124 -1 208 -66t95 -178z" />
    <glyph glyph-name="D" unicode="D" horiz-adv-x="722" 
d="M201 612v-510h123q71 0 119.5 19t73.5 55.5t35 79.5t10 101t-10 101t-35 79.5t-73.5 55.5t-119.5 19h-123zM76 0v714h296q157 0 236 -99.5t79 -257.5t-79 -257.5t-236 -99.5h-296z" />
    <glyph glyph-name="E" unicode="E" horiz-adv-x="630" 
d="M76 0v714h514v-108h-389v-187h360v-102h-360v-209h396v-108h-521z" />
    <glyph glyph-name="F" unicode="F" horiz-adv-x="593" 
d="M76 0v714h493v-108h-368v-187h323v-102h-323v-317h-125z" />
    <glyph glyph-name="G" unicode="G" horiz-adv-x="759" 
d="M699 376v-376h-80l-19 84q-49 -56 -98.5 -78.5t-116.5 -22.5q-156 0 -249 108t-93 266t93 266t249 108q122 0 207 -63.5t99 -180.5h-122q-9 68 -61 105t-123 37q-107 0 -162 -79.5t-55 -192.5t55 -192.5t162 -79.5q94 -1 146 51.5t54 144.5h-190v95h304z" />
    <glyph glyph-name="H" unicode="H" horiz-adv-x="722" 
d="M73 0v714h125v-284h325v284h125v-714h-125v322h-325v-322h-125z" />
    <glyph glyph-name="I" unicode="I" horiz-adv-x="278" 
d="M76 0v714h125v-714h-125z" />
    <glyph glyph-name="J" unicode="J" horiz-adv-x="537" 
d="M461 714v-484q0 -42 -4.5 -74t-19.5 -66t-39.5 -56t-68.5 -36.5t-103 -14.5q-108 0 -160.5 62.5t-52.5 166.5v38h125v-37q0 -64 22 -96t76 -32q58 0 79 33t21 105v491h125z" />
    <glyph glyph-name="K" unicode="K" horiz-adv-x="685" 
d="M76 0v714h125v-325l318 325h154l-285 -285l305 -429h-156l-234 341l-102 -101v-240h-125z" />
    <glyph glyph-name="L" unicode="L" horiz-adv-x="574" 
d="M76 0v714h125v-606h363v-108h-488z" />
    <glyph glyph-name="M" unicode="M" horiz-adv-x="889" 
d="M74 0v714h176l197 -559h2l192 559h174v-714h-119v551h-2l-198 -551h-103l-198 551h-2v-551h-119z" />
    <glyph glyph-name="N" unicode="N" horiz-adv-x="722" 
d="M71 0v714h132l326 -526h2v526h119v-714h-132l-325 525h-3v-525h-119z" />
    <glyph glyph-name="O" unicode="O" horiz-adv-x="760" 
d="M380 731q156 0 249 -108t93 -266t-93 -266t-249 -108t-249 108t-93 266t93 266t249 108zM380 629q-107 0 -162 -79.5t-55 -192.5t55 -192.5t162 -79.5t162 79.5t55 192.5t-55 192.5t-162 79.5z" />
    <glyph glyph-name="P" unicode="P" horiz-adv-x="667" 
d="M201 612v-236h183q50 0 87.5 28t37.5 90q0 118 -123 118h-185zM76 0v714h315q72 0 123 -21t75.5 -57t34.5 -70.5t10 -72.5t-10 -72.5t-34.5 -69.5t-75.5 -56t-123 -21h-190v-274h-125z" />
    <glyph glyph-name="Q" unicode="Q" horiz-adv-x="760" 
d="M460 102l-72 63l60 69l87 -76q62 74 62 199q0 113 -55 192.5t-162 79.5t-162 -79.5t-55 -192.5t55 -192.5t162 -79.5q45 0 80 17zM621 83l92 -80l-61 -68l-104 91q-76 -43 -168 -43q-156 0 -249 108t-93 266t93 266t249 108t249 -108t93 -266q0 -79 -25 -152.5
t-76 -121.5z" />
    <glyph glyph-name="R" unicode="R" horiz-adv-x="704" 
d="M201 612v-223h205q122 0 122 114q0 63 -33.5 86t-90.5 23h-203zM76 0v714h341q116 0 176 -50.5t60 -142.5q0 -139 -118 -180v-2q42 -6 74 -40.5t32 -110.5q0 -146 39 -188h-134q-19 31 -19 105q0 103 -29.5 146t-112.5 43h-184v-294h-125z" />
    <glyph glyph-name="S" unicode="S" horiz-adv-x="648" 
d="M33 238h125q0 -78 50 -115.5t131 -37.5q77 0 114 31.5t37 76.5q0 66 -59 88q-22 8 -51.5 16.5t-78 20.5t-83.5 22q-158 43 -158 181q0 68 39 117t97 71t125 22q117 0 195.5 -60.5t78.5 -167.5h-125q-8 126 -154 126q-52 0 -91.5 -22t-39.5 -71q0 -69 85 -92q1 0 47 -12
l94.5 -25t64.5 -18q67 -20 103 -71.5t36 -110.5q0 -76 -42.5 -128.5t-104.5 -74t-137 -21.5q-130 0 -213 64t-85 191z" />
    <glyph glyph-name="T" unicode="T" horiz-adv-x="593" 
d="M8 606v108h578v-108h-227v-606h-125v606h-226z" />
    <glyph glyph-name="U" unicode="U" horiz-adv-x="722" 
d="M68 257v457h125v-416q0 -36 2 -59t11 -54.5t26 -49.5t49.5 -31t79.5 -13t79.5 13t49.5 31t26 49.5t11 54.5t2 59v416h125v-457q0 -134 -78.5 -204t-214.5 -70t-214.5 70t-78.5 204z" />
    <glyph glyph-name="V" unicode="V" horiz-adv-x="611" 
d="M233 0l-238 714h130l179 -565h2l183 565h127l-244 -714h-139z" />
    <glyph glyph-name="W" unicode="W" horiz-adv-x="944" 
d="M194 0l-188 714h127l129 -546h2l144 546h128l140 -546h2l133 546h127l-197 -714h-127l-143 546h-2l-146 -546h-129z" />
    <glyph glyph-name="X" unicode="X" horiz-adv-x="648" 
d="M250 370l-236 344h149l162 -252l169 252h140l-236 -344l253 -370h-152l-178 273l-181 -273h-143z" />
    <glyph glyph-name="Y" unicode="Y" horiz-adv-x="648" 
d="M262 0v280l-268 434h145l189 -320l186 320h140l-267 -434v-280h-125z" />
    <glyph glyph-name="Z" unicode="Z" horiz-adv-x="630" 
d="M55 606v108h543v-95l-416 -511h426v-108h-585v102l416 504h-384z" />
    <glyph glyph-name="bracketleft" unicode="[" horiz-adv-x="296" 
d="M72 -191v922h223v-90h-115v-742h115v-90h-223z" />
    <glyph glyph-name="backslash" unicode="\" horiz-adv-x="352" 
d="M87 731l287 -748h-109l-287 748h109z" />
    <glyph glyph-name="bracketright" unicode="]" horiz-adv-x="296" 
d="M224 731v-922h-223v90h115v742h-115v90h223z" />
    <glyph glyph-name="asciicircum" unicode="^" horiz-adv-x="600" 
d="M186 335h-102l180 365h72l180 -365h-102l-114 247z" />
    <glyph glyph-name="underscore" unicode="_" horiz-adv-x="500" 
d="M500 -125h-500v50h500v-50z" />
    <glyph glyph-name="grave" unicode="`" horiz-adv-x="241" 
d="M-29 731h134l91 -143h-83z" />
    <glyph glyph-name="a" unicode="a" 
d="M379 174v85q-16 -10 -37.5 -15.5t-55.5 -9.5t-47 -6q-43 -7 -68 -26t-25 -60q0 -34 33.5 -50t71.5 -16q46 0 87 24.5t41 73.5zM493 381v-266q0 -21 6 -30t21 -9q16 0 28 2v-79q-37 -13 -72 -13q-76 0 -88 63q-32 -31 -81 -47t-98 -16q-75 0 -126 39.5t-51 111.5
q0 46 16.5 77.5t48.5 48t61 23.5t73 12q17 3 46.5 6.5t44.5 6.5t32 9.5t24.5 19t7.5 31.5q0 70 -107 70q-50 0 -80 -20.5t-34 -61.5h-114q6 92 71.5 132t163.5 40q85 0 146 -37t61 -113z" />
    <glyph glyph-name="b" unicode="b" horiz-adv-x="611" 
d="M461 258q0 75 -38 129t-105 54q-70 0 -107.5 -49t-37.5 -134q0 -80 39 -131t106 -51q72 0 107.5 53t35.5 129zM63 0v714h114v-264h2q23 37 66 59t88 22q117 0 179.5 -77.5t62.5 -197.5q0 -113 -57.5 -191.5t-165.5 -78.5q-136 0 -179 85h-2v-71h-108z" />
    <glyph glyph-name="c" unicode="c" 
d="M523 344h-114q-7 46 -38.5 71.5t-79.5 25.5q-25 0 -47.5 -8t-45 -27t-36 -58t-13.5 -95q0 -73 34 -125t103 -52q50 0 82.5 31.5t40.5 86.5h114q-16 -101 -76.5 -154.5t-160.5 -53.5q-118 0 -184.5 74.5t-66.5 192.5q0 123 66 200.5t189 77.5q95 0 160 -48t73 -139z" />
    <glyph glyph-name="d" unicode="d" horiz-adv-x="611" 
d="M149 253q0 -73 36.5 -125t106.5 -52q71 0 108 54t37 129q0 85 -38.5 133.5t-104.5 48.5q-74 0 -109.5 -54.5t-35.5 -133.5zM547 714v-714h-108v70h-2q-21 -42 -64.5 -63t-95.5 -21q-118 0 -180 77t-62 199q0 132 65.5 200.5t158.5 68.5q53 0 100 -20.5t72 -60.5h2v264
h114z" />
    <glyph glyph-name="e" unicode="e" 
d="M529 229h-380q0 -65 35.5 -109t103.5 -44q96 0 126 86h108q-18 -83 -82.5 -129.5t-151.5 -46.5q-119 0 -186 75t-67 197q0 114 69 193.5t181 79.5q119 0 189 -91t55 -211zM149 304h266q-3 57 -38.5 97t-91.5 40q-58 0 -96 -39t-40 -98z" />
    <glyph glyph-name="f" unicode="f" horiz-adv-x="315" 
d="M9 432v85h85v43q0 90 38.5 122t104.5 32q55 0 80 -7v-89q-23 6 -53 6q-56 0 -56 -54v-53h97v-85h-97v-432h-114v432h-85z" />
    <glyph glyph-name="g" unicode="g" horiz-adv-x="593" 
d="M285 90q70 0 104.5 53t34.5 127q0 73 -34.5 122t-104.5 49t-103 -53t-33 -127q0 -70 34.5 -120.5t101.5 -50.5zM538 517v-490q0 -115 -65 -173.5t-189 -58.5q-57 0 -104.5 14t-84.5 52t-42 95h114q10 -45 41.5 -60.5t82.5 -15.5q133 0 133 132v79h-2q-24 -43 -65.5 -67
t-89.5 -24q-79 0 -132.5 38t-76.5 97.5t-23 136.5q0 109 63.5 184t170.5 75q51 0 91.5 -21.5t61.5 -63.5h2v71h114z" />
    <glyph glyph-name="h" unicode="h" horiz-adv-x="574" 
d="M60 0v714h114v-265h2q22 36 63.5 59t91.5 23q86 0 134.5 -45t48.5 -131v-355h-114v325q-1 60 -25.5 88t-75.5 28q-56 0 -90.5 -39t-34.5 -97v-305h-114z" />
    <glyph glyph-name="i" unicode="i" horiz-adv-x="241" 
d="M63 0v517h114v-517h-114zM63 606v108h114v-108h-114z" />
    <glyph glyph-name="j" unicode="j" horiz-adv-x="241" 
d="M63 -39v556h114v-561q0 -80 -35 -120.5t-113 -40.5q-21 0 -51 4v90q30 -4 39 -4q29 0 37.5 17t8.5 59zM63 606v108h114v-108h-114z" />
    <glyph glyph-name="k" unicode="k" horiz-adv-x="537" 
d="M63 0v714h114v-406l206 209h140l-198 -190l217 -327h-139l-158 251l-68 -66v-185h-114z" />
    <glyph glyph-name="l" unicode="l" horiz-adv-x="241" 
d="M63 0v714h114v-714h-114z" />
    <glyph glyph-name="m" unicode="m" horiz-adv-x="870" 
d="M60 0v517h108v-72h3q57 86 159 86q50 0 89 -22t56 -64q62 86 162 86q85 0 129 -41t44 -133v-357h-114v302q0 29 -1 46.5t-6.5 37.5t-15 30.5t-27.5 17.5t-44 7q-110 0 -110 -138v-303h-114v332q0 56 -20.5 82.5t-70.5 26.5q-47 0 -80 -36t-33 -98v-307h-114z" />
    <glyph glyph-name="n" unicode="n" horiz-adv-x="574" 
d="M60 0v517h108v-76l2 -2q26 43 68 67.5t93 24.5q86 0 134.5 -45t48.5 -131v-355h-114v325q-1 60 -25.5 88t-75.5 28q-56 0 -90.5 -39t-34.5 -97v-305h-114z" />
    <glyph glyph-name="o" unicode="o" horiz-adv-x="593" 
d="M297 76q72 0 109.5 54t37.5 129q0 74 -37.5 128t-109.5 54t-109.5 -54t-37.5 -128q0 -75 37.5 -129t109.5 -54zM297 -14q-122 0 -191.5 75.5t-69.5 197.5q0 121 69.5 196.5t191.5 75.5t191.5 -75.5t69.5 -196.5q0 -122 -69.5 -197.5t-191.5 -75.5z" />
    <glyph glyph-name="p" unicode="p" horiz-adv-x="611" 
d="M461 258q0 75 -38 129t-105 54q-70 0 -107.5 -49t-37.5 -134q0 -80 39 -131t106 -51q72 0 107.5 53t35.5 129zM63 -191v708h108v-70h2q46 84 160 84q117 0 179.5 -77.5t62.5 -197.5q0 -113 -57.5 -191.5t-165.5 -78.5q-53 0 -100 20t-73 61h-2v-258h-114z" />
    <glyph glyph-name="q" unicode="q" horiz-adv-x="611" 
d="M149 258q0 -76 35.5 -129t107.5 -53t108.5 49t36.5 133q0 85 -37.5 134t-107.5 49q-67 0 -105 -54t-38 -129zM547 517v-708h-114v258h-2q-26 -41 -73 -61t-100 -20q-108 0 -165.5 78.5t-57.5 191.5q0 120 62.5 197.5t179.5 77.5q114 0 160 -84h2v70h108z" />
    <glyph glyph-name="r" unicode="r" horiz-adv-x="352" 
d="M60 0v517h107v-100h2q10 43 55 78.5t96 35.5q13 0 43 -3v-110q-40 5 -49 5q-61 0 -100.5 -47t-39.5 -130v-246h-114z" />
    <glyph glyph-name="s" unicode="s" horiz-adv-x="519" 
d="M32 166h114q8 -90 117 -90q19 0 37 2.5t37.5 9t30.5 21t10 35.5q-1 13 -5.5 23t-15 17.5t-20.5 12.5t-28 10t-30 8t-35 7.5t-35 7.5q-36 8 -62 17.5t-51.5 26t-39 44t-13.5 65.5q0 40 20 70.5t53 46.5t69 23.5t74 7.5q87 0 146.5 -39t69.5 -120h-119q-13 69 -105 69
q-21 0 -40 -3.5t-36.5 -16t-17.5 -33.5q0 -12 4.5 -21.5t14.5 -16.5t20 -12t28 -10t30.5 -8t35.5 -7.5t35 -7.5q37 -8 62.5 -17.5t51.5 -26.5t39.5 -43.5t13.5 -63.5q0 -58 -36.5 -97.5t-86.5 -55t-108 -15.5q-102 0 -165 46t-64 134z" />
    <glyph glyph-name="t" unicode="t" horiz-adv-x="333" 
d="M8 432v85h86v155h114v-155h103v-85h-103v-276q0 -40 9.5 -55.5t45.5 -15.5q32 0 48 4v-88q-8 -1 -23 -2.5t-27.5 -2.5t-23.5 -1q-84 0 -112.5 31t-30.5 101v305h-86z" />
    <glyph glyph-name="u" unicode="u" horiz-adv-x="574" 
d="M514 517v-517h-112v72h-2q-21 -38 -62.5 -62t-84.5 -24q-100 0 -146.5 50t-46.5 153v328h114v-317q0 -124 99 -124q127 0 127 141v300h114z" />
    <glyph glyph-name="v" unicode="v" horiz-adv-x="519" 
d="M197 0l-188 517h124l131 -397h2l126 397h118l-185 -517h-128z" />
    <glyph glyph-name="w" unicode="w" horiz-adv-x="778" 
d="M173 0l-160 517h121l101 -386h2l97 386h115l93 -386h2l105 386h116l-162 -517h-117l-96 384h-2l-95 -384h-120z" />
    <glyph glyph-name="x" unicode="x" horiz-adv-x="537" 
d="M4 0l195 272l-179 245h138l108 -159l113 159h132l-176 -239l198 -278h-137l-131 191l-127 -191h-134z" />
    <glyph glyph-name="y" unicode="y" horiz-adv-x="519" 
d="M199 2l-196 515h125l135 -386h2l131 386h119l-201 -545q-36 -90 -56 -117q-44 -60 -127 -60q-40 0 -79 6v96q42 -7 54 -7q36 0 52 17t28 55z" />
    <glyph glyph-name="z" unicode="z" horiz-adv-x="500" 
d="M42 427v90h420v-80l-296 -347h311v-90h-455v80l286 347h-266z" />
    <glyph glyph-name="braceleft" unicode="{" horiz-adv-x="296" 
d="M-4 225v90q31 0 62.5 17.5t31.5 55.5v206q0 63 43.5 100t84.5 37h91v-90h-55q-56 0 -56 -70v-195q0 -37 -21 -62t-41 -32.5t-42 -10.5v-2q103 -10 104 -111v-189q0 -70 56 -70h55v-90h-91q-41 0 -84.5 37t-43.5 100v198q0 43 -31.5 62t-62.5 19z" />
    <glyph glyph-name="bar" unicode="|" horiz-adv-x="222" 
d="M60 -214v1000h102v-1000h-102z" />
    <glyph glyph-name="braceright" unicode="}" horiz-adv-x="296" 
d="M300 315v-90q-31 0 -62.5 -17.5t-31.5 -55.5v-206q0 -63 -43.5 -100t-84.5 -37h-91v90h55q56 0 56 70v195q0 37 21 62t41 32.5t42 10.5v2q-103 10 -104 111v189q0 70 -56 70h-55v90h91q41 0 84.5 -37t43.5 -100v-198q0 -43 31.5 -62t62.5 -19z" />
    <glyph glyph-name="asciitilde" unicode="~" horiz-adv-x="600" 
d="M495 338l36 -84q-20 -27 -33 -42t-38 -29.5t-54 -14.5q-42 0 -102 33q-62 35 -115 35q-49 0 -84 -68l-36 84q45 86 125 86q39 0 111 -32l21.5 -9.5t23 -10l20 -8t20.5 -6.5t17 -2q19 0 37 12.5t25.5 22z" />
    <glyph glyph-name="uni00A0" unicode="&#xa0;" horiz-adv-x="278" 
 />
    <glyph glyph-name="exclamdown" unicode="&#xa1;" horiz-adv-x="278" 
d="M202 21v-204h-125v204l33 311h59zM206 531v-125h-134v125h134z" />
    <glyph glyph-name="cent" unicode="&#xa2;" 
d="M268 76v365q-61 -6 -89 -61t-28 -127q0 -67 29 -117.5t88 -59.5zM268 -104v90q-105 0 -168 77t-63 190q0 125 64.5 201.5t166.5 76.5v90h43v-90q85 0 145.5 -51t67.5 -136h-114q-5 43 -32.5 70t-66.5 27v-365q90 15 103 118h114q-18 -98 -72.5 -153t-144.5 -55v-90h-43z
" />
    <glyph glyph-name="sterling" unicode="&#xa3;" 
d="M31 319v65h63q-47 58 -47 141q0 90 71 148t163 58q117 0 183.5 -63t67.5 -184h-114q-7 152 -135 152q-48 0 -79.5 -31.5t-31.5 -85.5q0 -50 46 -135h147v-65h-123q16 -30 16 -67q0 -89 -101 -164l2 -2l17.5 7l19 7.5t17 6t20 5t18.5 1.5q32 0 81 -17q44 -18 74 -18
q53 0 97 38l51 -77q-65 -56 -160 -56q-14 0 -30.5 2.5t-36.5 6.5t-32 6q-66 20 -105 20q-61 0 -101 -34l-53 81q42 28 75 73.5t33 88.5q0 48 -21 92h-92z" />
    <glyph glyph-name="currency" unicode="&#xa4;" 
d="M76 90l-56 56l57 61q-50 56 -50 142q0 95 50 144l-57 61l57 57l57 -56q54 46 146 46q87 0 137 -45l58 57l61 -61l-56 -58q47 -50 47 -143q0 -89 -48 -146l55 -59l-55 -55l-57 58q-52 -50 -143 -50q-93 0 -147 49zM279 201q60 0 100 44t40 106q0 60 -40 104t-99 44
q-62 0 -103.5 -43.5t-41.5 -106.5q0 -62 41.5 -105t102.5 -43z" />
    <glyph glyph-name="yen" unicode="&#xa5;" 
d="M221 0v165h-137v65h137v68h-137v65h98l-187 351h127l156 -320l159 320h124l-188 -351h99v-65h-137v-68h137v-65h-137v-165h-114z" />
    <glyph glyph-name="brokenbar" unicode="&#xa6;" horiz-adv-x="222" 
d="M60 -89v250h102v-250h-102zM60 411v250h102v-250h-102z" />
    <glyph glyph-name="section" unicode="&#xa7;" 
d="M357 310l-166 95q-27 -8 -44 -30t-17 -50q0 -47 55 -78l182 -102q60 26 60 82q0 44 -70 83zM485 542h-108q-2 43 -27 71t-67 28q-32 0 -57 -21.5t-25 -53.5q0 -10 2.5 -19.5t9 -18.5t12.5 -16.5t18 -16l20 -14t24.5 -14l25 -13l27.5 -14l27 -13.5q79 -40 123.5 -82.5
t44.5 -106.5q0 -47 -30.5 -88t-75.5 -56q55 -46 55 -128q0 -81 -58 -126t-140 -45q-94 0 -153.5 54t-62.5 151h108q8 -115 105 -115q87 0 87 81q0 12 -2.5 23t-9.5 21l-13 18t-18.5 17.5l-21 15.5t-25 15.5t-25.5 14l-29 15l-28 14.5q-39 20 -65.5 36t-54.5 40t-42 53
t-14 63q0 103 108 149q-43 44 -43 101q0 76 60 122.5t137 46.5q87 0 143.5 -51t57.5 -138z" />
    <glyph glyph-name="dieresis" unicode="&#xa8;" horiz-adv-x="241" 
d="M150 707h114v-108h-114v108zM92 599h-114v108h114v-108z" />
    <glyph glyph-name="copyright" unicode="&#xa9;" horiz-adv-x="800" 
d="M767 357q0 -165 -107.5 -269.5t-258.5 -104.5q-160 0 -264 106.5t-104 267.5q0 165 107.5 269.5t260.5 104.5q151 0 258.5 -104.5t107.5 -269.5zM687 357q0 135 -82.5 222t-203.5 87q-123 0 -205.5 -87t-82.5 -222q0 -131 79 -220t209 -89q122 0 204 87t82 222zM521 285
h69q-13 -70 -61.5 -112t-115.5 -42q-95 0 -153.5 64t-58.5 162q0 93 57 153.5t153 61.5q70 0 119.5 -39.5t58.5 -111.5h-68q-8 39 -38 62.5t-72 23.5q-61 0 -95.5 -42.5t-34.5 -107.5q0 -67 36.5 -114t95.5 -47q44 0 73.5 25t34.5 64z" />
    <glyph glyph-name="ordfeminine" unicode="&#xaa;" horiz-adv-x="380" 
d="M244 491v44q-15 -7 -84 -19q-57 -9 -57 -45q0 -33 56 -33q85 0 85 53zM331 621v-151q0 -12 3.5 -17.5t13.5 -4.5q9 0 16 1v-68q-22 -8 -47 -8q-54 0 -62 49q-14 -21 -49.5 -35t-67.5 -14q-50 0 -86 24.5t-36 68.5q0 22 8.5 39t19.5 26.5t32.5 17t35 10.5t39.5 7
q6 1 16.5 2.5t16.5 2.5t14.5 3l13 3t10.5 3t9.5 4.5t6.5 5.5t4.5 6.5t1.5 7.5q0 20 -10.5 30.5t-21.5 12.5t-28 2q-66 0 -70 -42h-85q6 57 50.5 82t109.5 25q58 0 100 -23.5t42 -69.5z" />
    <glyph glyph-name="guillemotleft" unicode="&#xab;" horiz-adv-x="463" 
d="M205 93l-155 123v112l155 123v-103l-95 -76l95 -76v-103zM403 93l-155 123v112l155 123v-103l-95 -76l95 -76v-103z" />
    <glyph glyph-name="logicalnot" unicode="&#xac;" horiz-adv-x="600" 
d="M450 108v195h-402v102h504v-297h-102z" />
    <glyph glyph-name="uni00AD" unicode="&#xad;" horiz-adv-x="389" 
d="M49 218v108h291v-108h-291z" />
    <glyph glyph-name="registered" unicode="&#xae;" horiz-adv-x="800" 
d="M327 320v-177h-68v414h157q76 0 113.5 -28.5t37.5 -90.5q0 -101 -108 -113l116 -182h-77l-107 177h-64zM327 378h76q47 0 71.5 12t24.5 53q0 56 -90 56h-82v-121zM767 357q0 -165 -107.5 -269.5t-258.5 -104.5q-160 0 -264 106.5t-104 267.5q0 165 107.5 269.5
t260.5 104.5q151 0 258.5 -104.5t107.5 -269.5zM687 357q0 135 -82.5 222t-203.5 87q-123 0 -205.5 -87t-82.5 -222q0 -131 79 -220t209 -89q122 0 204 87t82 222z" />
    <glyph glyph-name="macron" unicode="&#xaf;" horiz-adv-x="241" 
d="M265 619h-288v65h288v-65z" />
    <glyph glyph-name="degree" unicode="&#xb0;" horiz-adv-x="400" 
d="M50 564q0 62 44 106t106 44t106 -44t44 -106t-44 -106t-106 -44t-106 44t-44 106zM106 564q0 -39 27.5 -66.5t66.5 -27.5t66.5 27.5t27.5 66.5t-27.5 66.5t-66.5 27.5t-66.5 -27.5t-27.5 -66.5z" />
    <glyph glyph-name="plusminus" unicode="&#xb1;" horiz-adv-x="600" 
d="M249 381v125h102v-125h201v-102h-201v-125h-102v125h-201v102h201zM48 0v102h504v-102h-504z" />
    <glyph glyph-name="twosuperior" unicode="&#xb2;" horiz-adv-x="360" 
d="M336 343v-70h-315q1 110 100 171q10 7 36 23t39 25t30 24t24.5 31t8.5 35q0 31 -21 46.5t-52 15.5q-69 0 -73 -93h-87q0 76 44 119.5t120 43.5q68 0 112 -32.5t44 -97.5q0 -76 -102 -141l-37 -23.5t-39.5 -25.5t-25.5 -22.5t-19 -28.5h213z" />
    <glyph glyph-name="threesuperior" unicode="&#xb3;" horiz-adv-x="360" 
d="M146 475v58q42 -2 71.5 13t29.5 48q0 25 -21 37.5t-48 12.5q-33 0 -53.5 -21.5t-19.5 -54.5h-80q3 69 44 107.5t110 38.5q62 0 105 -28.5t43 -87.5q0 -68 -64 -90v-2q38 -7 60 -35.5t22 -69.5q0 -64 -47 -100.5t-118 -36.5q-80 0 -121 40.5t-43 114.5h80q-2 -37 20.5 -61
t63.5 -24q36 0 60.5 19.5t24.5 51.5q0 43 -32.5 57.5t-86.5 12.5z" />
    <glyph glyph-name="acute" unicode="&#xb4;" horiz-adv-x="241" 
d="M45 588l90 143h135l-142 -143h-83z" />
    <glyph glyph-name="mu" unicode="&#xb5;" horiz-adv-x="574" 
d="M514 517v-517h-112v72h-2q-20 -38 -60 -62t-76 -24q-59 0 -90 36v-213h-114v708h114v-317q0 -124 99 -124q127 0 127 141v300h114z" />
    <glyph glyph-name="paragraph" unicode="&#xb6;" horiz-adv-x="600" 
d="M246 -160v504q-96 0 -155.5 51t-59.5 131q0 97 61.5 142.5t171.5 45.5h259v-874h-80v809h-117v-809h-80z" />
    <glyph glyph-name="periodcentered" unicode="&#xb7;" horiz-adv-x="278" 
d="M64 302q0 29 23 51.5t52 22.5q30 0 52.5 -22.5t22.5 -51.5q0 -30 -22.5 -53t-52.5 -23t-52.5 23t-22.5 53z" />
    <glyph glyph-name="cedilla" unicode="&#xb8;" horiz-adv-x="241" 
d="M9 -200l18 40q48 -16 65 -16q61 0 61 41q0 18 -14 28t-32 10q-22 0 -39 -10l-22 19l66 88h48l-45 -58v-2q8 3 33 3q33 0 59 -19.5t26 -54.5q0 -47 -35.5 -68.5t-85.5 -21.5q-67 0 -103 21z" />
    <glyph glyph-name="onesuperior" unicode="&#xb9;" horiz-adv-x="360" 
d="M36 577v58q54 0 91.5 17.5t46.5 52.5h70v-432h-87v304h-121z" />
    <glyph glyph-name="ordmasculine" unicode="&#xba;" horiz-adv-x="380" 
d="M284 543q0 41 -24 73.5t-67 32.5t-67 -32t-24 -74t24 -73.5t67 -31.5q44 0 66 31t25 74zM371 543q0 -78 -46.5 -124t-131.5 -46t-131.5 46t-46.5 124t46.5 124.5t131.5 46.5t131.5 -46.5t46.5 -124.5z" />
    <glyph glyph-name="guillemotright" unicode="&#xbb;" horiz-adv-x="463" 
d="M60 451l155 -123v-112l-155 -123v103l95 76l-95 76v103zM258 451l155 -123v-112l-155 -123v103l95 76l-95 76v103z" />
    <glyph glyph-name="onequarter" unicode="&#xbc;" horiz-adv-x="834" 
d="M719 97v-97h-87v97h-195v81l185 250h97v-256h47v-75h-47zM632 172v158h-2l-117 -158h119zM37 577v58q53 0 91 17.5t47 52.5h70v-432h-87v304h-121zM141 -24l419 748h78l-418 -748h-79z" />
    <glyph glyph-name="onehalf" unicode="&#xbd;" horiz-adv-x="834" 
d="M137 -24l419 748h78l-418 -748h-79zM36 577v58q54 0 91.5 17.5t46.5 52.5h70v-432h-87v304h-121zM788 70v-70h-315q0 67 31.5 108t87.5 76q9 6 33.5 20.5t34.5 21.5t25 20.5t20.5 28.5t5.5 34q0 31 -20.5 49t-52.5 18q-69 0 -73 -98h-87q0 78 43 123t121 45
q68 0 112 -34.5t44 -100.5q0 -46 -27 -78t-75 -63q-9 -6 -30.5 -19l-31.5 -19.5t-24.5 -17.5t-22.5 -22t-12 -22h213z" />
    <glyph glyph-name="threequarters" unicode="&#xbe;" horiz-adv-x="834" 
d="M756 97v-97h-87v97h-195v81l183 250h99v-256h47v-75h-47zM669 172v158h-2l-117 -158h119zM196 -24l419 748h78l-418 -748h-79zM146 474v58q42 -2 71.5 13.5t29.5 48.5q0 25 -21 37.5t-48 12.5q-33 0 -53.5 -21.5t-19.5 -54.5h-80q3 69 44 107.5t110 38.5q62 0 105 -28.5
t43 -87.5q0 -68 -64 -90v-2q38 -7 60 -35.5t22 -69.5q0 -64 -47 -100.5t-118 -36.5q-80 0 -121 40.5t-43 114.5h80q-2 -37 20.5 -61t63.5 -24q36 0 60.5 19.5t24.5 51.5q0 73 -119 69z" />
    <glyph glyph-name="questiondown" unicode="&#xbf;" 
d="M393 39h114q1 -107 -64.5 -173t-175.5 -66q-94 0 -156 53t-62 144q0 34 6.5 59.5t22 46t26 31t33.5 29.5q33 28 47.5 43t27.5 48t13 78h108q0 -83 -17.5 -124.5t-60.5 -78.5q-4 -4 -15.5 -13.5l-15.5 -13t-13 -12.5t-13 -14t-9.5 -14.5t-8 -17.5t-4.5 -19.5t-2 -23.5
q0 -51 32 -78.5t66 -27.5q60 0 90.5 39t30.5 105zM210 531h134v-125h-134v125z" />
    <glyph glyph-name="Agrave" unicode="&#xc0;" horiz-adv-x="667" 
d="M331 591l-108 -307h218l-107 307h-3zM-7 0l274 714h133l275 -714h-134l-67 189h-285l-67 -189h-129zM184 928h134l91 -143h-83z" />
    <glyph glyph-name="Aacute" unicode="&#xc1;" horiz-adv-x="667" 
d="M331 591l-108 -307h218l-107 307h-3zM-7 0l274 714h133l275 -714h-134l-67 189h-285l-67 -189h-129zM258 770l90 143h135l-142 -143h-83z" />
    <glyph glyph-name="Acircumflex" unicode="&#xc2;" horiz-adv-x="667" 
d="M331 591l-108 -307h218l-107 307h-3zM-7 0l274 714h133l275 -714h-134l-67 189h-285l-67 -189h-129zM333 875l-70 -90h-92l107 143h111l108 -143h-93z" />
    <glyph glyph-name="Atilde" unicode="&#xc3;" horiz-adv-x="667" 
d="M331 591l-108 -307h218l-107 307h-3zM-7 0l274 714h133l275 -714h-134l-67 189h-285l-67 -189h-129zM454 911h56q-8 -54 -33 -81q-28 -34 -78 -34q-27 0 -74 19q-52 18 -69 18t-29.5 -13t-12.5 -28h-57q7 44 34.5 78.5t69.5 34.5q37 0 81 -19q49 -19 62 -19q38 0 50 44z
" />
    <glyph glyph-name="Adieresis" unicode="&#xc4;" horiz-adv-x="667" 
d="M331 591l-108 -307h218l-107 307h-3zM-7 0l274 714h133l275 -714h-134l-67 189h-285l-67 -189h-129zM363 904h114v-108h-114v108zM305 796h-114v108h114v-108z" />
    <glyph glyph-name="Aring" unicode="&#xc5;" horiz-adv-x="667" 
d="M331 591l-108 -307h218l-107 307h-3zM-7 0l274 714h133l275 -714h-134l-67 189h-285l-67 -189h-129zM334 746q-41 0 -72 31t-31 72q0 42 31 72.5t72 30.5q42 0 72.5 -30.5t30.5 -72.5q0 -41 -30.5 -72t-72.5 -31zM273 849q0 -24 18.5 -42.5t42.5 -18.5q25 0 43 18.5
t18 42.5q0 25 -18 43t-43 18q-24 0 -42.5 -18t-18.5 -43z" />
    <glyph glyph-name="AE" unicode="&#xc6;" horiz-adv-x="963" 
d="M421 606l-157 -328h193v328h-36zM-7 0l355 714h576v-108h-348v-187h326v-102h-326v-209h354v-108h-473v183h-239l-86 -183h-139z" />
    <glyph glyph-name="Ccedilla" unicode="&#xc7;" horiz-adv-x="722" 
d="M562 272h122q-8 -127 -89.5 -207t-207.5 -81l-32 -42v-2q8 3 33 3q33 0 59 -19.5t26 -54.5q0 -47 -35.5 -68.5t-85.5 -21.5q-67 0 -103 21l18 40q48 -16 65 -16q61 0 61 41q0 18 -14 28t-32 10q-22 0 -39 -10l-22 19l55 73q-139 14 -221 119.5t-82 252.5q0 158 93 266
t249 108q124 -1 208 -66t95 -178h-125q-36 142 -178 142q-107 0 -162 -79.5t-55 -192.5t55 -192.5t162 -79.5q80 0 127 52.5t55 134.5z" />
    <glyph glyph-name="Egrave" unicode="&#xc8;" horiz-adv-x="630" 
d="M76 0v714h514v-108h-389v-187h360v-102h-360v-209h396v-108h-521zM166 928h134l91 -143h-83z" />
    <glyph glyph-name="Eacute" unicode="&#xc9;" horiz-adv-x="630" 
d="M76 0v714h514v-108h-389v-187h360v-102h-360v-209h396v-108h-521zM240 785l90 143h135l-142 -143h-83z" />
    <glyph glyph-name="Ecircumflex" unicode="&#xca;" horiz-adv-x="630" 
d="M76 0v714h514v-108h-389v-187h360v-102h-360v-209h396v-108h-521zM315 875l-70 -90h-92l107 143h111l108 -143h-93z" />
    <glyph glyph-name="Edieresis" unicode="&#xcb;" horiz-adv-x="630" 
d="M76 0v714h514v-108h-389v-187h360v-102h-360v-209h396v-108h-521zM345 904h114v-108h-114v108zM287 796h-114v108h114v-108z" />
    <glyph glyph-name="Igrave" unicode="&#xcc;" horiz-adv-x="278" 
d="M76 0v714h125v-714h-125zM-10 928h134l91 -143h-83z" />
    <glyph glyph-name="Iacute" unicode="&#xcd;" horiz-adv-x="278" 
d="M76 0v714h125v-714h-125zM64 780l90 143h135l-142 -143h-83z" />
    <glyph glyph-name="Icircumflex" unicode="&#xce;" horiz-adv-x="278" 
d="M76 0v714h125v-714h-125zM139 875l-70 -90h-92l107 143h111l108 -143h-93z" />
    <glyph glyph-name="Idieresis" unicode="&#xcf;" horiz-adv-x="278" 
d="M76 0v714h125v-714h-125zM169 904h114v-108h-114v108zM111 796h-114v108h114v-108z" />
    <glyph glyph-name="Eth" unicode="&#xd0;" horiz-adv-x="722" 
d="M76 0v317h-67v102h67v295h296q157 0 236 -99.5t79 -257.5t-79 -257.5t-236 -99.5h-296zM201 612v-193h195v-102h-195v-215h123q71 0 119.5 19t73.5 55.5t35 79.5t10 101t-10 101t-35 79.5t-73.5 55.5t-119.5 19h-123z" />
    <glyph glyph-name="Ntilde" unicode="&#xd1;" horiz-adv-x="722" 
d="M71 0v714h132l326 -526h2v526h119v-714h-132l-325 525h-3v-525h-119zM482 911h56q-8 -54 -33 -81q-28 -34 -78 -34q-27 0 -74 19q-52 18 -69 18t-29.5 -13t-12.5 -28h-57q7 44 34.5 78.5t69.5 34.5q37 0 81 -19q49 -19 62 -19q38 0 50 44z" />
    <glyph glyph-name="Ograve" unicode="&#xd2;" horiz-adv-x="760" 
d="M380 731q156 0 249 -108t93 -266t-93 -266t-249 -108t-249 108t-93 266t93 266t249 108zM380 629q-107 0 -162 -79.5t-55 -192.5t55 -192.5t162 -79.5t162 79.5t55 192.5t-55 192.5t-162 79.5zM231 928h134l91 -143h-83z" />
    <glyph glyph-name="Oacute" unicode="&#xd3;" horiz-adv-x="760" 
d="M380 731q156 0 249 -108t93 -266t-93 -266t-249 -108t-249 108t-93 266t93 266t249 108zM380 629q-107 0 -162 -79.5t-55 -192.5t55 -192.5t162 -79.5t162 79.5t55 192.5t-55 192.5t-162 79.5zM305 770l90 143h135l-142 -143h-83z" />
    <glyph glyph-name="Ocircumflex" unicode="&#xd4;" horiz-adv-x="760" 
d="M380 731q156 0 249 -108t93 -266t-93 -266t-249 -108t-249 108t-93 266t93 266t249 108zM380 629q-107 0 -162 -79.5t-55 -192.5t55 -192.5t162 -79.5t162 79.5t55 192.5t-55 192.5t-162 79.5zM380 875l-70 -90h-92l107 143h111l108 -143h-93z" />
    <glyph glyph-name="Otilde" unicode="&#xd5;" horiz-adv-x="760" 
d="M380 731q156 0 249 -108t93 -266t-93 -266t-249 -108t-249 108t-93 266t93 266t249 108zM380 629q-107 0 -162 -79.5t-55 -192.5t55 -192.5t162 -79.5t162 79.5t55 192.5t-55 192.5t-162 79.5zM501 911h56q-8 -54 -33 -81q-28 -34 -78 -34q-26 0 -74 19q-52 18 -69 18
t-29.5 -13t-12.5 -28h-57q7 44 34.5 78.5t69.5 34.5q37 0 81 -19q49 -19 62 -19q38 0 50 44z" />
    <glyph glyph-name="Odieresis" unicode="&#xd6;" horiz-adv-x="760" 
d="M380 731q156 0 249 -108t93 -266t-93 -266t-249 -108t-249 108t-93 266t93 266t249 108zM380 629q-107 0 -162 -79.5t-55 -192.5t55 -192.5t162 -79.5t162 79.5t55 192.5t-55 192.5t-162 79.5zM410 904h114v-108h-114v108zM352 796h-114v108h114v-108z" />
    <glyph glyph-name="multiply" unicode="&#xd7;" horiz-adv-x="600" 
d="M229 253l-174 174l86 56l158 -159l160 159l86 -56l-175 -174l175 -174l-86 -56l-160 160l-158 -160l-86 56z" />
    <glyph glyph-name="Oslash" unicode="&#xd8;" horiz-adv-x="760" 
d="M199 196l329 370q-55 63 -148 63q-107 0 -162 -79.5t-55 -192.5q0 -95 36 -161zM560 518l-328 -370q58 -63 148 -63q107 0 162 79.5t55 192.5q0 94 -37 161zM677 734l43 -36l-79 -89q81 -104 81 -252q0 -158 -93 -266t-249 -108q-134 0 -222 82l-76 -85l-42 36l79 90
q-81 103 -81 251q0 158 93 266t249 108q133 0 222 -81z" />
    <glyph glyph-name="Ugrave" unicode="&#xd9;" horiz-adv-x="722" 
d="M68 257v457h125v-416q0 -36 2 -59t11 -54.5t26 -49.5t49.5 -31t79.5 -13t79.5 13t49.5 31t26 49.5t11 54.5t2 59v416h125v-457q0 -134 -78.5 -204t-214.5 -70t-214.5 70t-78.5 204zM212 928h134l91 -143h-83z" />
    <glyph glyph-name="Uacute" unicode="&#xda;" horiz-adv-x="722" 
d="M68 257v457h125v-416q0 -36 2 -59t11 -54.5t26 -49.5t49.5 -31t79.5 -13t79.5 13t49.5 31t26 49.5t11 54.5t2 59v416h125v-457q0 -134 -78.5 -204t-214.5 -70t-214.5 70t-78.5 204zM286 770l90 143h135l-142 -143h-83z" />
    <glyph glyph-name="Ucircumflex" unicode="&#xdb;" horiz-adv-x="722" 
d="M68 257v457h125v-416q0 -36 2 -59t11 -54.5t26 -49.5t49.5 -31t79.5 -13t79.5 13t49.5 31t26 49.5t11 54.5t2 59v416h125v-457q0 -134 -78.5 -204t-214.5 -70t-214.5 70t-78.5 204zM361 875l-70 -90h-92l107 143h111l108 -143h-93z" />
    <glyph glyph-name="Udieresis" unicode="&#xdc;" horiz-adv-x="722" 
d="M68 257v457h125v-416q0 -36 2 -59t11 -54.5t26 -49.5t49.5 -31t79.5 -13t79.5 13t49.5 31t26 49.5t11 54.5t2 59v416h125v-457q0 -134 -78.5 -204t-214.5 -70t-214.5 70t-78.5 204zM391 904h114v-108h-114v108zM333 796h-114v108h114v-108z" />
    <glyph glyph-name="Yacute" unicode="&#xdd;" horiz-adv-x="648" 
d="M262 0v280l-268 434h145l189 -320l186 320h140l-267 -434v-280h-125zM249 770l90 143h135l-142 -143h-83z" />
    <glyph glyph-name="Thorn" unicode="&#xde;" horiz-adv-x="667" 
d="M76 0v714h125v-108h190q72 0 123 -21t75.5 -57t34.5 -70.5t10 -72.5t-10 -72.5t-34.5 -69.5t-75.5 -56t-123 -21h-190v-166h-125zM201 504v-236h183q50 0 87.5 28t37.5 90q0 118 -123 118h-185z" />
    <glyph glyph-name="germandbls" unicode="&#xdf;" horiz-adv-x="574" 
d="M63 0v523q0 96 61 152t158 56q86 0 149.5 -49t63.5 -131q0 -53 -26 -94.5t-76 -56.5v-2q61 -7 97.5 -57t36.5 -114q0 -105 -62.5 -173t-166.5 -68q-28 0 -56 3v90q15 -3 39 -3q42 0 70 14t40.5 39.5t17 49t4.5 53.5q0 66 -55 98q-37 25 -115 25v75q69 0 99 26
q39 29 39 84q0 101 -101 101q-43 0 -73 -29t-30 -101v-511h-114z" />
    <glyph glyph-name="agrave" unicode="&#xe0;" 
d="M379 174v85q-16 -10 -37.5 -15.5t-55.5 -9.5t-47 -6q-43 -7 -68 -26t-25 -60q0 -34 33.5 -50t71.5 -16q46 0 87 24.5t41 73.5zM493 381v-266q0 -21 6 -30t21 -9q16 0 28 2v-79q-37 -13 -72 -13q-76 0 -88 63q-32 -31 -81 -47t-98 -16q-75 0 -126 39.5t-51 111.5
q0 46 16.5 77.5t48.5 48t61 23.5t73 12q17 3 46.5 6.5t44.5 6.5t32 9.5t24.5 19t7.5 31.5q0 70 -107 70q-50 0 -80 -20.5t-34 -61.5h-114q6 92 71.5 132t163.5 40q85 0 146 -37t61 -113zM129 731h134l91 -143h-83z" />
    <glyph glyph-name="aacute" unicode="&#xe1;" 
d="M379 174v85q-16 -10 -37.5 -15.5t-55.5 -9.5t-47 -6q-43 -7 -68 -26t-25 -60q0 -34 33.5 -50t71.5 -16q46 0 87 24.5t41 73.5zM493 381v-266q0 -21 6 -30t21 -9q16 0 28 2v-79q-37 -13 -72 -13q-76 0 -88 63q-32 -31 -81 -47t-98 -16q-75 0 -126 39.5t-51 111.5
q0 46 16.5 77.5t48.5 48t61 23.5t73 12q17 3 46.5 6.5t44.5 6.5t32 9.5t24.5 19t7.5 31.5q0 70 -107 70q-50 0 -80 -20.5t-34 -61.5h-114q6 92 71.5 132t163.5 40q85 0 146 -37t61 -113zM203 588l90 143h135l-142 -143h-83z" />
    <glyph glyph-name="acircumflex" unicode="&#xe2;" 
d="M379 174v85q-16 -10 -37.5 -15.5t-55.5 -9.5t-47 -6q-43 -7 -68 -26t-25 -60q0 -34 33.5 -50t71.5 -16q46 0 87 24.5t41 73.5zM493 381v-266q0 -21 6 -30t21 -9q16 0 28 2v-79q-37 -13 -72 -13q-76 0 -88 63q-32 -31 -81 -47t-98 -16q-75 0 -126 39.5t-51 111.5
q0 46 16.5 77.5t48.5 48t61 23.5t73 12q17 3 46.5 6.5t44.5 6.5t32 9.5t24.5 19t7.5 31.5q0 70 -107 70q-50 0 -80 -20.5t-34 -61.5h-114q6 92 71.5 132t163.5 40q85 0 146 -37t61 -113zM278 678l-70 -90h-92l107 143h111l108 -143h-93z" />
    <glyph glyph-name="atilde" unicode="&#xe3;" 
d="M379 174v85q-16 -10 -37.5 -15.5t-55.5 -9.5t-47 -6q-43 -7 -68 -26t-25 -60q0 -34 33.5 -50t71.5 -16q46 0 87 24.5t41 73.5zM493 381v-266q0 -21 6 -30t21 -9q16 0 28 2v-79q-37 -13 -72 -13q-76 0 -88 63q-32 -31 -81 -47t-98 -16q-75 0 -126 39.5t-51 111.5
q0 46 16.5 77.5t48.5 48t61 23.5t73 12q17 3 46.5 6.5t44.5 6.5t32 9.5t24.5 19t7.5 31.5q0 70 -107 70q-50 0 -80 -20.5t-34 -61.5h-114q6 92 71.5 132t163.5 40q85 0 146 -37t61 -113zM399 714h56q-8 -54 -33 -81q-28 -34 -78 -34q-26 0 -74 19q-52 18 -69 18t-29.5 -13
t-12.5 -28h-57q7 44 34.5 78.5t69.5 34.5q37 0 81 -19q49 -19 62 -19q38 0 50 44z" />
    <glyph glyph-name="adieresis" unicode="&#xe4;" 
d="M379 174v85q-16 -10 -37.5 -15.5t-55.5 -9.5t-47 -6q-43 -7 -68 -26t-25 -60q0 -34 33.5 -50t71.5 -16q46 0 87 24.5t41 73.5zM493 381v-266q0 -21 6 -30t21 -9q16 0 28 2v-79q-37 -13 -72 -13q-76 0 -88 63q-32 -31 -81 -47t-98 -16q-75 0 -126 39.5t-51 111.5
q0 46 16.5 77.5t48.5 48t61 23.5t73 12q17 3 46.5 6.5t44.5 6.5t32 9.5t24.5 19t7.5 31.5q0 70 -107 70q-50 0 -80 -20.5t-34 -61.5h-114q6 92 71.5 132t163.5 40q85 0 146 -37t61 -113zM308 707h114v-108h-114v108zM250 599h-114v108h114v-108z" />
    <glyph glyph-name="aring" unicode="&#xe5;" 
d="M379 174v85q-16 -10 -37.5 -15.5t-55.5 -9.5t-47 -6q-43 -7 -68 -26t-25 -60q0 -34 33.5 -50t71.5 -16q46 0 87 24.5t41 73.5zM493 381v-266q0 -21 6 -30t21 -9q16 0 28 2v-79q-37 -13 -72 -13q-76 0 -88 63q-32 -31 -81 -47t-98 -16q-75 0 -126 39.5t-51 111.5
q0 46 16.5 77.5t48.5 48t61 23.5t73 12q17 3 46.5 6.5t44.5 6.5t32 9.5t24.5 19t7.5 31.5q0 70 -107 70q-50 0 -80 -20.5t-34 -61.5h-114q6 92 71.5 132t163.5 40q85 0 146 -37t61 -113zM279 549q-41 0 -72 31t-31 72q0 42 31 72.5t72 30.5q42 0 72.5 -30.5t30.5 -72.5
q0 -41 -30.5 -72t-72.5 -31zM218 652q0 -24 18.5 -42.5t42.5 -18.5q25 0 43 18.5t18 42.5q0 25 -18 43t-43 18q-24 0 -42.5 -18t-18.5 -43z" />
    <glyph glyph-name="ae" unicode="&#xe6;" horiz-adv-x="889" 
d="M487 304h261q1 62 -34 99.5t-97 37.5q-58 0 -92 -39t-38 -98zM379 180v77q-11 -10 -31.5 -15t-56 -8t-51.5 -6q-44 -7 -69 -26t-25 -60q0 -36 30.5 -51t73.5 -15q51 0 90 28t39 76zM744 163h114q-22 -82 -85 -129.5t-149 -47.5q-136 0 -190 95q-64 -95 -215 -95
q-81 0 -134 39t-53 112q0 46 16.5 77.5t48.5 48t61 23.5t73 12q16 3 39 6t36.5 5t29.5 6t24 10.5t14 18t6 27.5q0 70 -101 70q-50 0 -80 -20.5t-34 -61.5h-114q6 92 71 132t161 40q128 0 175 -70q53 70 164 70q127 0 188 -83.5t52 -218.5h-375q-1 -64 33.5 -108.5
t101.5 -44.5q91 0 122 87z" />
    <glyph glyph-name="ccedilla" unicode="&#xe7;" 
d="M409 194h114q-15 -95 -70.5 -148.5t-145.5 -57.5l-35 -46v-2q8 3 33 3q33 0 59 -19.5t26 -54.5q0 -47 -35.5 -68.5t-85.5 -21.5q-67 0 -103 21l18 40q48 -16 65 -16q61 0 61 41q0 18 -14 28t-32 10q-22 0 -39 -10l-22 19l57 76q-107 8 -166 81t-59 184q0 123 66 200.5
t189 77.5q95 0 160 -48t73 -139h-114q-7 46 -38.5 71.5t-79.5 25.5q-25 0 -47.5 -8t-45 -27t-36 -58t-13.5 -95q0 -73 34 -125t103 -52q50 0 82.5 31.5t40.5 86.5z" />
    <glyph glyph-name="egrave" unicode="&#xe8;" 
d="M529 229h-380q0 -65 35.5 -109t103.5 -44q96 0 126 86h108q-18 -83 -82.5 -129.5t-151.5 -46.5q-119 0 -186 75t-67 197q0 114 69 193.5t181 79.5q119 0 189 -91t55 -211zM149 304h266q-3 57 -38.5 97t-91.5 40q-58 0 -96 -39t-40 -98zM129 731h134l91 -143h-83z" />
    <glyph glyph-name="eacute" unicode="&#xe9;" 
d="M529 229h-380q0 -65 35.5 -109t103.5 -44q96 0 126 86h108q-18 -83 -82.5 -129.5t-151.5 -46.5q-119 0 -186 75t-67 197q0 114 69 193.5t181 79.5q119 0 189 -91t55 -211zM149 304h266q-3 57 -38.5 97t-91.5 40q-58 0 -96 -39t-40 -98zM203 588l90 143h135l-142 -143h-83
z" />
    <glyph glyph-name="ecircumflex" unicode="&#xea;" 
d="M529 229h-380q0 -65 35.5 -109t103.5 -44q96 0 126 86h108q-18 -83 -82.5 -129.5t-151.5 -46.5q-119 0 -186 75t-67 197q0 114 69 193.5t181 79.5q119 0 189 -91t55 -211zM149 304h266q-3 57 -38.5 97t-91.5 40q-58 0 -96 -39t-40 -98zM278 678l-70 -90h-92l107 143h111
l108 -143h-93z" />
    <glyph glyph-name="edieresis" unicode="&#xeb;" 
d="M529 229h-380q0 -65 35.5 -109t103.5 -44q96 0 126 86h108q-18 -83 -82.5 -129.5t-151.5 -46.5q-119 0 -186 75t-67 197q0 114 69 193.5t181 79.5q119 0 189 -91t55 -211zM149 304h266q-3 57 -38.5 97t-91.5 40q-58 0 -96 -39t-40 -98zM308 707h114v-108h-114v108z
M250 599h-114v108h114v-108z" />
    <glyph glyph-name="igrave" unicode="&#xec;" horiz-adv-x="241" 
d="M177 0h-114v517h114v-517zM-29 731h134l91 -143h-83z" />
    <glyph glyph-name="iacute" unicode="&#xed;" horiz-adv-x="241" 
d="M177 0h-114v517h114v-517zM45 588l90 143h135l-142 -143h-83z" />
    <glyph glyph-name="icircumflex" unicode="&#xee;" horiz-adv-x="241" 
d="M177 0h-114v517h114v-517zM120 678l-70 -90h-92l107 143h111l108 -143h-93z" />
    <glyph glyph-name="idieresis" unicode="&#xef;" horiz-adv-x="241" 
d="M177 0h-114v517h114v-517zM150 707h114v-108h-114v108zM92 599h-114v108h114v-108z" />
    <glyph glyph-name="eth" unicode="&#xf0;" horiz-adv-x="593" 
d="M299 416q-75 0 -109 -47.5t-34 -123.5q0 -73 33.5 -121t98.5 -48q66 0 107 50.5t41 118.5q0 71 -34.5 121t-102.5 50zM194 541l-50 49l96 46q-62 27 -85 34l76 61q55 -18 104 -50l105 50l49 -49l-94 -45q75 -61 115 -146t40 -182q0 -144 -65.5 -233.5t-203.5 -89.5
q-112 0 -175.5 73.5t-63.5 192.5q0 103 61.5 178.5t161.5 75.5q81 0 143 -44h2q-29 64 -108 131z" />
    <glyph glyph-name="ntilde" unicode="&#xf1;" horiz-adv-x="574" 
d="M60 0v517h108v-76l2 -2q26 43 68 67.5t93 24.5q86 0 134.5 -45t48.5 -131v-355h-114v325q-1 60 -25.5 88t-75.5 28q-56 0 -90.5 -39t-34.5 -97v-305h-114zM408 714h56q-8 -54 -33 -81q-28 -34 -78 -34q-27 0 -74 19q-52 18 -69 18t-29.5 -13t-12.5 -28h-57
q7 44 34.5 78.5t69.5 34.5q37 0 81 -19q49 -19 62 -19q38 0 50 44z" />
    <glyph glyph-name="ograve" unicode="&#xf2;" horiz-adv-x="593" 
d="M297 76q72 0 109.5 54t37.5 129q0 74 -37.5 128t-109.5 54t-109.5 -54t-37.5 -128q0 -75 37.5 -129t109.5 -54zM297 -14q-122 0 -191.5 75.5t-69.5 197.5q0 121 69.5 196.5t191.5 75.5t191.5 -75.5t69.5 -196.5q0 -122 -69.5 -197.5t-191.5 -75.5zM147 731h134l91 -143
h-83z" />
    <glyph glyph-name="oacute" unicode="&#xf3;" horiz-adv-x="593" 
d="M297 76q72 0 109.5 54t37.5 129q0 74 -37.5 128t-109.5 54t-109.5 -54t-37.5 -128q0 -75 37.5 -129t109.5 -54zM297 -14q-122 0 -191.5 75.5t-69.5 197.5q0 121 69.5 196.5t191.5 75.5t191.5 -75.5t69.5 -196.5q0 -122 -69.5 -197.5t-191.5 -75.5zM221 588l90 143h135
l-142 -143h-83z" />
    <glyph glyph-name="ocircumflex" unicode="&#xf4;" horiz-adv-x="593" 
d="M297 76q72 0 109.5 54t37.5 129q0 74 -37.5 128t-109.5 54t-109.5 -54t-37.5 -128q0 -75 37.5 -129t109.5 -54zM297 -14q-122 0 -191.5 75.5t-69.5 197.5q0 121 69.5 196.5t191.5 75.5t191.5 -75.5t69.5 -196.5q0 -122 -69.5 -197.5t-191.5 -75.5zM296 678l-70 -90h-92
l107 143h111l108 -143h-93z" />
    <glyph glyph-name="otilde" unicode="&#xf5;" horiz-adv-x="593" 
d="M297 76q72 0 109.5 54t37.5 129q0 74 -37.5 128t-109.5 54t-109.5 -54t-37.5 -128q0 -75 37.5 -129t109.5 -54zM297 -14q-122 0 -191.5 75.5t-69.5 197.5q0 121 69.5 196.5t191.5 75.5t191.5 -75.5t69.5 -196.5q0 -122 -69.5 -197.5t-191.5 -75.5zM417 714h56
q-8 -54 -33 -81q-28 -34 -78 -34q-26 0 -74 19q-52 18 -69 18t-29.5 -13t-12.5 -28h-57q7 44 34.5 78.5t69.5 34.5q37 0 81 -19q49 -19 62 -19q38 0 50 44z" />
    <glyph glyph-name="odieresis" unicode="&#xf6;" horiz-adv-x="593" 
d="M297 76q72 0 109.5 54t37.5 129q0 74 -37.5 128t-109.5 54t-109.5 -54t-37.5 -128q0 -75 37.5 -129t109.5 -54zM297 -14q-122 0 -191.5 75.5t-69.5 197.5q0 121 69.5 196.5t191.5 75.5t191.5 -75.5t69.5 -196.5q0 -122 -69.5 -197.5t-191.5 -75.5zM326 707h114v-108h-114
v108zM268 599h-114v108h114v-108z" />
    <glyph glyph-name="divide" unicode="&#xf7;" horiz-adv-x="600" 
d="M552 202h-504v102h504v-102zM301 387q-29 0 -51 21.5t-22 50.5q0 30 21.5 51t50.5 21t50.5 -21.5t21.5 -50.5q0 -27 -21.5 -49.5t-49.5 -22.5zM301 -25q-29 0 -51 21.5t-22 50.5q0 30 21.5 51t50.5 21t50.5 -21.5t21.5 -50.5q0 -27 -21.5 -49.5t-49.5 -22.5z" />
    <glyph glyph-name="oslash" unicode="&#xf8;" horiz-adv-x="593" 
d="M421 362l-223 -244q39 -42 99 -42q72 0 109.5 54t37.5 129q0 58 -23 103zM64 -28l-32 28l65 72q-61 73 -61 187q0 121 69.5 196.5t191.5 75.5q104 0 170 -55l63 69l32 -28l-65 -71q61 -75 61 -187q0 -122 -69.5 -197.5t-191.5 -75.5q-102 0 -169 56zM173 155l223 244
q-39 42 -99 42q-72 0 -109.5 -54t-37.5 -128q0 -59 23 -104z" />
    <glyph glyph-name="ugrave" unicode="&#xf9;" horiz-adv-x="574" 
d="M514 517v-517h-112v72h-2q-21 -38 -62.5 -62t-84.5 -24q-100 0 -146.5 50t-46.5 153v328h114v-317q0 -124 99 -124q127 0 127 141v300h114zM138 731h134l91 -143h-83z" />
    <glyph glyph-name="uacute" unicode="&#xfa;" horiz-adv-x="574" 
d="M514 517v-517h-112v72h-2q-21 -38 -62.5 -62t-84.5 -24q-100 0 -146.5 50t-46.5 153v328h114v-317q0 -124 99 -124q127 0 127 141v300h114zM212 588l90 143h135l-142 -143h-83z" />
    <glyph glyph-name="ucircumflex" unicode="&#xfb;" horiz-adv-x="574" 
d="M514 517v-517h-112v72h-2q-21 -38 -62.5 -62t-84.5 -24q-100 0 -146.5 50t-46.5 153v328h114v-317q0 -124 99 -124q127 0 127 141v300h114zM287 678l-70 -90h-92l107 143h111l108 -143h-93z" />
    <glyph glyph-name="udieresis" unicode="&#xfc;" horiz-adv-x="574" 
d="M514 517v-517h-112v72h-2q-21 -38 -62.5 -62t-84.5 -24q-100 0 -146.5 50t-46.5 153v328h114v-317q0 -124 99 -124q127 0 127 141v300h114zM317 707h114v-108h-114v108zM259 599h-114v108h114v-108z" />
    <glyph glyph-name="yacute" unicode="&#xfd;" horiz-adv-x="519" 
d="M199 2l-196 515h125l135 -386h2l131 386h119l-201 -545q-36 -90 -56 -117q-44 -60 -127 -60q-40 0 -79 6v96q42 -7 54 -7q36 0 52 17t28 55zM184 588l90 143h135l-142 -143h-83z" />
    <glyph glyph-name="thorn" unicode="&#xfe;" horiz-adv-x="611" 
d="M63 -191v905h114v-264h2q23 37 66 59t88 22q117 0 179.5 -77.5t62.5 -197.5q0 -113 -57.5 -191.5t-165.5 -78.5q-53 0 -100.5 20t-72.5 61h-2v-258h-114zM461 258q0 75 -38 129t-105 54q-70 0 -107.5 -49t-37.5 -134q0 -80 39 -131t106 -51q72 0 107.5 53t35.5 129z" />
    <glyph glyph-name="ydieresis" unicode="&#xff;" horiz-adv-x="519" 
d="M199 2l-196 515h125l135 -386h2l131 386h119l-201 -545q-36 -90 -56 -117q-44 -60 -127 -60q-40 0 -79 6v96q42 -7 54 -7q36 0 52 17t28 55zM289 707h114v-108h-114v108zM231 599h-114v108h114v-108z" />
    <glyph glyph-name="dotlessi" unicode="&#x131;" horiz-adv-x="241" 
d="M177 0h-114v517h114v-517z" />
    <glyph glyph-name="Lslash" unicode="&#x141;" horiz-adv-x="574" 
d="M76 317v397h125v-306l200 142v-93l-200 -142v-207h363v-108h-488v227l-76 -54v90z" />
    <glyph glyph-name="lslash" unicode="&#x142;" horiz-adv-x="241" 
d="M63 0v319l-68 -53v71l68 53v324h114v-235l68 54v-72l-68 -54v-407h-114z" />
    <glyph glyph-name="OE" unicode="&#x152;" horiz-adv-x="1093" 
d="M552 219v266q0 60 -44.5 102t-126.5 42q-72 0 -122 -41.5t-71.5 -101.5t-21.5 -130t21.5 -129.5t71.5 -100.5t122 -41q76 0 123.5 42.5t47.5 91.5zM671 606v-187h343v-102h-343v-209h381v-108h-495v64q-69 -81 -188 -81q-102 0 -178 52t-113 135t-37 184
q0 102 38.5 186.5t116.5 137.5t181 53q115 0 180 -74v57h488v-108h-374z" />
    <glyph glyph-name="oe" unicode="&#x153;" horiz-adv-x="907" 
d="M883 229h-378q1 -68 35 -110.5t100 -42.5q45 0 80 23t43 65h114q-21 -86 -83 -132t-152 -46q-136 0 -185 95q-49 -95 -184 -95q-115 0 -176.5 78t-61.5 196q0 116 66 193.5t181 77.5q132 0 181 -87q55 87 181 87q65 0 113 -24t74.5 -67t39 -95.5t12.5 -115.5zM635 441
q-56 0 -92 -40t-38 -97h264q-4 65 -37.5 101t-96.5 36zM281 441q-67 0 -99.5 -53.5t-32.5 -125.5q0 -37 6 -67.5t20 -58.5t41 -44t65 -16t65 16t41 44t20 58.5t6 67.5q0 72 -32.5 125.5t-99.5 53.5z" />
    <glyph glyph-name="Scaron" unicode="&#x160;" horiz-adv-x="648" 
d="M33 238h125q0 -78 50 -115.5t131 -37.5q77 0 114 31.5t37 76.5q0 66 -59 88q-22 8 -51.5 16.5t-78 20.5t-83.5 22q-158 43 -158 181q0 68 39 117t97 71t125 22q117 0 195.5 -60.5t78.5 -167.5h-125q-8 126 -154 126q-52 0 -91.5 -22t-39.5 -71q0 -69 85 -92q1 0 47 -12
l94.5 -25t64.5 -18q67 -20 103 -71.5t36 -110.5q0 -76 -42.5 -128.5t-104.5 -74t-137 -21.5q-130 0 -213 64t-85 191zM488 928l-108 -143h-111l-107 143h92l70 -89l71 89h93z" />
    <glyph glyph-name="scaron" unicode="&#x161;" horiz-adv-x="519" 
d="M32 166h114q8 -90 117 -90q19 0 37 2.5t37.5 9t30.5 21t10 35.5q-1 13 -5.5 23t-15 17.5t-20.5 12.5t-28 10t-30 8t-35 7.5t-35 7.5q-36 8 -62 17.5t-51.5 26t-39 44t-13.5 65.5q0 40 20 70.5t53 46.5t69 23.5t74 7.5q87 0 146.5 -39t69.5 -120h-119q-13 69 -105 69
q-21 0 -40 -3.5t-36.5 -16t-17.5 -33.5q0 -12 4.5 -21.5t14.5 -16.5t20 -12t28 -10t30.5 -8t35.5 -7.5t35 -7.5q37 -8 62.5 -17.5t51.5 -26.5t39.5 -43.5t13.5 -63.5q0 -58 -36.5 -97.5t-86.5 -55t-108 -15.5q-102 0 -165 46t-64 134zM423 731l-108 -143h-111l-107 143h92
l70 -89l71 89h93z" />
    <glyph glyph-name="Ydieresis" unicode="&#x178;" horiz-adv-x="648" 
d="M262 0v280l-268 434h145l189 -320l186 320h140l-267 -434v-280h-125zM354 904h114v-108h-114v108zM296 796h-114v108h114v-108z" />
    <glyph glyph-name="Zcaron" unicode="&#x17d;" horiz-adv-x="630" 
d="M55 606v108h543v-95l-416 -511h426v-108h-585v102l416 504h-384zM479 928l-108 -143h-111l-107 143h92l70 -89l71 89h93z" />
    <glyph glyph-name="zcaron" unicode="&#x17e;" horiz-adv-x="500" 
d="M42 427v90h420v-80l-296 -347h311v-90h-455v80l286 347h-266zM414 731l-108 -143h-111l-107 143h92l70 -89l71 89h93z" />
    <glyph glyph-name="florin" unicode="&#x192;" 
d="M116 353l15 85h92l32 168q31 125 176 125q33 0 73 -5l-17 -90q-23 5 -41 5q-41 0 -58 -16t-25 -57l-25 -130h102l-15 -85h-102l-73 -381q-11 -59 -59.5 -100.5t-111.5 -41.5q-34 0 -79 5l15 90q27 -5 48 -5q29 0 46 12t23 44l75 377h-91z" />
    <glyph glyph-name="circumflex" unicode="&#x2c6;" horiz-adv-x="241" 
d="M120 678l-70 -90h-92l107 143h111l108 -143h-93z" />
    <glyph glyph-name="caron" unicode="&#x2c7;" horiz-adv-x="241" 
d="M284 731l-108 -143h-111l-107 143h92l70 -89l71 89h93z" />
    <glyph glyph-name="uni02C9" unicode="&#x2c9;" horiz-adv-x="241" 
d="M265 619h-288v65h288v-65z" />
    <glyph glyph-name="breve" unicode="&#x2d8;" horiz-adv-x="241" 
d="M-41 731h58q15 -76 107 -76q39 0 66 19.5t35 56.5h57q-7 -69 -51 -105t-115 -36q-69 0 -110 36t-47 105z" />
    <glyph glyph-name="dotaccent" unicode="&#x2d9;" horiz-adv-x="241" 
d="M178 599h-114v108h114v-108z" />
    <glyph glyph-name="ring" unicode="&#x2da;" horiz-adv-x="241" 
d="M121 549q-41 0 -72 31t-31 72q0 42 31 72.5t72 30.5q42 0 72.5 -30.5t30.5 -72.5q0 -41 -30.5 -72t-72.5 -31zM60 652q0 -24 18.5 -42.5t42.5 -18.5q25 0 43 18.5t18 42.5q0 25 -18 43t-43 18q-24 0 -42.5 -18t-18.5 -43z" />
    <glyph glyph-name="ogonek" unicode="&#x2db;" horiz-adv-x="241" 
d="M162 3h54q-53 -41 -73.5 -70.5t-20.5 -56.5q0 -20 11.5 -32t27.5 -12q29 0 53 33l40 -8q-21 -75 -105 -75q-11 0 -24.5 2.5t-32.5 10.5t-31.5 28t-12.5 49q0 63 114 131z" />
    <glyph glyph-name="tilde" unicode="&#x2dc;" horiz-adv-x="241" 
d="M241 714h56q-8 -54 -33 -81q-28 -34 -78 -34q-26 0 -74 19q-52 18 -69 18t-29.5 -13t-12.5 -28h-57q7 44 34.5 78.5t69.5 34.5q37 0 81 -19q49 -19 62 -19q38 0 50 44z" />
    <glyph glyph-name="hungarumlaut" unicode="&#x2dd;" horiz-adv-x="241" 
d="M-35 588l90 143h136l-144 -143h-82zM164 588l90 143h136l-144 -143h-82z" />
    <glyph glyph-name="uni03A9" unicode="&#x3a9;" horiz-adv-x="712" 
d="M185 82v3q-56 51 -92 127.5t-36 170.5q0 141 85 235t216 94q90 0 158.5 -47.5t102.5 -120.5t34 -155q0 -97 -37.5 -176t-92.5 -128v-3h144v-82h-251v61q58 38 96.5 116.5t38.5 190.5q0 104 -51.5 182t-141.5 78q-89 0 -144 -75t-55 -189q0 -105 39.5 -186.5t96.5 -116.5
v-61h-252v82h142z" />
    <glyph glyph-name="uni03BC" unicode="&#x3bc;" horiz-adv-x="574" 
d="M514 517v-517h-112v72h-2q-20 -38 -60 -62t-76 -24q-59 0 -90 36v-213h-114v708h114v-317q0 -124 99 -124q127 0 127 141v300h114z" />
    <glyph glyph-name="pi" unicode="&#x3c0;" horiz-adv-x="585" 
d="M560 438h-76v-290q0 -90 14 -148h-98q-17 32 -17 142v296h-159q-4 -101 -23.5 -235t-45.5 -203h-98q26 82 45.5 212t21.5 226q-71 0 -104 -11l-13 67q43 31 153 31h408z" />
    <glyph glyph-name="uni2010" unicode="&#x2010;" horiz-adv-x="389" 
d="M49 218v108h291v-108h-291z" />
    <glyph glyph-name="endash" unicode="&#x2013;" horiz-adv-x="500" 
d="M0 218v108h500v-108h-500z" />
    <glyph glyph-name="emdash" unicode="&#x2014;" horiz-adv-x="1000" 
d="M130 218v108h740v-108h-740z" />
    <glyph glyph-name="quoteleft" unicode="&#x2018;" horiz-adv-x="278" 
d="M202 714v-58q-61 -21 -61 -89h61v-135h-125v135q0 54 35 92.5t90 54.5z" />
    <glyph glyph-name="quoteright" unicode="&#x2019;" horiz-adv-x="278" 
d="M77 432v58q61 8 61 89h-61v135h125v-135q0 -58 -34 -99t-91 -48z" />
    <glyph glyph-name="quotesinglbase" unicode="&#x201a;" horiz-adv-x="278" 
d="M77 -147v58q61 21 61 89h-61v135h125v-135q0 -54 -35 -92.5t-90 -54.5z" />
    <glyph glyph-name="quotedblleft" unicode="&#x201c;" horiz-adv-x="444" 
d="M185 714v-58q-61 -21 -61 -89h61v-135h-125v135q0 54 35 92.5t90 54.5zM384 714v-58q-61 -21 -61 -89h61v-135h-125v135q0 54 35 92.5t90 54.5z" />
    <glyph glyph-name="quotedblright" unicode="&#x201d;" horiz-adv-x="444" 
d="M60 432v58q61 21 61 89h-61v135h125v-135q0 -54 -35 -92.5t-90 -54.5zM259 432v58q61 21 61 89h-61v135h125v-135q0 -54 -35 -92.5t-90 -54.5z" />
    <glyph glyph-name="quotedblbase" unicode="&#x201e;" horiz-adv-x="444" 
d="M60 -147v58q61 21 61 89h-61v135h125v-135q0 -54 -35 -92.5t-90 -54.5zM259 -147v58q61 21 61 89h-61v135h125v-135q0 -54 -35 -92.5t-90 -54.5z" />
    <glyph glyph-name="dagger" unicode="&#x2020;" 
d="M221 -160v582h-191v95h191v197h114v-197h191v-95h-191v-582h-114z" />
    <glyph glyph-name="daggerdbl" unicode="&#x2021;" 
d="M221 -160v197h-191v95h191v290h-191v95h191v197h114v-197h191v-95h-191v-290h191v-95h-191v-197h-114z" />
    <glyph glyph-name="bullet" unicode="&#x2022;" horiz-adv-x="500" 
d="M72 357q0 74 52 126t126 52t126.5 -52t52.5 -126t-52.5 -126.5t-126.5 -52.5t-126 52.5t-52 126.5z" />
    <glyph glyph-name="ellipsis" unicode="&#x2026;" horiz-adv-x="1000" 
d="M97 0v135h139v-135h-139zM430 0v135h139v-135h-139zM763 0v135h139v-135h-139z" />
    <glyph glyph-name="perthousand" unicode="&#x2030;" horiz-adv-x="1148" 
d="M231 714q74 0 111.5 -50.5t37.5 -128.5q0 -67 -36 -115.5t-113 -48.5t-113 48.5t-36 115.5q0 78 37.5 128.5t111.5 50.5zM231 654q-64 0 -64 -122q0 -101 64 -101t64 101q0 122 -64 122zM576 -14q-71 0 -110 47.5t-39 120.5q0 76 37.5 125.5t111.5 49.5t111.5 -49.5
t37.5 -125.5q0 -73 -39 -120.5t-110 -47.5zM576 46q64 0 64 105q0 118 -64 118t-64 -118q0 -105 64 -105zM917 -14q-77 0 -113 50t-36 118q0 77 37.5 126t111.5 49t111.5 -49t37.5 -126q0 -68 -36 -118t-113 -50zM917 46q64 0 64 105q0 118 -64 118t-64 -118q0 -105 64 -105
zM165 -24l398 748h73l-400 -748h-71z" />
    <glyph glyph-name="guilsinglleft" unicode="&#x2039;" horiz-adv-x="259" 
d="M205 93l-155 123v112l155 123v-103l-95 -76l95 -76v-103z" />
    <glyph glyph-name="guilsinglright" unicode="&#x203a;" horiz-adv-x="259" 
d="M54 451l155 -123v-112l-155 -123v103l95 76l-95 76v103z" />
    <glyph glyph-name="fraction" unicode="&#x2044;" horiz-adv-x="167" 
d="M-165 -24l419 748h78l-418 -748h-79z" />
    <glyph glyph-name="Euro" unicode="&#x20ac;" 
d="M546 638l-45 -98q-25 43 -70 65q-36 14 -80 14q-70 0 -112 -36q-50 -42 -68 -134l290 2l-30 -65l-268 -2q-2 -20 0 -75h232l-30 -65h-191q8 -80 65 -126q44 -38 112 -37q51 0 89 15q46 18 78 56v-113q-31 -24 -65 -35q-19 -6 -54 -12q-33 -6 -55 -6q-98 0 -163 47
q-47 32 -79.5 88.5t-42.5 122.5h-74l30 65h35q-5 40 -1 75h-64l30 65h42q13 71 46.5 128.5t81.5 90.5q65 46 157 46q78 0 134 -24q38 -18 70 -52z" />
    <glyph glyph-name="afii61289" unicode="&#x2113;" horiz-adv-x="499" 
d="M434 165l44 -42q-69 -133 -197 -133q-82 0 -124.5 49.5t-48.5 126.5v12q-7 -5 -26 -20.5l-29 -23.5l-27 56q66 55 81 69v264q0 126 47.5 187t118.5 61q65 0 98.5 -48t33.5 -123q0 -162 -201 -358v-38q1 -66 28.5 -99.5t70.5 -33.5q40 0 74 27.5t57 66.5zM204 526v-189
q135 154 135 265q0 95 -63 95q-29 0 -50.5 -40.5t-21.5 -130.5z" />
    <glyph glyph-name="trademark" unicode="&#x2122;" horiz-adv-x="990" 
d="M391 714v-65h-126v-347h-80v347h-126v65h332zM591 714l113 -292l112 292h115v-412h-75v322h-2l-123 -322h-56l-123 322h-2v-322h-75v412h116z" />
    <glyph glyph-name="Omega" unicode="&#x2126;" horiz-adv-x="712" 
d="M185 82v3q-56 51 -92 127.5t-36 170.5q0 141 85 235t216 94q90 0 158.5 -47.5t102.5 -120.5t34 -155q0 -97 -37.5 -176t-92.5 -128v-3h144v-82h-251v61q58 38 96.5 116.5t38.5 190.5q0 104 -51.5 182t-141.5 78q-89 0 -144 -75t-55 -189q0 -105 39.5 -186.5t96.5 -116.5
v-61h-252v82h142z" />
    <glyph glyph-name="estimated" unicode="&#x212e;" horiz-adv-x="878" 
d="M843 340h-655q-5 0 -5 -4v-199q0 -12 8 -22q105 -108 248 -108q156 0 261 121h58q-55 -65 -139.5 -103t-180.5 -38q-167 0 -285.5 106t-118.5 257t118.5 257.5t285.5 106.5q168 0 286.5 -106.5t118.5 -257.5v-10zM694 366v199q0 14 -10 24q-105 103 -245 103
q-142 0 -247 -107q-9 -9 -9 -24v-195q0 -7 5 -7h502q4 0 4 7z" />
    <glyph glyph-name="partialdiff" unicode="&#x2202;" horiz-adv-x="560" 
d="M102 656l-30 75q71 57 174 57q111 0 187.5 -99.5t76.5 -281.5q0 -187 -71 -302t-199 -115q-95 0 -147.5 71.5t-52.5 163.5q0 117 62.5 188.5t151.5 71.5q57 0 98 -29t58 -59h1q1 10 1 39q0 114 -51 191t-127 77q-73 0 -132 -48zM249 75h1q60 0 100.5 69t49.5 163
q-11 35 -45.5 66t-81.5 31q-56 0 -94.5 -53.5t-38.5 -127.5q0 -64 30 -106t79 -42z" />
    <glyph glyph-name="Delta" unicode="&#x2206;" horiz-adv-x="650" 
d="M29 0v63l239 655h119l234 -654v-64h-592zM132 82h381l-127 340q-7 25 -31 92t-30 91h-3q-5 -20 -27 -82t-29 -86z" />
    <glyph glyph-name="product" unicode="&#x220f;" horiz-adv-x="709" 
d="M683 610h-106v-707h-99v707h-248v-707h-99v707h-106v91h658v-91z" />
    <glyph glyph-name="summation" unicode="&#x2211;" horiz-adv-x="555" 
d="M534 -97h-511v66l255 333l-245 329v70h485v-86h-348v-3l222 -294l-243 -318v-2h385v-95z" />
    <glyph glyph-name="minus" unicode="&#x2212;" horiz-adv-x="600" 
d="M552 202h-504v102h504v-102z" />
    <glyph glyph-name="uni2215" unicode="&#x2215;" horiz-adv-x="167" 
d="M-165 -24l419 748h78l-418 -748h-79z" />
    <glyph glyph-name="uni2219" unicode="&#x2219;" horiz-adv-x="278" 
d="M64 302q0 29 23 51.5t52 22.5q30 0 52.5 -22.5t22.5 -51.5q0 -30 -22.5 -53t-52.5 -23t-52.5 23t-22.5 53z" />
    <glyph glyph-name="radical" unicode="&#x221a;" horiz-adv-x="582" 
d="M585 838l-222 -983h-84l-154 453l-74 -29l-18 58l153 61l115 -346q18 -74 19 -80h1q2 10 7 38.5l8 44.5l178 783h71z" />
    <glyph glyph-name="infinity" unicode="&#x221e;" horiz-adv-x="778" 
d="M728 291v-1q0 -74 -46.5 -120t-110.5 -46q-45 0 -87.5 27t-93.5 89q-47 -56 -89.5 -86t-97.5 -30q-63 0 -108.5 46.5t-45.5 115.5q0 72 46 118.5t116 46.5q51 0 94.5 -30.5t87.5 -85.5q56 63 85 83q47 33 100 33q66 -1 108 -45t42 -115zM211 182h1q10 0 19.5 1.5t19 6.5
t16.5 8t17.5 12t15.5 12.5t16 15l14 14.5t14.5 16t13.5 15l-45.5 56t-44.5 36t-62 19q-44 0 -70 -31t-26 -78q0 -43 28.5 -73t72.5 -30zM572 394h-2q-18 0 -35.5 -6.5t-35 -21t-28 -24.5t-27.5 -29t-21 -24q52 -60 83 -83.5t68 -23.5q42 0 68 32t26 72q0 48 -27 78t-69 30z
" />
    <glyph glyph-name="integral" unicode="&#x222b;" horiz-adv-x="377" 
d="M357 849l-13 -69q-16 9 -36 9q-32 0 -50 -24q-31 -37 -31 -175q0 -79 7 -242.5t7 -250.5q0 -136 -39 -202q-35 -62 -114 -62q-45 0 -71 16l14 72q28 -11 45 -11q29 0 45 22q30 40 30 164q0 88 -7 255.5t-7 248.5q0 160 57 220q39 42 105 42q34 0 58 -13z" />
    <glyph glyph-name="approxequal" unicode="&#x2248;" 
d="M475 443l37 -34q-51 -100 -131 -100q-28 0 -51.5 9t-63.5 32q-57 34 -90 34q-30 0 -51 -18.5t-45 -54.5l-38 33q22 45 59.5 72t81.5 27q14 0 26.5 -2.5t25.5 -7.5t20.5 -8.5t20 -10.5t16.5 -9q52 -31 73 -35q8 -1 17 -1q28 0 49 18t44 56zM475 264l37 -34
q-50 -99 -132 -99q-27 0 -50.5 9t-63.5 32q-55 34 -89 34q-32 0 -52.5 -18.5t-44.5 -55.5l-38 34q22 45 59.5 72t81.5 27q14 0 27 -2.5t25.5 -7.5t19.5 -8.5l20 -10.5t16 -9q6 -3 18.5 -10.5t18.5 -10.5t16 -7.5t19 -6t19 -1.5q29 0 49.5 17.5t43.5 55.5z" />
    <glyph glyph-name="notequal" unicode="&#x2260;" 
d="M401 510l-42 -94h147v-61h-170l-63 -141h233v-60h-257l-52 -116l-48 20l43 96h-143v60h167l63 141h-230v61h253l51 114z" />
    <glyph glyph-name="lessequal" unicode="&#x2264;" 
d="M503 98l-448 225v65l448 224v-72l-386 -183v-2l386 -185v-72zM507 -3h-457v62h457v-62z" />
    <glyph glyph-name="greaterequal" unicode="&#x2265;" 
d="M56 612l449 -224v-65l-449 -225v72l386 184v3l-386 183v72zM505 -3h-454v62h454v-62z" />
    <glyph glyph-name="lozenge" unicode="&#x25ca;" horiz-adv-x="582" 
d="M529 350l-200 -397h-81l-196 397l200 398h81zM439 348l-128 260q-13 34 -19 57h-3q-6 -27 -19 -57l-128 -256l129 -263q14 -34 17 -54h4q14 44 18 53z" />
    <glyph glyph-name="fi" unicode="&#xfb01;" 
d="M378 0v517h114v-517h-114zM9 432v85h85v43q0 90 38.5 122t104.5 32q55 0 80 -7v-89q-23 6 -53 6q-56 0 -56 -54v-53h97v-85h-97v-432h-114v432h-85zM378 606v108h114v-108h-114z" />
    <glyph glyph-name="fl" unicode="&#xfb02;" 
d="M9 432v85h85v43q0 90 38.5 122t104.5 32q55 0 80 -7v-89q-23 6 -53 6q-56 0 -56 -54v-53h97v-85h-97v-432h-114v432h-85zM378 0v714h114v-714h-114z" />
    <glyph glyph-name="a.superior" horiz-adv-x="380" 
d="M244 491v44q-15 -7 -84 -19q-57 -9 -57 -45q0 -33 56 -33q85 0 85 53zM331 621v-151q0 -12 3.5 -17.5t13.5 -4.5q9 0 16 1v-68q-22 -8 -47 -8q-54 0 -62 49q-14 -21 -49.5 -35t-67.5 -14q-50 0 -86 24.5t-36 68.5q0 22 8.5 39t19.5 26.5t32.5 17t35 10.5t39.5 7
q6 1 16.5 2.5t16.5 2.5t14.5 3l13 3t10.5 3t9.5 4.5t6.5 5.5t4.5 6.5t1.5 7.5q0 20 -10.5 30.5t-21.5 12.5t-28 2q-66 0 -70 -42h-85q6 57 50.5 82t109.5 25q58 0 100 -23.5t42 -69.5z" />
    <glyph glyph-name="o.superior" horiz-adv-x="380" 
d="M284 543q0 41 -24 73.5t-67 32.5t-67 -32t-24 -74t24 -73.5t67 -31.5q44 0 66 31t25 74zM371 543q0 -78 -46.5 -124t-131.5 -46t-131.5 46t-46.5 124t46.5 124.5t131.5 46.5t131.5 -46.5t46.5 -124.5z" />
    <glyph glyph-name="one.superior" horiz-adv-x="360" 
d="M36 577v58q54 0 91.5 17.5t46.5 52.5h70v-432h-87v304h-121z" />
    <glyph glyph-name="two.superior" horiz-adv-x="360" 
d="M336 343v-70h-315q1 110 100 171q10 7 36 23t39 25t30 24t24.5 31t8.5 35q0 31 -21 46.5t-52 15.5q-69 0 -73 -93h-87q0 76 44 119.5t120 43.5q68 0 112 -32.5t44 -97.5q0 -76 -102 -141l-37 -23.5t-39.5 -25.5t-25.5 -22.5t-19 -28.5h213z" />
    <glyph glyph-name="three.superior" horiz-adv-x="360" 
d="M146 475v58q42 -2 71.5 13t29.5 48q0 25 -21 37.5t-48 12.5q-33 0 -53.5 -21.5t-19.5 -54.5h-80q3 69 44 107.5t110 38.5q62 0 105 -28.5t43 -87.5q0 -68 -64 -90v-2q38 -7 60 -35.5t22 -69.5q0 -64 -47 -100.5t-118 -36.5q-80 0 -121 40.5t-43 114.5h80q-2 -37 20.5 -61
t63.5 -24q36 0 60.5 19.5t24.5 51.5q0 43 -32.5 57.5t-86.5 12.5z" />
    <hkern u1="T" u2="&#x161;" k="28" />
    <hkern u1="T" u2="&#xfc;" k="46" />
    <hkern u1="T" u2="&#xf6;" k="56" />
    <hkern u1="T" u2="&#xf2;" k="56" />
    <hkern u1="T" u2="&#xeb;" k="56" />
    <hkern u1="T" u2="&#xea;" k="83" />
    <hkern u1="T" u2="&#xe8;" k="83" />
    <hkern u1="T" u2="&#xe5;" k="50" />
    <hkern u1="T" u2="&#xe4;" k="25" />
    <hkern u1="T" u2="&#xe3;" k="50" />
    <hkern u1="T" u2="&#xe2;" k="50" />
    <hkern u1="T" u2="&#xe0;" k="50" />
    <hkern u1="V" u2="&#xf6;" k="28" />
    <hkern u1="V" u2="&#xf4;" k="41" />
    <hkern u1="V" u2="&#xeb;" k="28" />
    <hkern u1="V" u2="&#xea;" k="28" />
    <hkern u1="V" u2="&#xe8;" k="28" />
    <hkern u1="V" u2="&#xe5;" k="28" />
    <hkern u1="V" u2="&#xe4;" k="28" />
    <hkern u1="V" u2="&#xe3;" k="28" />
    <hkern u1="V" u2="&#xe2;" k="28" />
    <hkern u1="V" u2="&#xe0;" k="28" />
    <hkern u1="W" u2="&#xfc;" k="14" />
    <hkern u1="W" u2="&#xf6;" k="14" />
    <hkern u1="W" u2="&#xea;" k="14" />
    <hkern u1="W" u2="&#xe4;" k="28" />
    <hkern u1="Y" u2="&#xfc;" k="65" />
    <hkern u1="Y" u2="&#xf6;" k="69" />
    <hkern u1="&#x2018;" u2="&#x2018;" k="79" />
    <hkern u1="&#x2019;" u2="&#x2019;" k="79" />
    <hkern g1="f"
	g2="s,scaron"
	k="-18" />
    <hkern g1="f"
	g2="u,ugrave,uacute,ucircumflex,udieresis"
	k="18" />
    <hkern g1="F"
	g2="Y,Yacute,Ydieresis"
	k="-18" />
    <hkern g1="F"
	g2="quoteright"
	k="18" />
    <hkern g1="L,Lslash"
	g2="u,ugrave,uacute,ucircumflex,udieresis"
	k="55" />
    <hkern g1="L,Lslash"
	g2="colon"
	k="129" />
    <hkern g1="L,Lslash"
	g2="semicolon"
	k="129" />
    <hkern g1="P"
	g2="quoteright"
	k="55" />
    <hkern g1="P"
	g2="f,germandbls,fi,fl,f_i,f_l"
	k="129" />
    <hkern g1="P"
	g2="A,Agrave,Aacute,Acircumflex,Atilde,Adieresis,Aring,AE"
	k="129" />
    <hkern g1="P"
	g2="t"
	k="92" />
    <hkern g1="r"
	g2="c,ccedilla"
	k="92" />
    <hkern g1="r"
	g2="e,egrave,eacute,ecircumflex,edieresis"
	k="92" />
    <hkern g1="r"
	g2="o,ograve,oacute,ocircumflex,otilde,odieresis,oslash,oe"
	k="55" />
    <hkern g1="r"
	g2="q"
	k="37" />
    <hkern g1="r"
	g2="hyphen"
	k="111" />
    <hkern g1="r"
	g2="a,agrave,aacute,acircumflex,atilde,adieresis,aring,ae"
	k="74" />
    <hkern g1="R"
	g2="v"
	k="55" />
    <hkern g1="R"
	g2="V"
	k="37" />
    <hkern g1="R"
	g2="w"
	k="111" />
    <hkern g1="R"
	g2="W"
	k="74" />
    <hkern g1="T"
	g2="r"
	k="74" />
    <hkern g1="T"
	g2="s,scaron"
	k="169" />
    <hkern g1="T"
	g2="u,ugrave,uacute,ucircumflex,udieresis"
	k="169" />
    <hkern g1="v"
	g2="y,yacute,ydieresis"
	k="74" />
    <hkern g1="v"
	g2="Y,Yacute,Ydieresis"
	k="169" />
    <hkern g1="v"
	g2="quoteright"
	k="169" />
    <hkern g1="V"
	g2="r"
	k="92" />
    <hkern g1="V"
	g2="s,scaron"
	k="92" />
    <hkern g1="V"
	g2="u,ugrave,uacute,ucircumflex,udieresis"
	k="18" />
    <hkern g1="V"
	g2="colon"
	k="18" />
    <hkern g1="V"
	g2="semicolon"
	k="18" />
    <hkern g1="V"
	g2="i,igrave,iacute,icircumflex,idieresis,dotlessi"
	k="-18" />
    <hkern g1="V"
	g2="p"
	k="18" />
    <hkern g1="V"
	g2="t"
	k="18" />
    <hkern g1="w"
	g2="y,yacute,ydieresis"
	k="92" />
    <hkern g1="w"
	g2="Y,Yacute,Ydieresis"
	k="92" />
    <hkern g1="w"
	g2="quoteright"
	k="18" />
    <hkern g1="w"
	g2="f,germandbls,fi,fl,f_i,f_l"
	k="18" />
    <hkern g1="w"
	g2="A,Agrave,Aacute,Acircumflex,Atilde,Adieresis,Aring,AE"
	k="18" />
    <hkern g1="w"
	g2="comma"
	k="-18" />
    <hkern g1="w"
	g2="period"
	k="18" />
    <hkern g1="w"
	g2="c,ccedilla"
	k="18" />
    <hkern g1="w"
	g2="d"
	k="55" />
    <hkern g1="w"
	g2="semicolon"
	k="18" />
    <hkern g1="w"
	g2="p"
	k="18" />
    <hkern g1="W"
	g2="A,Agrave,Aacute,Acircumflex,Atilde,Adieresis,Aring,AE"
	k="18" />
    <hkern g1="W"
	g2="period"
	k="18" />
    <hkern g1="W"
	g2="d"
	k="18" />
    <hkern g1="W"
	g2="n,ntilde"
	k="37" />
    <hkern g1="y,yacute,ydieresis"
	g2="T"
	k="37" />
    <hkern g1="y,yacute,ydieresis"
	g2="p"
	k="111" />
    <hkern g1="Y,Yacute,Ydieresis"
	g2="period"
	k="111" />
    <hkern g1="Y,Yacute,Ydieresis"
	g2="d"
	k="111" />
    <hkern g1="Y,Yacute,Ydieresis"
	g2="q"
	k="92" />
    <hkern g1="Y,Yacute,Ydieresis"
	g2="hyphen"
	k="111" />
    <hkern g1="Y,Yacute,Ydieresis"
	g2="a,agrave,aacute,acircumflex,atilde,adieresis,aring,ae"
	k="111" />
    <hkern g1="Y,Yacute,Ydieresis"
	g2="r"
	k="111" />
    <hkern g1="Y,Yacute,Ydieresis"
	g2="u,ugrave,uacute,ucircumflex,udieresis"
	k="111" />
    <hkern g1="Y,Yacute,Ydieresis"
	g2="semicolon"
	k="111" />
    <hkern g1="Y,Yacute,Ydieresis"
	g2="p"
	k="129" />
    <hkern g1="Y,Yacute,Ydieresis"
	g2="t"
	k="100" />
    <hkern g1="quoteright"
	g2="V"
	k="92" />
    <hkern g1="quoteright"
	g2="w"
	k="111" />
    <hkern g1="quoteright"
	g2="W"
	k="111" />
    <hkern g1="quoteright"
	g2="y,yacute,ydieresis"
	k="111" />
    <hkern g1="quoteright"
	g2="quoteright"
	k="111" />
    <hkern g1="quoteright"
	g2="A,Agrave,Aacute,Acircumflex,Atilde,Adieresis,Aring,AE"
	k="111" />
    <hkern g1="quoteright"
	g2="period"
	k="129" />
    <hkern g1="quoteright"
	g2="c,ccedilla"
	k="100" />
    <hkern g1="quoteright"
	g2="d"
	k="92" />
    <hkern g1="quoteright"
	g2="e,egrave,eacute,ecircumflex,edieresis"
	k="111" />
    <hkern g1="quoteright"
	g2="n,ntilde"
	k="92" />
    <hkern g1="quoteright"
	g2="o,ograve,oacute,ocircumflex,otilde,odieresis,oslash,oe"
	k="83" />
    <hkern g1="quoteright"
	g2="q"
	k="83" />
  </font>
</defs></svg>
