<?xml version="1.0" standalone="no"?>
<!DOCTYPE svg PUBLIC "-//W3C//DTD SVG 1.1//EN" "http://www.w3.org/Graphics/SVG/1.1/DTD/svg11.dtd" >
<svg>
<metadata>
Created by FontForge 20090622 at Tue Feb 23 07:18:55 2016
 By deploy user
Typeface &#194;&#169; 1992 Fonderia Caratteri Svizzera Walter Fruttiger A.G. Data &#194;&#169; 1992 URW. Portions &#194;&#169; 1992 Microsoft Corp. All rights reserved.
</metadata>
<defs>
<font id="EurostileBold" horiz-adv-x="1285" >
  <font-face 
    font-family="Eurostile"
    font-weight="700"
    font-stretch="normal"
    units-per-em="2048"
    panose-1="2 11 7 4 2 2 2 5 2 4"
    ascent="1638"
    descent="-410"
    x-height="956"
    cap-height="1365"
    bbox="-340 -512 2310 1789"
    underline-thickness="150"
    underline-position="-135"
    unicode-range="U+0020-U+F002"
  />
<missing-glyph horiz-adv-x="682" 
d="M68 0v1365h546v-1365h-546zM546 68v1229h-410v-1229h410z" />
    <glyph glyph-name=".notdef" horiz-adv-x="682" 
d="M68 0v1365h546v-1365h-546zM546 68v1229h-410v-1229h410z" />
    <glyph glyph-name="glyph1" horiz-adv-x="0" 
 />
    <glyph glyph-name="glyph2" horiz-adv-x="682" 
 />
    <glyph glyph-name="space" unicode=" " horiz-adv-x="512" 
 />
    <glyph glyph-name="uni00A0" unicode="&#xa0;" horiz-adv-x="512" 
 />
    <glyph glyph-name="A" unicode="A" horiz-adv-x="1300" 
d="M946 262h-589l-85 -262h-274l454 1365h389l461 -1365h-269zM886 453l-236 711l-232 -711h468z" />
    <glyph glyph-name="B" unicode="B" horiz-adv-x="1299" 
d="M120 0v1365h671q236 0 321.5 -75.5t85.5 -284.5q0 -253 -201 -298v-5q234 -36 234 -325q0 -209 -90 -293t-314 -84h-707zM379 792h317q154 0 196.5 34t42.5 157q0 164 -186 164h-370v-355zM379 218h284l91 2q131 0 172.5 37t41.5 156q0 124 -43.5 156t-214.5 32h-331
v-383z" />
    <glyph glyph-name="C" unicode="C" horiz-adv-x="1266" 
d="M963 487h260v-47q0 -285 -104 -368.5t-460 -83.5q-404 0 -497 132t-93 706q0 338 126 444.5t527 106.5q292 0 390 -87.5t98 -347.5l1 -31h-260v35q0 134 -50.5 171.5t-230.5 37.5q-241 0 -289.5 -59t-48.5 -350q0 -392 43.5 -464t281.5 -72q193 0 250.5 40t57.5 176z" />
    <glyph glyph-name="D" unicode="D" horiz-adv-x="1375" 
d="M120 0v1365h671q286 0 400.5 -125t114.5 -438q0 -511 -92 -656.5t-415 -145.5h-679zM379 218h369q186 0 240.5 85.5t54.5 377.5q0 302 -49 384t-230 82h-385v-929z" />
    <glyph glyph-name="E" unicode="E" horiz-adv-x="1106" 
d="M352 1147v-352h640v-191h-640v-386h681v-218h-940v1365h934v-218h-675z" />
    <glyph glyph-name="F" unicode="F" horiz-adv-x="1062" 
d="M379 1147v-368h612v-218h-612v-561h-259v1365h904v-218h-645z" />
    <glyph glyph-name="G" unicode="G" horiz-adv-x="1324" 
d="M657 726h601l4 -271q0 -296 -111.5 -381.5t-497.5 -85.5q-354 0 -469 114t-115 465q0 448 46 566q57 144 173 194t394 50q364 0 470 -77.5t106 -343.5h-262q-7 134 -58.5 166.5t-258.5 32.5q-225 0 -285.5 -56t-60.5 -263l-1 -137l2 -175q0 -203 60 -258.5t278 -55.5
q212 0 269.5 47t57.5 222l1 56h-343v191z" />
    <glyph glyph-name="H" unicode="H" horiz-adv-x="1398" 
d="M1278 1365v-1365h-259v590h-640v-590h-259v1365h259v-557h640v557h259z" />
    <glyph glyph-name="I" unicode="I" horiz-adv-x="501" 
d="M379 1365v-1365h-259v1365h259z" />
    <glyph glyph-name="J" unicode="J" horiz-adv-x="1058" 
d="M938 1365v-942q0 -263 -87 -349t-354 -86q-284 0 -368.5 83t-84.5 363l3 101h247q6 -76 6 -114q0 -36 3 -87q6 -124 197 -124q114 0 146.5 44.5t32.5 200.5v910h259z" />
    <glyph glyph-name="K" unicode="K" horiz-adv-x="1320" 
d="M379 1365v-556h122l454 556h322l-551 -663l609 -702h-332l-500 591h-124v-591h-259v1365h259z" />
    <glyph glyph-name="L" unicode="L" horiz-adv-x="1030" 
d="M379 1365v-1133h640v-232h-899v1365h259z" />
    <glyph glyph-name="M" unicode="M" horiz-adv-x="1836" 
d="M1716 1365v-1365h-259v744q0 89 5 202l5 102l5 101h-8l-31 -95l-30 -95q-42 -128 -65 -189l-300 -770h-236l-303 764q-25 63 -66 189l-31 95l-31 94h-8l5 -99l5 -100q6 -116 6 -199v-744h-259v1365h422l244 -632q25 -66 66 -189l30 -95l31 -94h9l29 94l30 94
q37 119 64 188l240 634h431z" />
    <glyph glyph-name="N" unicode="N" horiz-adv-x="1507" 
d="M1387 1365v-1365h-439l-390 749q-29 56 -91 196l-44 98l-43 98h-10l4 -90l3 -89l2 -179v-783h-259v1365h439l355 -692l109 -223l52 -111l52 -112h9l-3 88l-3 88l-2 176v786h259z" />
    <glyph glyph-name="O" unicode="O" horiz-adv-x="1328" 
d="M687 1377q372 0 479 -123.5t107 -552.5q0 -469 -107.5 -591t-520.5 -122q-372 0 -481 120.5t-109 530.5q0 488 107 613t525 125zM667 1155q-261 0 -305 -67t-44 -464q0 -294 51.5 -354t303.5 -60q241 0 289 67.5t48 409.5q0 343 -45.5 405.5t-297.5 62.5z" />
    <glyph glyph-name="P" unicode="P" horiz-adv-x="1253" 
d="M120 0v1365h550h68q277 0 373.5 -96.5t96.5 -372.5q0 -274 -92 -364t-372 -90l-60 -1h-305v-441h-259zM379 659h295q176 0 223.5 40.5t47.5 191.5q0 173 -39.5 214.5t-205.5 41.5h-321v-488z" />
    <glyph glyph-name="Q" unicode="Q" horiz-adv-x="1370" 
d="M1389 183l-107 -156l-130 90q-127 -129 -484 -129q-391 0 -502 117.5t-111 532.5q0 483 105.5 611t503.5 128q392 0 500.5 -120.5t108.5 -555.5q0 -309 -27 -420zM612 486l108 156l282 -191q8 74 8 99v138v169q0 191 -62 244.5t-281 53.5q-261 0 -305 -67t-44 -464
q0 -300 53.5 -357t334.5 -57q143 0 224 61z" />
    <glyph glyph-name="R" unicode="R" horiz-adv-x="1320" 
d="M120 0v1365h673q251 0 346 -87t95 -315q0 -207 -47.5 -283t-194.5 -105v-9q227 -14 227 -265v-301h-259v249q0 211 -208 211h-373v-460h-259zM379 678h372q133 0 176.5 47.5t43.5 190.5q0 146 -37.5 188.5t-164.5 42.5h-390v-469z" />
    <glyph glyph-name="S" unicode="S" horiz-adv-x="1226" 
d="M1133 967h-253q-2 19 -2 28q-9 115 -51 144.5t-198 29.5q-184 0 -240.5 -34t-56.5 -143q0 -129 46 -155t304 -40q305 -17 394.5 -87t89.5 -291q0 -272 -105 -351.5t-463 -79.5q-322 0 -427.5 78t-105.5 316l-1 50h252l1 -29q0 -143 50 -175t273 -32q174 0 222 37t48 171
q0 99 -36.5 131.5t-157.5 39.5l-143 9q-324 19 -414 90t-90 305q0 239 108.5 318.5t433.5 79.5q308 0 415 -73t107 -285v-52z" />
    <glyph glyph-name="T" unicode="T" horiz-adv-x="1083" 
d="M664 1133v-1133h-259v1133h-394v232h1061v-232h-408z" />
    <glyph glyph-name="U" unicode="U" horiz-adv-x="1376" 
d="M998 1365h259v-908q0 -285 -109.5 -377t-447.5 -92q-357 0 -468 87t-111 367v923h259v-923q0 -151 54 -191.5t254 -40.5q205 0 257.5 41t52.5 201v913z" />
    <glyph glyph-name="V" unicode="V" horiz-adv-x="1261" 
d="M994 1365h274l-440 -1365h-398l-436 1365h269l256 -773q36 -111 107 -372h7l26 93q48 174 82 278z" />
    <glyph glyph-name="W" unicode="W" horiz-adv-x="2040" 
d="M2039 1365l-365 -1365h-383l-190 700q-26 95 -61 254l-19 84h-9l-20 -85l-19 -84q-21 -85 -45 -170l-195 -699h-379l-354 1365h264l197 -749q18 -72 45 -199l21 -100l20 -100h9l24 100l24 99q19 78 53 199l210 750h304l205 -750q26 -96 51 -199l23 -99l24 -100h8l22 100
l21 100q26 121 47 200l202 748h265z" />
    <glyph glyph-name="X" unicode="X" horiz-adv-x="1290" 
d="M1270 1365l-410 -661l437 -704h-304l-196 328q-45 76 -86 154l-28 54l-29 53h-4l-29 -54q-52 -98 -118 -207l-197 -328h-312l448 704l-416 661h309l182 -304q43 -72 81 -142l25 -48l25 -48h4l25 48l25 47q32 62 80 142l182 305h306z" />
    <glyph glyph-name="Y" unicode="Y" horiz-adv-x="1245" 
d="M1251 1365l-506 -844v-521h-259v521l-492 844h300l206 -360q17 -30 58 -111l29 -55l28 -55h7l29 55l29 55q37 74 59 111l208 360h304z" />
    <glyph glyph-name="Z" unicode="Z" horiz-adv-x="1181" 
d="M1127 1365v-217l-754 -922v-8h763v-218h-1091v221l748 918v8h-715v218h1049z" />
    <glyph glyph-name="AE" unicode="&#xc6;" horiz-adv-x="1956" 
d="M1217 1147v-354h626v-191h-626v-384h666v-218h-925v262h-551l-123 -262h-289l644 1365h1244v-218h-666zM958 453v694h-139l-327 -694h466z" />
    <glyph glyph-name="OE" unicode="&#x152;" horiz-adv-x="2019" 
d="M1274 1141v-346h630v-191h-630v-383h672v-218h-920l8 142h-8q-95 -157 -391 -157q-367 0 -466.5 120t-99.5 561q0 454 97 581t443 127q334 0 417 -166h8l-8 148h913v-218h-665zM630 1155q-185 0 -241 -55.5t-56 -239.5v-180l-1 -139l7 -153q14 -110 77 -144t254 -34
q238 0 292.5 62t54.5 333q0 420 -45.5 485t-341.5 65z" />
    <glyph glyph-name="Oslash" unicode="&#xd8;" horiz-adv-x="1344" 
d="M5 -16v206l87 77q-30 110 -30 367q0 492 107.5 617.5t528.5 125.5q359 0 477 -136l164 145v-205l-89 -80q31 -113 31 -405q0 -456 -107 -582t-496 -126t-512 140zM367 302q55 -92 268 -92q239 0 310.5 57t71.5 247l1 207l-4 122q-1 16 -5 49zM976 1067q-54 88 -278 88
q-260 0 -316.5 -71.5t-56.5 -398.5q0 -128 9 -207z" />
    <glyph glyph-name="Ccedilla" unicode="&#xc7;" horiz-adv-x="1266" 
d="M963 487h260v-47q0 -285 -104 -368.5t-460 -83.5q-404 0 -497 132t-93 706q0 338 126 444.5t527 106.5q292 0 390 -87.5t98 -347.5l1 -31h-260v35q0 134 -50.5 171.5t-230.5 37.5q-241 0 -289.5 -59t-48.5 -350q0 -392 43.5 -464t281.5 -72q193 0 250.5 40t57.5 176z
M697 -102l101 -116l-230 -164l-73 78z" />
    <glyph glyph-name="a" unicode="a" horiz-adv-x="1069" 
d="M351 679h-234q0 172 80 230t317 58q258 0 349 -71t91 -271v-625h-229l11 131l-6 1q-66 -143 -305 -143q-347 0 -347 295q0 298 355 298q237 0 288 -109h4v155q0 112 -39 148.5t-160 36.5q-175 0 -175 -134zM504 428q-194 0 -194 -134q0 -93 40 -122t168 -29
q209 0 209 141q0 144 -223 144z" />
    <glyph glyph-name="b" unicode="b" horiz-adv-x="1083" 
d="M113 0v1365h229v-546l5 -2q59 151 299 151q206 0 282.5 -100.5t76.5 -372.5q0 -297 -77.5 -401.5t-297.5 -104.5q-223 0 -293 162h-5l10 -151h-229zM568 787q-223 0 -223 -277q0 -217 38 -278.5t172 -61.5q140 0 179 56.5t39 258.5q0 188 -38.5 245t-166.5 57z" />
    <glyph glyph-name="c" unicode="c" horiz-adv-x="1005" 
d="M722 365h228v-33l-14 -145q-42 -198 -410 -198q-270 0 -359 97.5t-89 392.5q0 288 89 388t346 100q248 0 336 -72.5t88 -275.5h-227q0 167 -193 167q-137 0 -172 -53t-35 -260q0 -200 38.5 -251.5t188.5 -51.5q118 0 151.5 35.5t33.5 159.5z" />
    <glyph glyph-name="d" unicode="d" horiz-adv-x="1076" 
d="M964 1365v-1365h-223l8 154l-4 1q-67 -167 -292 -167q-227 0 -300.5 103.5t-73.5 420.5q0 256 79 355.5t281 99.5q234 0 292 -148l4 1v545h229zM515 786q-128 0 -166 -54.5t-38 -234.5q0 -208 38 -268t170 -60q138 0 176.5 59t38.5 272q0 176 -42.5 231t-176.5 55z" />
    <glyph glyph-name="e" unicode="e" horiz-adv-x="1037" 
d="M729 306h230v-37q0 -280 -420 -280q-285 0 -373 97t-88 411q0 279 92 375t359 96q256 0 343 -93.5t87 -367.5v-70h-647q-2 -32 -2 -42q0 -141 43.5 -188t173.5 -47q126 0 164 27.5t38 118.5zM731 577l-1 38q0 114 -39.5 148t-171.5 34q-128 0 -166.5 -41t-38.5 -179h417z
" />
    <glyph glyph-name="f" unicode="f" horiz-adv-x="640" 
d="M160 0v782h-135v174h135v102q0 182 78.5 251.5t284.5 69.5q35 0 97 -3v-179q-47 11 -80 11q-151 0 -151 -150v-102h238v-174h-238v-782h-229z" />
    <glyph glyph-name="g" unicode="g" horiz-adv-x="1080" 
d="M968 956v-974q0 -234 -94.5 -321t-348.5 -87q-246 0 -329 66t-83 261h222q0 -93 35 -119.5t156 -26.5q213 0 213 176v215l-5 1q-61 -153 -280 -153q-217 0 -296.5 105t-79.5 392q0 270 79.5 373t288.5 103q228 0 299 -169h5l-11 158h229zM517 786q-132 0 -169.5 -53.5
t-37.5 -243.5q0 -202 37.5 -258t172.5 -56t175 57.5t40 254.5q0 189 -40 244t-178 55z" />
    <glyph glyph-name="h" unicode="h" horiz-adv-x="1088" 
d="M342 1365v-567l5 -1q64 170 294 170q335 0 335 -317v-650h-229v587v31q0 168 -171 168q-234 0 -234 -243v-543h-229v1365h229z" />
    <glyph glyph-name="i" unicode="i" horiz-adv-x="454" 
d="M342 1365v-191h-229v191h229zM342 956v-956h-229v956h229z" />
    <glyph glyph-name="j" unicode="j" horiz-adv-x="453" 
d="M339 1365v-191h-229v191h229zM338 956v-997q0 -287 -255 -287q-36 0 -79 8v163h23q82 0 82 135v978h229z" />
    <glyph glyph-name="k" unicode="k" horiz-adv-x="984" 
d="M342 1365v-781h59l258 372h266l-333 -450l401 -506h-284l-311 424h-56v-424h-229v1365h229z" />
    <glyph glyph-name="l" unicode="l" horiz-adv-x="454" 
d="M342 1365v-1365h-229v1365h229z" />
    <glyph glyph-name="m" unicode="m" horiz-adv-x="1673" 
d="M113 956h229l-6 -147l5 -1q70 159 292 159q259 0 288 -177h4q67 177 295 177q332 0 332 -334v-633h-229v583q0 203 -167 203q-209 0 -209 -227v-559h-229v592q0 119 -31.5 156.5t-133.5 37.5q-211 0 -211 -232v-554h-229v956z" />
    <glyph glyph-name="n" unicode="n" horiz-adv-x="1086" 
d="M113 956h227l-9 -161l5 -1q67 173 300 173q339 0 339 -316v-651h-229v576v36l-5 67q-16 107 -168 107q-231 0 -231 -219v-567h-229v956z" />
    <glyph glyph-name="o" unicode="o" horiz-adv-x="1060" 
d="M533 967q277 0 363 -88.5t86 -373.5q0 -318 -84 -417t-354 -99q-293 0 -379.5 92t-86.5 405q0 301 85 391t370 90zM531 786q-143 0 -182 -51.5t-39 -240.5q0 -216 37 -270t185 -54q143 0 180.5 57t37.5 274q0 183 -39 234t-180 51z" />
    <glyph glyph-name="p" unicode="p" horiz-adv-x="1095" 
d="M113 956h233l-9 -142l5 -1q83 155 309 155q209 0 287.5 -103.5t78.5 -377.5q0 -286 -78 -392t-289 -106q-225 0 -294 150h-4v-549h-239v1366zM564 787q-131 0 -171 -59t-40 -250q0 -186 43 -247t175 -61q134 0 174 58t40 249q0 196 -40.5 253t-180.5 57z" />
    <glyph glyph-name="q" unicode="q" horiz-adv-x="1081" 
d="M969 956v-1366h-229v550l-4 1q-63 -153 -294 -153q-211 0 -287.5 106.5t-76.5 400.5q0 271 78.5 371.5t289.5 100.5q217 0 291 -154l6 2l-3 141h229zM515 786q-125 0 -165 -56.5t-40 -233.5q0 -213 37.5 -270t177.5 -57q127 0 169.5 59t42.5 235q0 204 -40.5 263.5
t-181.5 59.5z" />
    <glyph glyph-name="r" unicode="r" horiz-adv-x="863" 
d="M119 956h229l-14 -134l5 -1q82 150 258 150q252 0 252 -318v-67h-216q4 39 4 51q0 153 -119 153q-170 0 -170 -227v-563h-229v956z" />
    <glyph glyph-name="s" unicode="s" horiz-adv-x="1013" 
d="M911 693h-224l-3 18q-7 69 -39.5 86t-157.5 17q-179 0 -179 -116q0 -79 31.5 -94t213.5 -24q245 -12 319 -65t74 -217q0 -175 -98.5 -242.5t-353.5 -67.5q-245 0 -335 61t-90 228v24h238q-5 -20 -6 -32q-14 -127 196 -127q217 0 217 126q0 121 -136 121q-307 0 -404.5 58
t-97.5 241q0 164 89 222t342 58q239 0 321.5 -56t82.5 -219z" />
    <glyph glyph-name="t" unicode="t" horiz-adv-x="782" 
d="M730 956v-174h-368v-480q0 -133 101 -133q111 0 111 161v38h195v-48q0 -66 -4 -113q-19 -219 -326 -219q-306 0 -306 281v513h-124v174h124v214h229v-214h368z" />
    <glyph glyph-name="u" unicode="u" horiz-adv-x="1081" 
d="M962 956v-956h-229l13 164l-4 1q-67 -176 -308 -176q-325 0 -325 325v642h229v-587q0 -122 34 -160.5t141 -38.5q220 0 220 264v522h229z" />
    <glyph glyph-name="v" unicode="v" horiz-adv-x="900" 
d="M910 956l-274 -956h-358l-288 956h243l126 -441q26 -92 48 -178l23 -89l23 -89h5l21 89l21 88q24 100 45 178l118 442h247z" />
    <glyph glyph-name="w" unicode="w" horiz-adv-x="1455" 
d="M1452 956l-214 -956h-338l-96 428q-25 111 -37 169l-17 84l-17 84h-7l-17 -84l-17 -85q-11 -56 -36 -168l-96 -428h-343l-213 956h231l92 -443q17 -83 34 -178l16 -89l17 -89h4l20 89l19 89l41 177l104 444h292l104 -444l41 -177l19 -89l19 -89h5l17 89l16 89
q17 92 35 178l93 443h229z" />
    <glyph glyph-name="x" unicode="x" horiz-adv-x="919" 
d="M895 956l-278 -450l309 -506h-274l-192 347l-187 -347h-281l313 503l-276 453h273l158 -303l162 303h273z" />
    <glyph glyph-name="y" unicode="y" horiz-adv-x="890" 
d="M900 956l-251 -1016q-53 -216 -131.5 -290.5t-251.5 -74.5q-39 0 -81 4v169q30 -2 50 -2q146 0 185 254h-117l-313 956h246l120 -405l60 -203q5 -20 28 -102l29 -101h5l21 101l21 102l47 203l92 405h241z" />
    <glyph glyph-name="z" unicode="z" horiz-adv-x="868" 
d="M82 956h745v-197l-512 -585h512v-174h-785v201l507 581h-467v174z" />
    <glyph glyph-name="ae" unicode="&#xe6;" horiz-adv-x="1672" 
d="M1593 445h-640q0 -193 35.5 -239.5t184.5 -46.5q123 0 155.5 25t37.5 124h227v-35q0 -285 -424 -285q-295 0 -350 153h-5q-66 -152 -343 -152q-224 0 -308.5 64.5t-84.5 236.5q0 284 376 284q215 0 267 -104h4v163q0 180 -192 180q-182 0 -182 -131h-236q9 171 84 228
t288 57q312 0 362 -130h4q52 130 321 130q245 0 332 -94.5t87 -361.5v-66zM1369 585l-1 38q0 173 -203 173q-211 0 -211 -182l-1 -29h416zM509 420q-199 0 -199 -126q0 -134 204 -134q215 0 215 135q0 125 -220 125z" />
    <glyph glyph-name="oe" unicode="&#x153;" horiz-adv-x="1692" 
d="M1614 444h-640q0 -192 35.5 -238.5t185.5 -46.5q181 0 187 124l2 23h230q0 -190 -90 -254t-357 -64q-249 0 -307 139h-4q-69 -138 -325 -138q-281 0 -367 94t-86 400q0 290 83.5 387t333.5 97q307 0 362 -138h3q64 138 327 138q252 0 339 -93.5t87 -362.5zM1388 584
q0 129 -38 170.5t-159 41.5q-133 0 -176.5 -42t-43.5 -170h417zM526 786q-140 0 -178 -49t-38 -230q0 -228 35 -282.5t180 -54.5t182.5 49t37.5 237q0 226 -34.5 278t-184.5 52z" />
    <glyph glyph-name="oslash" unicode="&#xf8;" horiz-adv-x="1043" 
d="M12 -8v143l82 66q-25 86 -25 278q0 307 84.5 397.5t372.5 90.5q292 0 378 -114l127 102v-143l-80 -64q23 -92 23 -256q0 -307 -85 -405t-352 -98q-298 0 -393 109zM332 241q37 -71 196 -71q129 0 171.5 54t42.5 218q0 5 -7 120q0 7 -1 21zM715 710q-34 76 -206 76
q-122 0 -165 -66t-43 -254q0 -26 9 -101z" />
    <glyph glyph-name="germandbls" unicode="&#xdf;" horiz-adv-x="1105" 
d="M116 0v1004q0 217 85 294.5t324 77.5q236 0 330 -62t94 -218q0 -193 -207 -232v-4q163 -24 219.5 -107.5t56.5 -300.5q0 -259 -83.5 -361.5t-294.5 -102.5q-103 0 -166 17l-17 5q-2 1 -10 2l9 175q9 -3 13 -4l16 -5q55 -19 123 -19q112 0 145 58t33 256q0 306 -227 306
l-45 -1h-24v173l28 -1q219 0 219 121q0 134 -198 134q-194 0 -194 -188v-1017h-229z" />
    <glyph glyph-name="dotlessi" unicode="&#x131;" horiz-adv-x="454" 
d="M342 956v-956h-229v956h229z" />
    <glyph glyph-name="fi" unicode="&#xf001;" horiz-adv-x="1066" 
d="M160 0v782h-135v174h135v102q0 182 78.5 251.5t284.5 69.5q35 0 97 -3v-179q-47 11 -80 11q-151 0 -151 -150v-102h238v-174h-238v-782h-229zM953 1365v-191h-229v191h229zM953 956v-956h-229v956h229z" />
    <glyph glyph-name="fl" unicode="&#xf002;" horiz-adv-x="1066" 
d="M160 0v782h-135v174h135v102q0 182 78.5 251.5t284.5 69.5q35 0 97 -3v-179q-47 11 -80 11q-151 0 -151 -150v-102h238v-174h-238v-782h-229zM953 1365v-1365h-229v1365h229z" />
    <glyph glyph-name="ccedilla" unicode="&#xe7;" horiz-adv-x="1005" 
d="M722 365h228v-33l-14 -145q-42 -198 -410 -198q-270 0 -359 97.5t-89 392.5q0 288 89 388t346 100q248 0 336 -72.5t88 -275.5h-227q0 167 -193 167q-137 0 -172 -53t-35 -260q0 -200 38.5 -251.5t188.5 -51.5q118 0 151.5 35.5t33.5 159.5zM561 -101l88 -106l-206 -140
l-63 70z" />
    <glyph glyph-name="one" unicode="1" horiz-adv-x="1286" 
d="M905 1365v-1365h-259v1139l-355 -352l-154 167l441 411h327z" />
    <glyph glyph-name="two" unicode="2" 
d="M1149 205v-205h-1032v278q0 216 77.5 287t368.5 123q241 43 285.5 78.5t44.5 183.5q0 142 -44.5 180t-211.5 38q-172 0 -217 -38.5t-45 -187.5v-58h-254v57q0 257 106 346t411 89q298 0 404.5 -90t106.5 -342q0 -238 -81 -318.5t-373 -134.5q-241 -44 -280 -74.5
t-39 -174.5v-37h773z" />
    <glyph glyph-name="three" unicode="3" 
d="M529 597v201l44 -1q218 0 265.5 26t47.5 147q0 135 -42.5 166.5t-224.5 31.5q-165 0 -208 -34.5t-43 -168.5v-40h-250v51q0 239 101 319.5t399 80.5q300 0 412 -76t112 -281q0 -283 -227 -318v-7q247 -27 247 -298q0 -241 -109 -324t-425 -83q-310 0 -421.5 83
t-111.5 314l1 76h253q3 -45 3 -54q0 -141 47.5 -176t238.5 -35q175 0 221.5 38t46.5 182q0 110 -42.5 145t-176.5 35h-113h-45z" />
    <glyph glyph-name="four" unicode="4" 
d="M1049 1365v-872h157v-200h-157v-293h-259v293h-737v291l596 781h400zM790 493v676h-8l-517 -676h525z" />
    <glyph glyph-name="five" unicode="5" 
d="M1109 1365v-205h-717l-3 -329h5q76 106 312 106q269 0 365.5 -99t96.5 -373q0 -281 -108 -378.5t-418 -97.5q-306 0 -412 83t-106 322h253q7 -132 50.5 -164.5t213.5 -32.5q189 0 230 43.5t41 244.5q0 157 -46 200.5t-213 43.5q-243 0 -267 -95h-234v731h957z" />
    <glyph glyph-name="six" unicode="6" horiz-adv-x="1286" 
d="M1154 982h-257l1 31q0 96 -43 125.5t-182 29.5q-202 0 -252 -38.5t-50 -193.5v-235h5q67 132 335 132q263 0 359 -83.5t96 -312.5q0 -265 -103 -357t-400 -92q-366 0 -460 108.5t-94 529.5q0 520 84.5 635t468.5 115q280 0 386 -77t106 -281v-36zM651 625
q-183 0 -234.5 -32.5t-51.5 -147.5q0 -167 46 -208t232 -41q178 0 222.5 36.5t44.5 183.5q0 139 -43.5 174t-215.5 35z" />
    <glyph glyph-name="seven" unicode="7" 
d="M1110 1365v-249l-550 -1116h-289l580 1147h-755v218h1014z" />
    <glyph glyph-name="eight" unicode="8" horiz-adv-x="1286" 
d="M932 705v-5q238 -41 238 -323q0 -231 -108 -309.5t-427 -78.5q-315 0 -423.5 78t-108.5 306q0 287 239 328v5q-131 32 -175.5 93.5t-44.5 211.5q0 217 103.5 291t405.5 74q313 0 417.5 -72.5t104.5 -290.5q0 -253 -221 -308zM632 1168q-172 0 -213 -29t-41 -151
q0 -129 44 -158t240 -29q156 0 195.5 33.5t39.5 166.5q0 111 -44.5 139t-220.5 28zM632 599q-184 0 -228.5 -32.5t-44.5 -168.5q0 -138 45.5 -169.5t246.5 -31.5q172 0 217.5 37t45.5 178q0 123 -48 155t-234 32z" />
    <glyph glyph-name="nine" unicode="9" horiz-adv-x="1286" 
d="M97 385h252q0 -130 42 -159.5t224 -29.5q197 0 239.5 41t42.5 232v199h-5q-65 -134 -314 -134q-280 0 -375.5 78.5t-95.5 308.5q0 269 100.5 362t392.5 93q379 0 468.5 -108t89.5 -566q0 -493 -85.5 -603.5t-466.5 -110.5q-294 0 -401.5 74t-107.5 276v47zM610 1168
q-161 0 -204 -37.5t-43 -177.5q0 -141 43.5 -176t218.5 -35q185 0 231 33.5t46 166.5q0 152 -48 189t-244 37z" />
    <glyph glyph-name="zero" unicode="0" 
d="M642 1376q376 0 464 -110.5t88 -582.5q0 -473 -88 -583.5t-464 -110.5t-464 111t-88 583t88 582.5t464 110.5zM622 1154q-179 0 -226.5 -51t-47.5 -242l-2 -179l2 -166q0 -207 48 -256t249 -49q209 0 251 69t42 411q0 345 -40 404t-276 59z" />
    <glyph glyph-name="sterling" unicode="&#xa3;" horiz-adv-x="1286" 
d="M887 713v-191h-370v-45l1 -72l-14 -97q-17 -49 -84 -91v-7l817 5v-215h-1109v210q130 16 130 224v88h-168v191h168v200v58l14 161q48 248 467 248q287 0 387 -77.5t100 -301.5l-1 -67h-259l-1 29q0 123 -38.5 159t-170.5 36q-150 0 -194.5 -41.5t-44.5 -179.5v-224h370z
" />
    <glyph glyph-name="dollar" unicode="$" horiz-adv-x="1286" 
d="M724 1162v-360l54 -2q271 -15 366 -94.5t95 -291.5q0 -228 -103.5 -320t-361.5 -92l-50 -1v-161h-164v161l-46 1q-257 0 -361.5 88t-104.5 306l1 49h243v-25q0 -133 42.5 -171.5t189.5 -38.5l36 -1v390q-287 0 -392 83t-105 311q0 221 105.5 302.5t391.5 81.5v140h164
v-140q273 0 373.5 -78t100.5 -290v-33h-235l-1 26q0 160 -200 160h-38zM560 1163l-35 -1q-216 0 -216 -171q0 -179 215 -179q2 0 36 -2v353zM724 209h35q234 0 234 201q0 110 -52 145t-217 35v-381z" />
    <glyph glyph-name="cent" unicode="&#xa2;" 
d="M711 -21h-150v164q-208 0 -287.5 110.5t-79.5 398.5q0 258 83.5 365t283.5 107v143h150v-141q346 0 346 -349h-222q0 148 -124 164v-609q132 27 132 148l2 43h221v-38q0 -342 -355 -342v-164zM561 939q-135 -28 -135 -283q0 -293 107 -316q10 -2 28 -7v606z" />
    <glyph glyph-name="florin" unicode="&#x192;" 
d="M801 850l-142 -810q-37 -209 -111.5 -265.5t-312.5 -56.5q-43 0 -100 3l32 179q62 -11 97 -11q125 0 152 151l143 810h-161l31 174h160l30 171q35 198 116 260t303 62l98 -2l-32 -179q-44 10 -88 10q-127 0 -154 -151l-30 -171h217l-31 -174h-217z" />
    <glyph glyph-name="yen" unicode="&#xa5;" 
d="M1016 978h180v-191h-288l-100 -166h388v-191h-435v-430h-259v430h-414v191h370l-96 166h-274v191h171l-218 387h294l295 -579h8l303 579h303z" />
    <glyph glyph-name="period" unicode="." horiz-adv-x="434" 
d="M332 246v-246h-229v246h229z" />
    <glyph glyph-name="colon" unicode=":" horiz-adv-x="434" 
d="M332 246v-246h-229v246h229zM332 956v-246h-229v246h229z" />
    <glyph glyph-name="periodcentered" unicode="&#x2219;" horiz-adv-x="856" 
d="M542 608v-246h-229v246h229z" />
    <glyph glyph-name="ellipsis" unicode="&#x2026;" horiz-adv-x="1299" 
d="M332 246v-246h-229v246h229zM765 246v-246h-229v246h229zM1197 246v-246h-229v246h229z" />
    <glyph glyph-name="comma" unicode="," horiz-adv-x="459" 
d="M340 246v-238q0 -239 -206 -239q-11 0 -42 2v107q110 0 110 92l-1 30h-90v246h229z" />
    <glyph glyph-name="semicolon" unicode=";" horiz-adv-x="430" 
d="M317 246v-238q0 -239 -206 -239q-11 0 -42 2v107q110 0 110 92l-1 30h-90v246h229zM312 956v-246h-229v246h229z" />
    <glyph glyph-name="quoteleft" unicode="&#x2018;" horiz-adv-x="422" 
d="M83 916v239q0 238 206 238q11 0 41 -2v-107q-109 0 -109 -92v-30h91v-246h-229z" />
    <glyph glyph-name="quotedblright" unicode="&#x201d;" horiz-adv-x="770" 
d="M340 1365v-239q0 -238 -206 -238q-11 0 -42 2v107q110 0 110 92l-1 30h-90v246h229zM687 1365v-239q0 -238 -206 -238q-11 0 -41 2v107q109 0 109 91l-1 31h-90v246h229z" />
    <glyph glyph-name="quotedblleft" unicode="&#x201c;" horiz-adv-x="770" 
d="M430 916v239q0 238 206 238q11 0 42 -2v-107q-110 0 -110 -92v-30h91v-246h-229zM83 916v239q0 238 206 238q11 0 41 -2v-107q-109 0 -109 -92v-30h91v-246h-229z" />
    <glyph glyph-name="quotedblbase" unicode="&#x201e;" horiz-adv-x="770" 
d="M340 246v-238q0 -239 -206 -239q-11 0 -42 2v107q110 0 110 92l-1 30h-90v246h229zM687 246v-238q0 -239 -206 -239q-11 0 -41 2v107q109 0 109 91l-1 31h-90v246h229z" />
    <glyph glyph-name="exclam" unicode="!" horiz-adv-x="563" 
d="M388 246v-246h-229v246h229zM399 1365l-19 -909h-220l-16 909h255z" />
    <glyph glyph-name="exclamdown" unicode="&#xa1;" horiz-adv-x="563" 
d="M178 710v246h229v-246h-229zM164 -410l19 910h220l16 -910h-255z" />
    <glyph glyph-name="question" unicode="?" horiz-adv-x="1083" 
d="M601 246v-246h-229v246h229zM604 438h-232q0 170 33 224.5t173 112.5l89 38q111 46 111 186q0 116 -41.5 149.5t-185.5 33.5q-135 0 -180 -35.5t-45 -141.5l1 -52h-227l1 50q0 221 95 297.5t371 76.5q244 0 333.5 -79t89.5 -293q0 -169 -44 -236.5t-195 -131.5
q-147 -62 -147 -167v-32z" />
    <glyph glyph-name="questiondown" unicode="&#xbf;" horiz-adv-x="1083" 
d="M485 710v246h229v-246h-229zM479 518h232q0 -170 -33.5 -224.5t-172.5 -113.5l-89 -37q-111 -46 -111 -186q0 -117 41.5 -150.5t185.5 -33.5q135 0 180 35.5t45 142.5l-1 52h227l-1 -50q0 -222 -95 -298.5t-370 -76.5q-244 0 -334 79t-90 292q0 171 44 238.5t195 131.5
q147 62 147 167v32z" />
    <glyph glyph-name="guillemotright" unicode="&#xbb;" horiz-adv-x="969" 
d="M637 990l240 -482l-260 -478l-146 93l206 385l-194 394zM259 996l240 -482l-260 -478l-146 93l206 385l-194 394z" />
    <glyph glyph-name="guillemotleft" unicode="&#xab;" horiz-adv-x="969" 
d="M332 990l155 -88l-195 -394l207 -385l-146 -93l-260 478zM710 996l155 -88l-195 -394l207 -385l-146 -93l-260 478z" />
    <glyph glyph-name="guilsinglright" unicode="&#x203a;" horiz-adv-x="590" 
d="M259 996l240 -482l-260 -478l-146 93l206 385l-194 394z" />
    <glyph glyph-name="guilsinglleft" unicode="&#x2039;" horiz-adv-x="590" 
d="M331 996l155 -88l-195 -394l207 -385l-146 -93l-260 478z" />
    <glyph glyph-name="slash" unicode="/" horiz-adv-x="1243" 
d="M1116 1365l-1052 -1775h-172l1052 1775h172z" />
    <glyph glyph-name="hyphen" unicode="-" horiz-adv-x="457" 
d="M0 637h457v-218h-457v218z" />
    <glyph glyph-name="hyphen" unicode="&#xad;" horiz-adv-x="457" 
d="M0 637h457v-218h-457v218z" />
    <glyph glyph-name="endash" unicode="&#x2013;" horiz-adv-x="1284" 
d="M213 607h858v-218h-858v218z" />
    <glyph glyph-name="emdash" unicode="&#x2014;" horiz-adv-x="1442" 
d="M5 607h1437v-218h-1442z" />
    <glyph glyph-name="parenleft" unicode="(" horiz-adv-x="634" 
d="M533 -200v-213q-308 0 -369.5 127t-61.5 764t61.5 763.5t369.5 126.5v-213q-125 0 -150 -64.5t-25 -388.5v-224v-225q0 -324 25 -388.5t150 -64.5z" />
    <glyph glyph-name="parenright" unicode=")" horiz-adv-x="634" 
d="M101 1155v213q308 0 369.5 -126.5t61.5 -763.5t-61.5 -764t-369.5 -127v213q171 0 171 185l4 268v225v224l-4 268q0 185 -171 185z" />
    <glyph glyph-name="bracketleft" unicode="[" horiz-adv-x="634" 
d="M111 1365h420v-191h-181v-1393h181v-191h-420v1775z" />
    <glyph glyph-name="bracketright" unicode="]" horiz-adv-x="627" 
d="M516 -410h-413v191h174v1393h-174v191h413v-1775z" />
    <glyph glyph-name="ampersand" unicode="&#x26;" horiz-adv-x="1421" 
d="M1017 658h222v-44l-2 -119q0 -86 -25 -183l196 -166l-123 -149l-164 138q-91 -147 -420 -147q-366 0 -479.5 84t-113.5 356q0 307 260 345q-112 98 -112 246q0 189 92.5 261t334.5 72q254 0 346.5 -73.5t92.5 -276.5l-1 -71h-230v40q0 123 -33.5 154.5t-163.5 31.5
q-192 0 -192 -143q0 -97 100 -182l415 -356q10 52 10 97q0 37 -10 85zM505 653q-151 -22 -151 -226q0 -158 51 -201t238 -43q161 0 208.5 14.5t101.5 81.5z" />
    <glyph glyph-name="section" unicode="&#xa7;" horiz-adv-x="1283" 
d="M1135 982h-241l-1 45q0 92 -49 119.5t-214 27.5q-144 0 -187 -25.5t-43 -110.5q0 -79 25 -105t126 -49l345 -82q178 -42 230.5 -98t52.5 -203q0 -219 -121 -275q124 -56 124 -254q0 -234 -106 -310t-432 -76q-317 0 -418.5 75.5t-101.5 310.5v35h235q0 -141 48 -177
t238 -36q182 0 231.5 29.5t49.5 137.5q0 123 -157 157l-447 98q-137 30 -179 88.5t-42 219.5q0 210 143 251q-100 69 -100 257q0 206 101 278t390 72q307 0 403.5 -67.5t96.5 -282.5v-50zM462 390l319 -74q56 -13 83 -13q103 0 103 168q0 111 -158 150l-280 69
q-64 16 -90 16q-106 0 -106 -165q0 -121 129 -151z" />
    <glyph glyph-name="dagger" unicode="&#x2020;" horiz-adv-x="1283" 
d="M754 1365v-385h340v-174h-340v-1216h-229v1216h-336v174h336v385h229z" />
    <glyph glyph-name="daggerdbl" unicode="&#x2021;" horiz-adv-x="1283" 
d="M754 1365v-385h340v-174h-340v-656h340v-174h-340v-386h-229v386h-336v174h336v656h-336v174h336v385h229z" />
    <glyph glyph-name="asterisk" unicode="*" horiz-adv-x="1281" 
d="M1008 1050l-254 -88l152 -216l-107 -81l-154 226l-167 -226l-108 81l158 217l-255 95l46 130l255 -92v269h133v-269l257 92z" />
    <glyph glyph-name="quotesingle" unicode="'" horiz-adv-x="398" 
d="M276 819h-154l-31 546h216z" />
    <glyph glyph-name="quotedbl" unicode="&#x22;" horiz-adv-x="758" 
d="M276 819h-154l-31 546h216zM637 819h-155l-30 546h216z" />
    <glyph glyph-name="at" unicode="@" horiz-adv-x="1429" 
d="M862 1007h164v-435l2 -35q4 -94 80 -94q102 0 102 320q0 282 -62.5 336t-387.5 54q-379 0 -460.5 -71t-81.5 -400q0 -373 76 -455.5t419 -82.5q334 0 369 77l118 -55q-71 -148 -518 -148q-370 0 -478.5 116t-108.5 510q0 414 115.5 524.5t547.5 110.5q374 0 474.5 -89.5
t100.5 -422.5q0 -261 -51 -355.5t-192 -94.5q-193 0 -206 118h-5q-38 -122 -225 -122q-147 0 -201.5 72t-54.5 266q0 216 51.5 288t204.5 72q160 0 203 -98h5v94zM707 885q-93 0 -122.5 -39.5t-29.5 -164.5q0 -158 27 -200t130 -42t128 42.5t25 218.5q0 185 -158 185z" />
    <glyph glyph-name="numbersign" unicode="#" 
d="M1155 552l-25 -160h-222l-62 -392h-175l62 392h-273l-62 -392h-173l62 392h-222l24 160h223l43 264h-222l25 160h222l62 389h172l-61 -389h273l61 389h175l-62 -389h221l-24 -160h-221l-44 -264h223zM801 816h-273l-43 -264h272z" />
    <glyph glyph-name="degree" unicode="&#xb0;" horiz-adv-x="770" 
d="M386 1375q122 0 208 -85t86 -206q0 -120 -86.5 -205.5t-207.5 -85.5q-122 0 -208.5 85.5t-86.5 205.5q0 121 86 206t209 85zM386 1249q-172 0 -172 -165t172 -165q171 0 171 165t-171 165z" />
    <glyph glyph-name="plus" unicode="+" horiz-adv-x="1286" 
d="M526 175v401h-391v213h391v401h229v-401h396v-213h-396v-401h-229z" />
    <glyph glyph-name="divide" unicode="&#xf7;" horiz-adv-x="1286" 
d="M643 1207q143 0 143 -143t-143 -143t-143 143t143 143zM643 445q143 0 143 -143t-143 -143t-143 143t143 143zM135 789h1016v-213h-1016v213z" />
    <glyph glyph-name="equal" unicode="=" horiz-adv-x="1286" 
d="M135 982h1016v-213h-1016v213zM135 588h1016v-205h-1016v205z" />
    <glyph glyph-name="trademark" unicode="&#x2122;" horiz-adv-x="1693" 
d="M392 1225v-638h-164v638h-229v140h629v-140h-236zM1630 1365v-778h-164v424q0 51 3 113l3 57l1 22l-7 -21l-18 -53q-24 -72 -38 -107l-176 -435h-146l-177 432q-16 41 -38 106l-18 53q-1 3 -8 22l2 -22q6 -116 6 -167v-424h-164v778h256l143 -359q15 -36 38 -106l18 -52
l14 -41l13 40q37 114 55 159l141 359h261z" />
    <glyph glyph-name="paragraph" unicode="&#xb6;" 
d="M1141 -410h-177v1584h-152v-1584h-177v854h-47l-54 1q-279 0 -373.5 92.5t-94.5 364.5q0 273 96 368t371 95h68h540v-1775z" />
    <glyph glyph-name="currency" unicode="&#xa4;" horiz-adv-x="1418" 
d="M98 235l199 201q-88 133 -88 279q0 131 92 280l-205 202l127 127l205 -205q151 91 287 91q124 0 271 -89l205 202l125 -126l-200 -200q93 -144 93 -283q0 -128 -88 -278l201 -200l-125 -127l-201 200q-134 -93 -279 -93q-139 0 -293 93l-200 -199zM709 1002
q-119 0 -203.5 -85t-84.5 -204t84.5 -204t203.5 -85t203.5 84.5t84.5 204.5t-84.5 204.5t-203.5 84.5z" />
    <glyph glyph-name="quotesinglbase" unicode="&#x201a;" horiz-adv-x="459" 
d="M340 246v-238q0 -239 -206 -239q-11 0 -42 2v107q110 0 110 92l-1 30h-90v246h229z" />
    <glyph glyph-name="quoteright" unicode="&#x2019;" horiz-adv-x="459" 
d="M347 1365v-239q0 -238 -206 -238q-11 0 -42 2v107q110 0 110 92l-1 30h-90v246h229z" />
    <glyph glyph-name="braceleft" unicode="{" horiz-adv-x="783" 
d="M336 477q123 -61 123 -245v-289q0 -176 174 -176h17v-177h-155q-248 0 -248 300v323q0 146 -114 175v179q114 28 114 175v323q0 300 248 300h155v-177h-22q-169 0 -169 -176v-289q0 -184 -123 -246z" />
    <glyph glyph-name="braceright" unicode="}" horiz-adv-x="784" 
d="M447 477q-123 62 -123 246v289q0 176 -165 176h-25v177h154q248 0 248 -300v-323q0 -147 115 -175v-179q-115 -29 -115 -175v-323q0 -300 -248 -300h-155v177q117 0 154 34t37 142v289q0 184 123 245z" />
    <glyph glyph-name="ordfeminine" unicode="&#xaa;" horiz-adv-x="857" 
d="M326 1200h-154q0 105 48.5 139.5t196.5 34.5q270 0 270 -198v-357h-151l5 57q-55 -63 -177 -63q-215 0 -215 172q0 174 220 174q121 0 168 -47v66q0 100 -113 100q-98 0 -98 -78zM414 1063q-108 0 -108 -72q0 -82 116 -82t116 76q0 78 -124 78zM120 729h597v-96h-599z
" />
    <glyph glyph-name="ordmasculine" unicode="&#xba;" horiz-adv-x="857" 
d="M429 1374q170 0 223.5 -51.5t53.5 -213.5q0 -181 -52.5 -238.5t-217.5 -57.5q-181 0 -233.5 54t-52.5 242q0 162 54 213.5t225 51.5zM429 1258q-81 0 -101.5 -27.5t-20.5 -136.5t20.5 -137t101.5 -28q78 0 99 29t21 139q0 107 -20 134t-100 27zM131 729h597v-96h-599z
" />
    <glyph glyph-name="plusminus" unicode="&#xb1;" 
d="M132 961h392v331h239v-331h391v-218h-391v-330h-239v330h-392v218zM132 295h1022v-218h-1022v218z" />
    <glyph glyph-name="fraction" unicode="&#x2215;" horiz-adv-x="337" 
d="M677 1365l-862 -1365h-155l860 1365h157z" />
    <glyph glyph-name="percent" unicode="%" horiz-adv-x="1633" 
d="M343 1369q194 0 242 -55t48 -276q0 -237 -48 -298t-234 -61q-194 0 -249 62.5t-55 281.5q0 223 52.5 284.5t243.5 61.5zM339 1253q-112 0 -133.5 -26.5t-21.5 -163.5q0 -210 19 -239t157 -29q134 0 134 137l2 101v90q0 86 -26.5 108t-130.5 22zM1313 1365l-862 -1365
h-131l859 1365h134zM1292 686q194 0 242 -55t48 -276q0 -237 -48 -298t-234 -61q-194 0 -249 62.5t-55 280.5q0 223 53 285t243 62zM1288 570q-112 0 -133.5 -26.5t-21.5 -162.5q0 -211 19 -240t157 -29q134 0 134 137l2 101v90q0 86 -26.5 108t-130.5 22z" />
    <glyph glyph-name="perthousand" unicode="&#x2030;" horiz-adv-x="2361" 
d="M343 1369q194 0 242 -55t48 -276q0 -237 -48 -298t-234 -61q-194 0 -249 62.5t-55 281.5q0 223 52.5 284.5t243.5 61.5zM339 1253q-112 0 -133.5 -26.5t-21.5 -163.5q0 -210 19 -239t157 -29q134 0 134 137l2 101v90q0 86 -26.5 108t-130.5 22zM1313 1365l-862 -1365
h-131l859 1365h134zM1292 686q194 0 242 -55t48 -276q0 -237 -48 -298t-234 -61q-194 0 -249 62.5t-55 280.5q0 223 53 285t243 62zM1288 570q-112 0 -133.5 -26.5t-21.5 -162.5q0 -211 19 -240t157 -29q134 0 134 137l2 101v90q0 86 -26.5 108t-130.5 22zM2020 686
q194 0 242 -55t48 -276q0 -237 -48 -298t-234 -61q-194 0 -249 62.5t-55 280.5q0 223 53 285t243 62zM2016 570q-112 0 -133.5 -26.5t-21.5 -162.5q0 -211 19 -240t157 -29q134 0 134 137l2 101v90q0 86 -26.5 108t-130.5 22z" />
    <glyph glyph-name="backslash" unicode="\" horiz-adv-x="1243" 
d="M-108 1365h172l1052 -1775h-172z" />
    <glyph glyph-name="dieresis" unicode="&#xa8;" horiz-adv-x="1024" 
d="M412 1281v-160h-177v160h177zM789 1281v-160h-177v160h177z" />
    <glyph glyph-name="dotaccent" unicode="&#x2d9;" horiz-adv-x="1020" 
d="M598 1281v-160h-177v160h177z" />
    <glyph glyph-name="ring" unicode="&#x2da;" horiz-adv-x="1024" 
d="M512 1383q168 0 168 -168t-168 -168t-168 168t168 168zM512 1301q-86 0 -86 -86t86 -86t86 86t-86 86z" />
    <glyph glyph-name="acute" unicode="&#xb4;" horiz-adv-x="1024" 
d="M703 1368l83 -154l-358 -154l-50 95z" />
    <glyph glyph-name="grave" unicode="`" horiz-adv-x="1024" 
d="M322 1368l325 -213l-50 -95l-358 154z" />
    <glyph glyph-name="circumflex" unicode="&#x2c6;" horiz-adv-x="1024" 
d="M510 1351l301 -203l-51 -89l-250 126l-245 -126l-52 89z" />
    <glyph glyph-name="caron" unicode="&#x2c7;" horiz-adv-x="1024" 
d="M508 1063l-298 197l52 91l246 -119l258 119l48 -91z" />
    <glyph glyph-name="breve" unicode="&#x2d8;" horiz-adv-x="1024" 
d="M215 1337h137q31 -147 160 -147t160 147h137q-47 -273 -297 -273q-255 0 -297 273z" />
    <glyph glyph-name="tilde" unicode="&#x2dc;" horiz-adv-x="1024" 
d="M736 1291l117 -64q-84 -154 -199 -154q-63 0 -150 51t-124 51q-50 0 -92 -78l-117 67q94 151 205 151q55 0 143 -49q97 -53 129 -53q47 0 88 78z" />
    <glyph glyph-name="hungarumlaut" unicode="&#x2dd;" horiz-adv-x="1024" 
d="M495 1373l104 -108l-269 -208l-62 69zM803 1373l104 -108l-269 -208l-63 69z" />
    <glyph glyph-name="cedilla" unicode="&#xb8;" horiz-adv-x="1024" 
d="M559 -101l88 -106l-206 -140l-64 70z" />
    <glyph glyph-name="ogonek" unicode="&#x2db;" horiz-adv-x="1024" 
d="M635 0h138q-149 -89 -149 -161t96 -72q28 0 72 18v-116q-50 -18 -98 -18q-193 0 -193 163q0 110 134 186z" />
    <glyph glyph-name="macron" unicode="&#x2c9;" horiz-adv-x="1023" 
d="M242 1268h539v-140h-539v140z" />
    <glyph glyph-name="copyright" unicode="&#xa9;" horiz-adv-x="1527" 
d="M940 587h164v-33q0 -164 -62 -212t-272 -48q-238 0 -293.5 76t-55.5 401q0 191 75.5 252.5t309.5 61.5q173 0 232 -50.5t59 -199.5v-24h-164v26q0 108 -153 108q-133 0 -159 -32t-26 -195q0 -207 24 -245.5t154 -38.5q168 0 168 112zM765 1379q286 0 489.5 -204
t203.5 -492t-203.5 -492.5t-489.5 -204.5q-289 0 -493 204t-204 493q0 288 204 492t493 204zM764 1283q-244 0 -417 -175.5t-173 -424.5t173 -425t417 -176t416 176t172 425q0 248 -172 424t-416 176z" />
    <glyph glyph-name="registered" unicode="&#xae;" horiz-adv-x="1527" 
d="M433 300v779h397q263 0 263 -242q0 -176 -120 -211q111 -27 111 -153v-173h-164v144q0 110 -114 110h-209v-254h-164zM597 694h209q130 0 130 124q0 121 -120 121h-219v-245zM765 1379q286 0 489.5 -204t203.5 -492t-203.5 -492.5t-489.5 -204.5q-289 0 -493 204
t-204 493q0 288 204 492t493 204zM764 1283q-244 0 -417 -175.5t-173 -424.5t173 -425t417 -176t416 176t172 425q0 248 -172 424t-416 176z" />
    <glyph glyph-name="bullet" unicode="&#x2022;" horiz-adv-x="568" 
d="M286 978q117 0 199.5 -83.5t82.5 -200.5t-83 -200.5t-199 -83.5q-118 0 -202 83.5t-84 200.5q0 118 83.5 201t202.5 83z" />
    <glyph glyph-name="lozenge" unicode="&#x25ca;" horiz-adv-x="1063" 
d="M532 1419l531 -736l-531 -736l-532 736zM532 1066l-279 -383l279 -382l278 382z" />
    <glyph glyph-name="Delta" unicode="&#x2206;" horiz-adv-x="1284" 
d="M0 0l514 1365h248l522 -1365h-1284zM327 218h625l-313 870z" />
    <glyph glyph-name="notequal" unicode="&#x2260;" horiz-adv-x="888" 
d="M475 976l111 223l147 -72l-75 -151h230v-205h-323l-77 -154h400v-205h-493l-104 -208l-147 72l67 136h-211v205h304l77 154h-381v205h475z" />
    <glyph glyph-name="radical" unicode="&#x221a;" horiz-adv-x="1365" 
d="M1365 1701v-213h-377l-371 -1488h-298l-133 568h-186v218h374l49 -211q18 -74 35 -267l3 -27h18q33 293 117 634l194 786h575z" />
    <glyph glyph-name="integral" unicode="&#x222b;" horiz-adv-x="765" 
d="M0 -491l43 204q65 -16 108 -16q79 0 98 42.5t19 217.5v1066q0 312 63.5 412.5t261.5 100.5q68 0 172 -22l-43 -203q-65 17 -108 17q-77 0 -97 -42t-20 -208v-126v-951q0 -312 -64.5 -412t-265.5 -100q-90 0 -167 20z" />
    <glyph glyph-name="approxequal" unicode="&#x2248;" horiz-adv-x="993" 
d="M128 712l-128 84q115 269 301 269q70 0 218 -58q134 -53 186 -53q88 0 156 115l132 -77q-125 -260 -318 -260q-60 0 -195 52l-101 39q-52 20 -98 20q-85 0 -153 -131zM128 320l-128 83q115 270 302 270q70 0 217 -58q134 -53 186 -53q87 0 156 114l132 -76
q-125 -260 -313 -260q-63 0 -200 52l-101 39q-52 20 -98 20q-85 0 -153 -131z" />
    <glyph glyph-name="less" unicode="&#x3c;" horiz-adv-x="887" 
d="M887 1232v-227l-645 -311l645 -311v-226l-887 441v193z" />
    <glyph glyph-name="greater" unicode="&#x3e;" horiz-adv-x="887" 
d="M0 156v227l645 311l-645 312v225l887 -441v-193z" />
    <glyph glyph-name="lessequal" unicode="&#x2264;" horiz-adv-x="887" 
d="M887 1331v-216l-645 -295l645 -293v-217l-887 411v193zM887 251v-213h-887v213h887z" />
    <glyph glyph-name="greaterequal" unicode="&#x2265;" horiz-adv-x="887" 
d="M0 310v217l645 294l-645 294v216l887 -418v-193zM0 38v213h887v-213h-887z" />
    <glyph glyph-name="logicalnot" unicode="&#xac;" horiz-adv-x="887" 
d="M658 0v333h-658v213h887v-546h-229z" />
    <glyph glyph-name="infinity" unicode="&#x221e;" horiz-adv-x="1295" 
d="M653 547q-146 -178 -326 -178q-327 0 -327 331q0 141 92.5 232.5t234.5 91.5q177 0 316 -177q136 177 327 177q325 0 325 -328q0 -144 -92 -235.5t-238 -91.5q-179 0 -312 178zM761 697q92 -133 185 -133q137 0 137 132q0 133 -138 133q-93 0 -184 -132zM534 696
q-90 133 -185 133q-137 0 -137 -133q0 -132 138 -132q93 0 184 132z" />
    <glyph glyph-name="product" unicode="&#x220f;" horiz-adv-x="1320" 
d="M0 1536h1320v-213h-169v-1617h169v-218h-563v218h165v1617h-525v-1617h164v-218h-561v218h168v1617h-168v213z" />
    <glyph glyph-name="summation" unicode="&#x2211;" horiz-adv-x="1227" 
d="M1208 1536v-498h-205l-24 280h-721l512 -768l-512 -844h741l13 280h215v-498h-1227v241l502 821l-502 746v240h1208z" />
    <glyph glyph-name="partialdiff" unicode="&#x2202;" horiz-adv-x="939" 
d="M101 1165l29 199q809 -98 809 -827q0 -253 -128.5 -404.5t-342.5 -151.5q-194 0 -331 136.5t-137 329.5q0 185 122.5 312.5t301.5 127.5q155 0 266 -111q-154 339 -589 389zM472 716q-102 0 -171 -80.5t-69 -198.5q0 -120 69 -202.5t169 -82.5t168.5 83t68.5 206
q0 275 -235 275z" />
    <glyph glyph-name="asciicircum" unicode="^" horiz-adv-x="978" 
d="M240 705h-240l339 667h300l339 -667h-241l-248 485z" />
    <glyph glyph-name="bar" unicode="|" horiz-adv-x="229" 
d="M0 1365h229v-1706h-229v1706z" />
    <glyph glyph-name="underscore" unicode="_" horiz-adv-x="1024" 
d="M0 -108h1024v-205h-1024v205z" />
    <glyph glyph-name="pi" unicode="&#x3c0;" horiz-adv-x="1166" 
d="M156 0v777h-156v205h1166v-205h-153v-777h-229v777h-399v-777h-229z" />
    <glyph glyph-name="asciitilde" unicode="~" horiz-adv-x="993" 
d="M128 1161l-128 84l15 32q109 237 286 237q71 0 218 -57q134 -53 186 -53q88 0 156 114l132 -77q-125 -259 -313 -259q-64 0 -200 52l-101 38q-52 20 -98 20q-84 0 -153 -131z" />
    <glyph glyph-name="mu" unicode="&#xb5;" horiz-adv-x="893" 
d="M0 -351v1334h229v-531q0 -303 220 -303q215 0 215 313v521h229v-983h-229v134q-76 -156 -218 -156q-136 0 -217 133v-462h-229z" />
    <glyph glyph-name="Omega" unicode="&#x2126;" horiz-adv-x="1248" 
d="M0 0v205h307q-307 190 -307 533q0 288 177 474t452 186q267 0 443 -184.5t176 -464.5q0 -354 -302 -544h302v-205h-539v183q307 175 307 537q0 202 -111 336t-278 134q-171 0 -283 -133.5t-112 -337.5q0 -363 316 -536v-183h-548z" />
    <glyph glyph-name="Adieresis" unicode="&#xc4;" horiz-adv-x="1300" 
d="M946 262h-589l-85 -262h-274l454 1365h389l461 -1365h-269zM886 453l-236 711l-232 -711h468zM551 1689v-160h-177v160h177zM926 1689v-160h-177v160h177z" />
    <glyph glyph-name="Aacute" unicode="&#xc1;" horiz-adv-x="1300" 
d="M946 262h-589l-85 -262h-274l454 1365h389l461 -1365h-269zM886 453l-236 711l-232 -711h468zM874 1730l46 -166l-384 -65l-26 103z" />
    <glyph glyph-name="Agrave" unicode="&#xc0;" horiz-adv-x="1300" 
d="M946 262h-589l-85 -262h-274l454 1365h389l461 -1365h-269zM886 453l-236 711l-232 -711h468zM422 1730l364 -128l-26 -103l-384 65z" />
    <glyph glyph-name="Acircumflex" unicode="&#xc2;" horiz-adv-x="1300" 
d="M946 262h-589l-85 -262h-274l454 1365h389l461 -1365h-269zM886 453l-236 711l-232 -711h468zM651 1753l324 -190l-45 -91l-279 114l-280 -114l-44 91z" />
    <glyph glyph-name="Atilde" unicode="&#xc3;" horiz-adv-x="1300" 
d="M946 262h-589l-85 -262h-274l454 1365h389l461 -1365h-269zM886 453l-236 711l-232 -711h468zM889 1707l114 -64q-90 -158 -211 -158q-61 0 -154 52q-90 50 -130 50q-52 0 -94 -78l-117 63q93 155 207 155q55 0 149 -50q98 -52 134 -52q55 0 102 82z" />
    <glyph glyph-name="Aring" unicode="&#xc5;" horiz-adv-x="1300" 
d="M946 262h-589l-85 -262h-274l454 1365h389l461 -1365h-269zM886 453l-236 711l-232 -711h468zM650 1789q168 0 168 -168q0 -167 -168 -167q-167 0 -167 167q0 168 167 168zM650 1707q-85 0 -85 -86q0 -85 85 -85q86 0 86 85q0 86 -86 86z" />
    <glyph glyph-name="Edieresis" unicode="&#xcb;" horiz-adv-x="1106" 
d="M352 1147v-352h640v-191h-640v-386h681v-218h-940v1365h934v-218h-675zM453 1689v-160h-177v160h177zM829 1689v-160h-177v160h177z" />
    <glyph glyph-name="Eacute" unicode="&#xc9;" horiz-adv-x="1106" 
d="M352 1147v-352h640v-191h-640v-386h681v-218h-940v1365h934v-218h-675zM776 1730l47 -166l-384 -65l-26 103z" />
    <glyph glyph-name="Egrave" unicode="&#xc8;" horiz-adv-x="1106" 
d="M352 1147v-352h640v-191h-640v-386h681v-218h-940v1365h934v-218h-675zM325 1730l363 -128l-26 -103l-384 65z" />
    <glyph glyph-name="Ecircumflex" unicode="&#xca;" horiz-adv-x="1106" 
d="M352 1147v-352h640v-191h-640v-386h681v-218h-940v1365h934v-218h-675zM553 1753l323 -190l-44 -91l-279 114l-281 -114l-43 91z" />
    <glyph glyph-name="Idieresis" unicode="&#xcf;" horiz-adv-x="503" 
d="M379 1365v-1365h-259v1365h259zM217 1689v-160h-177v160h177zM463 1689v-160h-177v160h177z" />
    <glyph glyph-name="Iacute" unicode="&#xcd;" horiz-adv-x="504" 
d="M379 1365v-1365h-259v1365h259zM476 1730l46 -166l-384 -65l-26 103z" />
    <glyph glyph-name="Igrave" unicode="&#xcc;" horiz-adv-x="504" 
d="M379 1365v-1365h-259v1365h259zM24 1730l363 -128l-26 -103l-384 65z" />
    <glyph glyph-name="Icircumflex" unicode="&#xce;" horiz-adv-x="504" 
d="M379 1365v-1365h-259v1365h259zM252 1753l323 -190l-44 -91l-279 114l-281 -114l-43 91z" />
    <glyph glyph-name="Ntilde" unicode="&#xd1;" horiz-adv-x="1507" 
d="M1387 1365v-1365h-439l-390 749q-29 56 -91 196l-44 98l-43 98h-10l4 -90l3 -89l2 -179v-783h-259v1365h439l355 -692l109 -223l52 -111l52 -112h9l-3 88l-3 88l-2 176v786h259zM992 1707l114 -64q-90 -158 -212 -158q-61 0 -154 52q-90 50 -129 50q-52 0 -95 -78
l-116 63q93 155 207 155q55 0 148 -50q99 -52 135 -52q55 0 102 82z" />
    <glyph glyph-name="Odieresis" unicode="&#xd6;" horiz-adv-x="1328" 
d="M687 1377q372 0 479 -123.5t107 -552.5q0 -469 -107.5 -591t-520.5 -122q-372 0 -481 120.5t-109 530.5q0 488 107 613t525 125zM667 1155q-261 0 -305 -67t-44 -464q0 -294 51.5 -354t303.5 -60q241 0 289 67.5t48 409.5q0 343 -45.5 405.5t-297.5 62.5zM565 1689v-160
h-177v160h177zM941 1689v-160h-177v160h177z" />
    <glyph glyph-name="Oacute" unicode="&#xd3;" horiz-adv-x="1328" 
d="M687 1377q372 0 479 -123.5t107 -552.5q0 -469 -107.5 -591t-520.5 -122q-372 0 -481 120.5t-109 530.5q0 488 107 613t525 125zM667 1155q-261 0 -305 -67t-44 -464q0 -294 51.5 -354t303.5 -60q241 0 289 67.5t48 409.5q0 343 -45.5 405.5t-297.5 62.5zM887 1730
l47 -166l-384 -65l-26 103z" />
    <glyph glyph-name="Ograve" unicode="&#xd2;" horiz-adv-x="1328" 
d="M687 1377q372 0 479 -123.5t107 -552.5q0 -469 -107.5 -591t-520.5 -122q-372 0 -481 120.5t-109 530.5q0 488 107 613t525 125zM667 1155q-261 0 -305 -67t-44 -464q0 -294 51.5 -354t303.5 -60q241 0 289 67.5t48 409.5q0 343 -45.5 405.5t-297.5 62.5zM436 1730
l364 -128l-26 -103l-384 65z" />
    <glyph glyph-name="Ocircumflex" unicode="&#xd4;" horiz-adv-x="1328" 
d="M687 1377q372 0 479 -123.5t107 -552.5q0 -469 -107.5 -591t-520.5 -122q-372 0 -481 120.5t-109 530.5q0 488 107 613t525 125zM667 1155q-261 0 -305 -67t-44 -464q0 -294 51.5 -354t303.5 -60q241 0 289 67.5t48 409.5q0 343 -45.5 405.5t-297.5 62.5zM663 1753
l324 -190l-44 -91l-280 114l-280 -114l-43 91z" />
    <glyph glyph-name="Otilde" unicode="&#xd5;" horiz-adv-x="1328" 
d="M687 1377q372 0 479 -123.5t107 -552.5q0 -469 -107.5 -591t-520.5 -122q-372 0 -481 120.5t-109 530.5q0 488 107 613t525 125zM667 1155q-261 0 -305 -67t-44 -464q0 -294 51.5 -354t303.5 -60q241 0 289 67.5t48 409.5q0 343 -45.5 405.5t-297.5 62.5zM903 1707
l114 -64q-90 -158 -211 -158q-61 0 -154 52q-90 50 -130 50q-52 0 -94 -78l-117 63q93 155 208 155q54 0 148 -50q99 -52 134 -52q56 0 102 82z" />
    <glyph glyph-name="Udieresis" unicode="&#xdc;" horiz-adv-x="1376" 
d="M998 1365h259v-908q0 -285 -109.5 -377t-447.5 -92q-357 0 -468 87t-111 367v923h259v-923q0 -151 54 -191.5t254 -40.5q205 0 257.5 41t52.5 201v913zM589 1689v-160h-177v160h177zM965 1689v-160h-177v160h177z" />
    <glyph glyph-name="Uacute" unicode="&#xda;" horiz-adv-x="1376" 
d="M998 1365h259v-908q0 -285 -109.5 -377t-447.5 -92q-357 0 -468 87t-111 367v923h259v-923q0 -151 54 -191.5t254 -40.5q205 0 257.5 41t52.5 201v913zM911 1730l47 -166l-384 -65l-26 103z" />
    <glyph glyph-name="Ugrave" unicode="&#xd9;" horiz-adv-x="1376" 
d="M998 1365h259v-908q0 -285 -109.5 -377t-447.5 -92q-357 0 -468 87t-111 367v923h259v-923q0 -151 54 -191.5t254 -40.5q205 0 257.5 41t52.5 201v913zM461 1730l363 -128l-26 -103l-384 65z" />
    <glyph glyph-name="Ucircumflex" unicode="&#xdb;" horiz-adv-x="1376" 
d="M998 1365h259v-908q0 -285 -109.5 -377t-447.5 -92q-357 0 -468 87t-111 367v923h259v-923q0 -151 54 -191.5t254 -40.5q205 0 257.5 41t52.5 201v913zM687 1753l324 -190l-44 -91l-280 114l-280 -114l-43 91z" />
    <glyph glyph-name="Ydieresis" unicode="&#x178;" horiz-adv-x="1245" 
d="M1251 1365l-506 -844v-521h-259v521l-492 844h300l206 -360q17 -30 58 -111l29 -55l28 -55h7l29 55l29 55q37 74 59 111l208 360h304zM525 1689v-160h-177v160h177zM901 1689v-160h-177v160h177z" />
    <glyph glyph-name="adieresis" unicode="&#xe4;" horiz-adv-x="1069" 
d="M351 679h-234q0 172 80 230t317 58q258 0 349 -71t91 -271v-625h-229l11 131l-6 1q-66 -143 -305 -143q-347 0 -347 295q0 298 355 298q237 0 288 -109h4v155q0 112 -39 148.5t-160 36.5q-175 0 -175 -134zM504 428q-194 0 -194 -134q0 -93 40 -122t168 -29
q209 0 209 141q0 144 -223 144zM434 1281v-160h-177v160h177zM811 1281v-160h-177v160h177z" />
    <glyph glyph-name="aacute" unicode="&#xe1;" horiz-adv-x="1069" 
d="M351 679h-234q0 172 80 230t317 58q258 0 349 -71t91 -271v-625h-229l11 131l-6 1q-66 -143 -305 -143q-347 0 -347 295q0 298 355 298q237 0 288 -109h4v155q0 112 -39 148.5t-160 36.5q-175 0 -175 -134zM504 428q-194 0 -194 -134q0 -93 40 -122t168 -29
q209 0 209 141q0 144 -223 144zM725 1368l83 -154l-358 -154l-50 95z" />
    <glyph glyph-name="agrave" unicode="&#xe0;" horiz-adv-x="1069" 
d="M351 679h-234q0 172 80 230t317 58q258 0 349 -71t91 -271v-625h-229l11 131l-6 1q-66 -143 -305 -143q-347 0 -347 295q0 298 355 298q237 0 288 -109h4v155q0 112 -39 148.5t-160 36.5q-175 0 -175 -134zM504 428q-194 0 -194 -134q0 -93 40 -122t168 -29
q209 0 209 141q0 144 -223 144zM344 1368l325 -213l-50 -95l-358 154z" />
    <glyph glyph-name="acircumflex" unicode="&#xe2;" horiz-adv-x="1069" 
d="M351 679h-234q0 172 80 230t317 58q258 0 349 -71t91 -271v-625h-229l11 131l-6 1q-66 -143 -305 -143q-347 0 -347 295q0 298 355 298q237 0 288 -109h4v155q0 112 -39 148.5t-160 36.5q-175 0 -175 -134zM504 428q-194 0 -194 -134q0 -93 40 -122t168 -29
q209 0 209 141q0 144 -223 144zM532 1351l301 -203l-51 -89l-250 126l-245 -126l-52 89z" />
    <glyph glyph-name="atilde" unicode="&#xe3;" horiz-adv-x="1069" 
d="M351 679h-234q0 172 80 230t317 58q258 0 349 -71t91 -271v-625h-229l11 131l-6 1q-66 -143 -305 -143q-347 0 -347 295q0 298 355 298q237 0 288 -109h4v155q0 112 -39 148.5t-160 36.5q-175 0 -175 -134zM504 428q-194 0 -194 -134q0 -93 40 -122t168 -29
q209 0 209 141q0 144 -223 144zM758 1291l117 -64q-84 -154 -199 -154q-63 0 -150 51t-124 51q-50 0 -92 -78l-117 67q94 151 205 151q55 0 143 -49q97 -53 129 -53q47 0 88 78z" />
    <glyph glyph-name="aring" unicode="&#xe5;" horiz-adv-x="1069" 
d="M351 679h-234q0 172 80 230t317 58q258 0 349 -71t91 -271v-625h-229l11 131l-6 1q-66 -143 -305 -143q-347 0 -347 295q0 298 355 298q237 0 288 -109h4v155q0 112 -39 148.5t-160 36.5q-175 0 -175 -134zM504 428q-194 0 -194 -134q0 -93 40 -122t168 -29
q209 0 209 141q0 144 -223 144zM533 1383q168 0 168 -168t-168 -168t-168 168t168 168zM533 1301q-86 0 -86 -86t86 -86t86 86t-86 86z" />
    <glyph glyph-name="edieresis" unicode="&#xeb;" horiz-adv-x="1037" 
d="M729 306h230v-37q0 -280 -420 -280q-285 0 -373 97t-88 411q0 279 92 375t359 96q256 0 343 -93.5t87 -367.5v-70h-647q-2 -32 -2 -42q0 -141 43.5 -188t173.5 -47q126 0 164 27.5t38 118.5zM731 577l-1 38q0 114 -39.5 148t-171.5 34q-128 0 -166.5 -41t-38.5 -179h417z
M419 1281v-160h-177v160h177zM796 1281v-160h-177v160h177z" />
    <glyph glyph-name="eacute" unicode="&#xe9;" horiz-adv-x="1037" 
d="M729 306h230v-37q0 -280 -420 -280q-285 0 -373 97t-88 411q0 279 92 375t359 96q256 0 343 -93.5t87 -367.5v-70h-647q-2 -32 -2 -42q0 -141 43.5 -188t173.5 -47q126 0 164 27.5t38 118.5zM731 577l-1 38q0 114 -39.5 148t-171.5 34q-128 0 -166.5 -41t-38.5 -179h417z
M710 1368l83 -154l-358 -154l-50 95z" />
    <glyph glyph-name="egrave" unicode="&#xe8;" horiz-adv-x="1037" 
d="M729 306h230v-37q0 -280 -420 -280q-285 0 -373 97t-88 411q0 279 92 375t359 96q256 0 343 -93.5t87 -367.5v-70h-647q-2 -32 -2 -42q0 -141 43.5 -188t173.5 -47q126 0 164 27.5t38 118.5zM731 577l-1 38q0 114 -39.5 148t-171.5 34q-128 0 -166.5 -41t-38.5 -179h417z
M329 1368l325 -213l-50 -95l-358 154z" />
    <glyph glyph-name="ecircumflex" unicode="&#xea;" horiz-adv-x="1037" 
d="M729 306h230v-37q0 -280 -420 -280q-285 0 -373 97t-88 411q0 279 92 375t359 96q256 0 343 -93.5t87 -367.5v-70h-647q-2 -32 -2 -42q0 -141 43.5 -188t173.5 -47q126 0 164 27.5t38 118.5zM731 577l-1 38q0 114 -39.5 148t-171.5 34q-128 0 -166.5 -41t-38.5 -179h417z
M517 1351l301 -203l-51 -89l-250 126l-245 -126l-52 89z" />
    <glyph glyph-name="idieresis" unicode="&#xef;" horiz-adv-x="457" 
d="M342 956v-956h-229v956h229zM169 1281v-160h-177v160h177zM464 1281v-160h-177v160h177z" />
    <glyph glyph-name="iacute" unicode="&#xed;" horiz-adv-x="457" 
d="M342 956v-956h-229v956h229zM420 1368l83 -154l-358 -154l-50 95z" />
    <glyph glyph-name="igrave" unicode="&#xec;" horiz-adv-x="457" 
d="M342 956v-956h-229v956h229zM39 1368l325 -213l-50 -95l-358 154z" />
    <glyph glyph-name="icircumflex" unicode="&#xee;" horiz-adv-x="457" 
d="M227 1351l301 -203l-51 -89l-250 126l-245 -126l-52 89zM342 956v-956h-229v956h229z" />
    <glyph glyph-name="ntilde" unicode="&#xf1;" horiz-adv-x="1086" 
d="M113 956h227l-9 -161l5 -1q67 173 300 173q339 0 339 -316v-651h-229v576v36l-5 67q-16 107 -168 107q-231 0 -231 -219v-567h-229v956zM768 1291l117 -64q-84 -154 -199 -154q-63 0 -150 51t-124 51q-50 0 -92 -78l-117 67q94 151 205 151q55 0 143 -49q97 -53 129 -53
q47 0 88 78z" />
    <glyph glyph-name="odieresis" unicode="&#xf6;" horiz-adv-x="1060" 
d="M533 967q277 0 363 -88.5t86 -373.5q0 -318 -84 -417t-354 -99q-293 0 -379.5 92t-86.5 405q0 301 85 391t370 90zM531 786q-143 0 -182 -51.5t-39 -240.5q0 -216 37 -270t185 -54q143 0 180.5 57t37.5 274q0 183 -39 234t-180 51zM430 1281v-160h-177v160h177zM807 1281
v-160h-177v160h177z" />
    <glyph glyph-name="oacute" unicode="&#xf3;" horiz-adv-x="1060" 
d="M533 967q277 0 363 -88.5t86 -373.5q0 -318 -84 -417t-354 -99q-293 0 -379.5 92t-86.5 405q0 301 85 391t370 90zM531 786q-143 0 -182 -51.5t-39 -240.5q0 -216 37 -270t185 -54q143 0 180.5 57t37.5 274q0 183 -39 234t-180 51zM721 1368l83 -154l-358 -154l-50 95z
" />
    <glyph glyph-name="ograve" unicode="&#xf2;" horiz-adv-x="1060" 
d="M533 967q277 0 363 -88.5t86 -373.5q0 -318 -84 -417t-354 -99q-293 0 -379.5 92t-86.5 405q0 301 85 391t370 90zM531 786q-143 0 -182 -51.5t-39 -240.5q0 -216 37 -270t185 -54q143 0 180.5 57t37.5 274q0 183 -39 234t-180 51zM340 1368l325 -213l-50 -95l-358 154z
" />
    <glyph glyph-name="ocircumflex" unicode="&#xf4;" horiz-adv-x="1060" 
d="M533 967q277 0 363 -88.5t86 -373.5q0 -318 -84 -417t-354 -99q-293 0 -379.5 92t-86.5 405q0 301 85 391t370 90zM531 786q-143 0 -182 -51.5t-39 -240.5q0 -216 37 -270t185 -54q143 0 180.5 57t37.5 274q0 183 -39 234t-180 51zM528 1351l301 -203l-51 -89l-250 126
l-245 -126l-52 89z" />
    <glyph glyph-name="otilde" unicode="&#xf5;" horiz-adv-x="1060" 
d="M533 967q277 0 363 -88.5t86 -373.5q0 -318 -84 -417t-354 -99q-293 0 -379.5 92t-86.5 405q0 301 85 391t370 90zM531 786q-143 0 -182 -51.5t-39 -240.5q0 -216 37 -270t185 -54q143 0 180.5 57t37.5 274q0 183 -39 234t-180 51zM754 1291l117 -64q-84 -154 -199 -154
q-63 0 -150 51t-124 51q-50 0 -92 -78l-117 67q94 151 205 151q55 0 143 -49q97 -53 129 -53q47 0 88 78z" />
    <glyph glyph-name="udieresis" unicode="&#xfc;" horiz-adv-x="1081" 
d="M962 956v-956h-229l13 164l-4 1q-67 -176 -308 -176q-325 0 -325 325v642h229v-587q0 -122 34 -160.5t141 -38.5q220 0 220 264v522h229zM440 1281v-160h-177v160h177zM817 1281v-160h-177v160h177z" />
    <glyph glyph-name="uacute" unicode="&#xfa;" horiz-adv-x="1081" 
d="M962 956v-956h-229l13 164l-4 1q-67 -176 -308 -176q-325 0 -325 325v642h229v-587q0 -122 34 -160.5t141 -38.5q220 0 220 264v522h229zM731 1368l83 -154l-358 -154l-50 95z" />
    <glyph glyph-name="ugrave" unicode="&#xf9;" horiz-adv-x="1081" 
d="M962 956v-956h-229l13 164l-4 1q-67 -176 -308 -176q-325 0 -325 325v642h229v-587q0 -122 34 -160.5t141 -38.5q220 0 220 264v522h229zM350 1368l325 -213l-50 -95l-358 154z" />
    <glyph glyph-name="ucircumflex" unicode="&#xfb;" horiz-adv-x="1081" 
d="M962 956v-956h-229l13 164l-4 1q-67 -176 -308 -176q-325 0 -325 325v642h229v-587q0 -122 34 -160.5t141 -38.5q220 0 220 264v522h229zM538 1351l301 -203l-51 -89l-250 126l-245 -126l-52 89z" />
    <glyph glyph-name="ydieresis" unicode="&#xff;" horiz-adv-x="890" 
d="M900 956l-251 -1016q-53 -216 -131.5 -290.5t-251.5 -74.5q-39 0 -81 4v169q30 -2 50 -2q146 0 185 254h-117l-313 956h246l120 -405l60 -203q5 -20 28 -102l29 -101h5l21 101l21 102l47 203l92 405h241zM345 1281v-160h-177v160h177zM722 1281v-160h-177v160h177z" />
    <glyph glyph-name="Eth" unicode="&#xd0;" horiz-adv-x="1378" 
d="M120 616h-128v160h128v589h673q287 0 401.5 -125.5t114.5 -439.5q0 -510 -92 -655t-415 -145h-682v616zM379 616v-398h372q186 0 240.5 85t54.5 375q0 304 -49 386.5t-230 82.5h-388v-371h373v-160h-373z" />
    <glyph glyph-name="Thorn" unicode="&#xde;" horiz-adv-x="1253" 
d="M120 0v1365h259v-163h291h68q277 0 373.5 -96.5t96.5 -372.5q0 -274 -92 -364t-372 -90l-60 -1h-305v-278h-259zM379 496h295q176 0 223.5 40.5t47.5 191.5q0 173 -39.5 214.5t-205.5 41.5h-321v-488z" />
    <glyph glyph-name="eth" unicode="&#xf0;" horiz-adv-x="1058" 
d="M502 1116l-165 -85l-51 101l156 80l-96 153h232l42 -65l148 75l50 -101l-138 -71l195 -305l45 -69q60 -98 60 -313q0 -526 -448 -526q-252 0 -353 108.5t-101 378.5q0 272 100.5 380.5t351.5 108.5l68 -1zM530 785q-142 0 -181 -51.5t-39 -239.5q0 -215 37 -269t184 -54
q142 0 179.5 56.5t37.5 273.5q0 183 -38.5 233.5t-179.5 50.5z" />
    <glyph glyph-name="thorn" unicode="&#xfe;" horiz-adv-x="1085" 
d="M113 1365h229v-551l-1 -1q80 155 301 155q208 0 286.5 -103.5t78.5 -377.5q0 -287 -78 -392.5t-289 -105.5q-225 0 -294 150h-4v-549h-229v1775zM554 787q-131 0 -171 -59t-40 -250q0 -186 43 -247t176 -61t173 58t40 249q0 196 -40.5 253t-180.5 57z" />
    <glyph glyph-name="onesuperior" unicode="&#xb9;" horiz-adv-x="855" 
d="M600 1365v-819h-177v663l-220 -201l-109 108l290 249h216z" />
    <glyph glyph-name="twosuperior" unicode="&#xb2;" horiz-adv-x="856" 
d="M759 685v-140h-674v176q0 129 51 171.5t240 73.5q155 24 182 43t27 102q0 80 -27 100.5t-133 20.5q-109 0 -136.5 -20.5t-27.5 -101.5v-42h-174l1 40q0 156 69 210t267 54q194 0 264.5 -55t70.5 -206q0 -142 -54 -191.5t-244 -80.5q-151 -25 -175 -42t-24 -97v-15h497z
" />
    <glyph glyph-name="threesuperior" unicode="&#xb3;" horiz-adv-x="857" 
d="M349 898v133l35 -1q140 0 168.5 13.5t28.5 80.5q0 75 -25.5 91.5t-140.5 16.5q-105 0 -130.5 -18t-25.5 -92l1 -30h-174v37q0 144 66.5 193.5t260.5 49.5q342 0 342 -217q0 -155 -119 -190q132 -26 132 -179q0 -145 -72 -196t-277 -51q-201 0 -274.5 51t-73.5 190l1 52
h175q-1 -22 -2 -38q-4 -75 28 -95t152 -20q111 0 140 20t29 95q0 104 -135 104h-74h-36z" />
    <glyph glyph-name="multiply" unicode="&#xd7;" 
d="M484 683l-333 333l158 158l333 -333l333 333l158 -158l-333 -333l333 -333l-158 -159l-333 333l-333 -333l-158 159z" />
    <glyph glyph-name="onehalf" unicode="&#xbd;" horiz-adv-x="2050" 
d="M601 1365v-819h-177v663l-220 -201l-109 108l290 249h216zM1534 1365l-862 -1365h-155l860 1365h157zM1952 140v-140h-674v176q0 128 51 170.5t240 72.5q154 25 181.5 44t27.5 102q0 80 -27 100.5t-133 20.5q-109 0 -136.5 -20.5t-27.5 -102.5v-42h-174l1 40
q0 156 69 210.5t267 54.5q194 0 264.5 -55t70.5 -207q0 -142 -54 -191t-244 -80q-151 -25 -175 -41.5t-24 -96.5v-15h497z" />
    <glyph glyph-name="onequarter" unicode="&#xbc;" horiz-adv-x="2050" 
d="M600 1365v-819h-177v663l-220 -201l-109 108l290 249h216zM1533 1365l-862 -1365h-155l860 1365h157zM1888 819v-515h101v-131h-101v-173h-177v173h-474v180l387 466h264zM1711 304v380l-316 -380h316z" />
    <glyph glyph-name="threequarters" unicode="&#xbe;" horiz-adv-x="2050" 
d="M349 898v133l35 -1q140 0 168.5 13.5t28.5 80.5q0 75 -25.5 91.5t-140.5 16.5q-105 0 -130.5 -18t-25.5 -92l1 -30h-174v37q0 144 66.5 193.5t260.5 49.5q342 0 342 -217q0 -155 -119 -190q132 -26 132 -179q0 -145 -72 -196t-277 -51q-201 0 -274.5 51t-73.5 190l1 52
h175q-1 -22 -2 -38q-4 -75 28 -95t152 -20q111 0 140 20t29 95q0 104 -135 104h-74h-36zM1575 1365l-862 -1365h-156l860 1365h158zM1889 819v-515h100v-131h-100v-173h-177v173h-474v180l387 466h264zM1712 304v380l-316 -380h316z" />
    <glyph glyph-name="brokenbar" unicode="&#xa6;" horiz-adv-x="229" 
d="M0 1365h229v-700h-229v700zM0 314h229v-655h-229v655z" />
    <glyph glyph-name="glyph237" horiz-adv-x="1300" 
d="M551 1689v-160h-177v160h177zM926 1689v-160h-177v160h177z" />
    <glyph glyph-name="glyph238" horiz-adv-x="1300" 
d="M874 1730l46 -166l-384 -65l-26 103z" />
    <glyph glyph-name="glyph239" horiz-adv-x="1300" 
d="M422 1730l364 -128l-26 -103l-384 65z" />
    <glyph glyph-name="glyph240" horiz-adv-x="1300" 
d="M651 1753l324 -190l-45 -91l-279 114l-280 -114l-44 91z" />
    <glyph glyph-name="glyph241" horiz-adv-x="1300" 
d="M889 1707l114 -64q-90 -158 -211 -158q-61 0 -154 52q-90 50 -130 50q-52 0 -94 -78l-117 63q93 155 207 155q55 0 149 -50q98 -52 134 -52q55 0 102 82z" />
    <glyph glyph-name="glyph242" horiz-adv-x="1300" 
d="M650 1789q168 0 168 -168q0 -167 -168 -167q-167 0 -167 167q0 168 167 168zM650 1707q-85 0 -85 -86q0 -85 85 -85q86 0 86 85q0 86 -86 86z" />
    <glyph glyph-name="glyph243" horiz-adv-x="1105" 
d="M453 1689v-160h-177v160h177zM829 1689v-160h-177v160h177z" />
    <glyph glyph-name="glyph244" horiz-adv-x="1105" 
d="M776 1730l47 -166l-384 -65l-26 103z" />
    <glyph glyph-name="glyph245" horiz-adv-x="1105" 
d="M325 1730l363 -128l-26 -103l-384 65z" />
    <glyph glyph-name="glyph246" horiz-adv-x="1105" 
d="M553 1753l323 -190l-44 -91l-279 114l-281 -114l-43 91z" />
    <glyph glyph-name="glyph247" horiz-adv-x="504" 
d="M217 1689v-160h-177v160h177zM463 1689v-160h-177v160h177z" />
    <glyph glyph-name="glyph248" horiz-adv-x="504" 
d="M476 1730l46 -166l-384 -65l-26 103z" />
    <glyph glyph-name="glyph249" horiz-adv-x="504" 
d="M24 1730l363 -128l-26 -103l-384 65z" />
    <glyph glyph-name="glyph250" horiz-adv-x="504" 
d="M252 1753l323 -190l-44 -91l-279 114l-281 -114l-43 91z" />
    <glyph glyph-name="glyph251" horiz-adv-x="1507" 
d="M992 1707l114 -64q-90 -158 -212 -158q-61 0 -154 52q-90 50 -129 50q-52 0 -95 -78l-116 63q93 155 207 155q55 0 148 -50q99 -52 135 -52q55 0 102 82z" />
    <glyph glyph-name="glyph252" horiz-adv-x="1328" 
d="M565 1689v-160h-177v160h177zM941 1689v-160h-177v160h177z" />
    <glyph glyph-name="glyph253" horiz-adv-x="1328" 
d="M887 1730l47 -166l-384 -65l-26 103z" />
    <glyph glyph-name="glyph254" horiz-adv-x="1328" 
d="M436 1730l364 -128l-26 -103l-384 65z" />
    <glyph glyph-name="glyph255" horiz-adv-x="1328" 
d="M663 1753l324 -190l-44 -91l-280 114l-280 -114l-43 91z" />
    <glyph glyph-name="glyph256" horiz-adv-x="1328" 
d="M903 1707l114 -64q-90 -158 -211 -158q-61 0 -154 52q-90 50 -130 50q-52 0 -94 -78l-117 63q93 155 208 155q54 0 148 -50q99 -52 134 -52q56 0 102 82z" />
    <glyph glyph-name="glyph257" horiz-adv-x="1226" 
d="M613 1468l-323 191l43 91l280 -114l280 114l44 -91z" />
    <glyph glyph-name="Scaron" unicode="&#x160;" horiz-adv-x="1226" 
d="M1133 967h-253q-2 19 -2 28q-9 115 -51 144.5t-198 29.5q-184 0 -240.5 -34t-56.5 -143q0 -129 46 -155t304 -40q305 -17 394.5 -87t89.5 -291q0 -272 -105 -351.5t-463 -79.5q-322 0 -427.5 78t-105.5 316l-1 50h252l1 -29q0 -143 50 -175t273 -32q174 0 222 37t48 171
q0 99 -36.5 131.5t-157.5 39.5l-143 9q-324 19 -414 90t-90 305q0 239 108.5 318.5t433.5 79.5q308 0 415 -73t107 -285v-52zM613 1468l-323 191l43 91l280 -114l280 114l44 -91z" />
    <glyph glyph-name="glyph259" horiz-adv-x="1376" 
d="M589 1689v-160h-177v160h177zM965 1689v-160h-177v160h177z" />
    <glyph glyph-name="glyph260" horiz-adv-x="1376" 
d="M911 1730l47 -166l-384 -65l-26 103z" />
    <glyph glyph-name="glyph261" horiz-adv-x="1376" 
d="M461 1730l363 -128l-26 -103l-384 65z" />
    <glyph glyph-name="glyph262" horiz-adv-x="1376" 
d="M687 1753l324 -190l-44 -91l-280 114l-280 -114l-43 91z" />
    <glyph glyph-name="glyph263" horiz-adv-x="1248" 
d="M847 1730l47 -166l-384 -65l-26 103z" />
    <glyph glyph-name="Yacute" unicode="&#xdd;" horiz-adv-x="1245" 
d="M1251 1365l-506 -844v-521h-259v521l-492 844h300l206 -360q17 -30 58 -111l29 -55l28 -55h7l29 55l29 55q37 74 59 111l208 360h304zM847 1730l47 -166l-384 -65l-26 103z" />
    <glyph glyph-name="glyph265" horiz-adv-x="1248" 
d="M525 1689v-160h-177v160h177zM901 1689v-160h-177v160h177z" />
    <glyph glyph-name="glyph266" horiz-adv-x="457" 
d="M169 1281v-160h-177v160h177zM464 1281v-160h-177v160h177z" />
    <glyph glyph-name="glyph267" horiz-adv-x="457" 
d="M342 956v-956h-229v956h229z" />
    <glyph glyph-name="scaron" unicode="&#x161;" horiz-adv-x="1013" 
d="M911 693h-224l-3 18q-7 69 -39.5 86t-157.5 17q-179 0 -179 -116q0 -79 31.5 -94t213.5 -24q245 -12 319 -65t74 -217q0 -175 -98.5 -242.5t-353.5 -67.5q-245 0 -335 61t-90 228v24h238q-5 -20 -6 -32q-14 -127 196 -127q217 0 217 126q0 121 -136 121q-307 0 -404.5 58
t-97.5 241q0 164 89 222t342 58q239 0 321.5 -56t82.5 -219zM503 1063l-298 197l52 91l246 -119l258 119l48 -91z" />
    <glyph glyph-name="yacute" unicode="&#xfd;" horiz-adv-x="890" 
d="M900 956l-251 -1016q-53 -216 -131.5 -290.5t-251.5 -74.5q-39 0 -81 4v169q30 -2 50 -2q146 0 185 254h-117l-313 956h246l120 -405l60 -203q5 -20 28 -102l29 -101h5l21 101l21 102l47 203l92 405h241zM636 1368l83 -154l-358 -154l-50 95z" />
  </font>
</defs></svg>
